"TOA5","UM_Lab","CR1000","54800","CR1000.Std.25","CPU:Met_station_20140922.CR1","46375","Table1"
"TIMESTAMP","RECORD","BattV","PTemp_C","AirTC_1","RH_1","AirTC_2","RH_2","DT","Q","TCDT","WS_ms","WindDir","NR_Wm2","CNR_Wm2","Rain_mm_Tot","Ducer_1","Ducer_2"
"TS","RN","V","Deg C","Deg C","%","Deg C","%","m","","m","m/s","degrees","W/m^2","W/m^2","mm","V","V"
"","","Smp","Smp","Smp","Smp","Smp","Smp","Smp","Smp","Smp","Smp","Smp","Smp","Smp","Tot","Smp","Smp"
"2016-10-07 00:15:00",71440,13.48,-1.801,-2.566,73.78,-2.668,73.24,2.018,179,2.008,10.47,123.5,-777.5,-868,0,51.54,508.9
"2016-10-07 00:30:00",71441,13.46,-1.844,-2.547,73.43,-2.683,72.92,2.018,180,2.009,9.94000,128.1,-754,-833,0,50.17,508.9
"2016-10-07 00:45:00",71442,13.44,-1.887,-2.462,74.22999,-2.564,72.79999,2.017,182,2.008,10.81,132.1,-750.6,-843,0,48.12,531.4
"2016-10-07 01:00:00",71443,13.43,-1.907,-2.224,72.63,-2.36,72.18999,2.017,189,2.009,10.4,128.7,-767.4,-856,0,42.66,499.3
"2016-10-07 01:15:00",71444,13.41,-1.927,-2.377,73.67,-2.513,73.18999,2.017,179,2.008,10.08,126.1,-760.7,-843,0,45.39,511.6
"2016-10-07 01:30:00",71445,13.39,-1.95,-2.275,74.11,-2.377,73.66,2.016,193,2.008,9.72000,131.8,-750.6,-826,0,40.61,530.7
"2016-10-07 01:45:00",71446,13.37,-1.95,-2.105,74.01,-2.173,73.53,2.016,185,2.008,10.1,131.8,-750.6,-832,0,39.25,513.7
"2016-10-07 02:00:00",71447,13.35,-1.927,-1.901,72.99,-1.901,72.17,2.018,176,2.011,10.63,131.9,-774.2,-867,0,41.98,510.9
"2016-10-07 02:15:00",71448,13.33,-1.887,-1.986,72.76,-2.088,72.18999,2.014,194,2.007,10.17,123,-760.7,-844,0,37.88,511.6
"2016-10-07 02:30:00",71449,13.31,-1.887,-1.765,71.22,-1.833,70.54,2.017,180,2.01,9.47000,131.5,-716.9,-785.1,0,40.61,508.2
"2016-10-07 02:45:00",71450,13.3,-1.821,-1.612,71.91,-1.68,71.1,2.015,181,2.009,8.92,138.3,-626.1,-678.3,0,34.47,506.1
"2016-10-07 03:00:00",71451,13.28,-1.778,-1.936,72.17,-1.97,71.56,2.017,180,2.01,7.265,128,-653,-684.5,0,38.23,511.3
"2016-10-07 03:15:00",71452,13.26,-1.778,-2.106,71.86,-2.174,71.15,2.017,195,2.009,7.037,121.6,-572.2,-597,0,46.08,511.6
"2016-10-07 03:30:00",71453,13.25,-1.801,-1.936,71.93,-2.004,71.49,2.018,177,2.011,8.43000,123.2,-616,-660.9,0,41.98,511.6
"2016-10-07 03:45:00",71454,13.23,-1.801,-2.242,72.22999,-2.31,71.54999,2.014,196,2.006,9.74,125.5,-636.2,-700.3,0,40.61,512.3
"2016-10-07 04:00:00",71455,13.21,-1.844,-2.259,71.64,-2.395,70.76,2.019,186,2.011,10.33,130,-696.8,-775.8,0,45.39,505.5
"2016-10-07 04:15:00",71456,13.19,-1.907,-2.547,71.08,-2.649,70.4,2.017,194,2.008,9.12,132.5,-686.7,-746.9,0,53.58,511.6
"2016-10-07 04:30:00",71457,13.17,-1.97,-2.598,71.51,-2.632,70.96,2.018,182,2.008,8.97,122.6,-673.2,-730.1,0,52.9,510.9
"2016-10-07 04:45:00",71458,13.16,-2.036,-2.768,71.22999,-2.938,70.83,2.021,183,2.011,9.02000,130.5,-733.8,-796.5,0,45.39,534.8
"2016-10-07 05:00:00",71459,13.15,-2.142,-3.193,70.74,-3.227,70.13,2.021,181,2.009,8.45,116.1,-727,-780.4,0,52.9,508.2
"2016-10-07 05:15:00",71460,13.13,-2.248,-2.802,69.13,-2.972,68.72,2.02,185,2.01,8.33,124.6,-727,-778.6,0,50.85,515.7
"2016-10-07 05:30:00",71461,13.11,-2.314,-2.853,69.65,-2.921,69.11,2.02,184,2.009,8.54,120.7,-730.4,-785.5,0,43.34,531.4
"2016-10-07 05:45:00",71462,13.1,-2.377,-3.55,72.72999,-3.618,72.18999,2.022,198,2.009,8.11,123.3,-723.7,-771.6,0,54.27,530.7
"2016-10-07 06:00:00",71463,13.09,-2.506,-3.992,74.02,-4.094,73.51,2.025,187,2.01,7.67200,109.4,-693.4,-732.8,0,47.44,510.2
"2016-10-07 06:15:00",71464,13.07,-2.677,-3.193,70.06,-3.295,69.31,2.022,187,2.01,7.54600,114.9,-727,-766.5,0,45.39,515
"2016-10-07 06:30:00",71465,13.06,-2.763,-3.533,71.01,-3.669,70.22999,2.022,187,2.009,7.96100,121.3,-710.2,-755,0,39.25,511.6
"2016-10-07 06:45:00",71466,13.05,-2.827,-3.414,69.86999,-3.482,69.13,2.022,179,2.009,7.80100,123.1,-727.1,-770.4,0,41.98,510.2
"2016-10-07 07:00:00",71467,13.04,-2.892,-3.329,68.57,-3.363,67.72,2.021,183,2.009,7.745,124.1,-723.7,-766,0,38.57,510.2
"2016-10-07 07:15:00",71468,13.03,-2.955,-4.009,71.63,-4.111,71.15,2.024,177,2.009,7.919,110.8,-690.1,-733,0,42.66,513
"2016-10-07 07:30:00",71469,13,-3.084,-3.974,71.97,-4.076,71.49,2.026,182,2.011,6.852,123.5,-696.9,-724.3,0,54.27,513.7
"2016-10-07 07:45:00",71470,12.97,-3.193,-4.246,73.26,-4.348,72.78,2.026,180,2.01,6.56,110.8,-656.5,-678.3,0,51.54,510.9
"2016-10-07 08:00:00",71471,12.97,-3.299,-3.717,71.65,-3.853,70.97,2.022,188,2.008,7.73700,104.8,-592.5,-627,0,39.25,515
"2016-10-07 08:15:00",71472,13.04,-3.321,-3.868,71.43,-3.936,70.78,2.023,183,2.009,7.45900,108.4,-639.6,-673.1,0,37.2,515.7
"2016-10-07 08:30:00",71473,13.08,-3.321,-4.241,72.72,-4.343,72.21,2.026,184,2.01,8.04,103.2,-663.2,-706.1,0,46.76,511.6
"2016-10-07 08:45:00",71474,13.25,-3.342,-4.242,72.66,-4.412,72.28,2.022,194,2.006,7.09800,98.5,-649.7,-678.8,0,42.66,510.2
"2016-10-07 09:00:00",71475,14.47,-3.278,-4.038,72.04,-4.344,72.01,2.027,182,2.012,6.71800,100.9,-602.6,-624.7,0,34.47,513.7
"2016-10-07 09:15:00",71476,14.62,-3.084,-4.025,70.66,-4.127,70.25,2.024,182,2.009,6.184,108,-579,-593.6,0,33.79,532.1
"2016-10-07 09:30:00",71477,14.62,-2.849,-3.992,71.61,-4.162,71.4,2.027,181,2.012,5.502,110.5,-454.5,-459.3,0,37.54,512.6
"2016-10-07 09:45:00",71478,14.62,-2.549,-3.499,70.74,-3.635,70.5,2.024,181,2.011,5.197,121.2,-417.4,-419.2,0,43.34,511.6
"2016-10-07 10:00:00",71479,14.64,-2.142,-3.074,70.38,-3.346,70.25,2.023,185,2.012,5.757,104.4,-410.7,-417.3,0,27.3,508.5
"2016-10-07 10:15:00",71480,14.62,-1.715,-2.955,71.96,-3.193,71.68999,2.023,179,2.012,5.964,108.6,-333.2,-340.1,0,29.01,509.6
"2016-10-07 10:30:00",71481,14.62,-1.331,-2.416,70.39,-2.654,69.97999,2.021,176,2.012,5.948,110.9,-306.3,-312.5,0,25.94,514.7
"2016-10-07 10:45:00",71482,14.62,-0.96900,-2.365,69.56,-2.467,69.08,2.021,178,2.012,6.493,124.4,-457.8,-472.3,0,34.47,512.3
"2016-10-07 11:00:00",71483,14.63,-0.841,-2.302,68.46,-2.404,68.18999,2.018,172,2.009,6.162,119,-329.8,-338,0,29.01,512.2
"2016-10-07 11:15:00",71484,14.43,-0.777,-2.151,69.77,-2.321,69.36,2.021,182,2.013,6.431,114.1,-286.1,-294.8,0,36.51,510.8
"2016-10-07 11:30:00",71485,14.37,-0.649,-2.016,69.22,-2.186,68.81,2.019,179,2.012,7.05300,111.9,-238.9,-249.4,0,34.8,510.4
"2016-10-07 11:45:00",71486,14.37,-0.542,-1.846,70.58,-1.982,70.24,2.017,176,2.01,7.02700,115,-235.6,-245.7,0,28.32,512.1
"2016-10-07 12:00:00",71487,14.37,-0.373,-1.625,69.1,-1.761,68.9,2.016,179,2.01,7.334,115,-242.3,-254.3,0,26.61,508.2
"2016-10-07 12:15:00",71488,14.37,-0.224,-1.778,70.92,-1.914,70.85,2.018,180,2.011,6.418,107.7,-370.2,-381.4,0,38.54,506.5
"2016-10-07 12:30:00",71489,14.37,-0.09500,-1.472,68.88,-1.642,68.47,2.017,179,2.012,5.987,119.1,-198.5,-202.7,0,26.94,507.8
"2016-10-07 12:45:00",71490,14.34,0.074,-1.234,69.09,-1.37,68.68,2.018,184,2.013,7.792,107.5,-319.7,-338.7,0,28.65,505.5
"2016-10-07 13:00:00",71491,14.32,0.246,-1.268,67.59,-1.438,67.18,2.015,185,2.01,7.339,124.3,-272.6,-286.1,0,31.72,531.7
"2016-10-07 13:15:00",71492,14.32,0.33,-0.86,64.06,-0.96200,63.85,2.012,182,2.009,7.91300,106.8,-333.1,-353.8,0,33.08,531
"2016-10-07 13:30:00",71493,14.31,0.458,-0.758,62.42,-0.826,61.61,2.011,181,2.008,8.77000,112,-360,-388.9,0,32.4,509.9
"2016-10-07 13:45:00",71494,14.31,0.542,-0.86,65.89,-1.03,65.55,2.014,188,2.011,7.284,108.5,-387,-405.8,0,31.72,514.7
"2016-10-07 14:00:00",71495,14.31,0.628,-1.013,67.2,-1.217,66.86,2.014,187,2.01,7.60600,112.8,-346.6,-365.8,0,39.56,504.8
"2016-10-07 14:15:00",71496,14.32,0.628,-1.166,67.45,-1.234,66.84,2.015,186,2.011,7.574,117.7,-343.2,-362,0,35.81,509.2
"2016-10-07 14:30:00",71497,14.31,0.608,-1.183,68.39,-1.319,68.25,2.016,184,2.012,7.73100,114.4,-356.7,-377.4,0,31.72,507.8
"2016-10-07 14:45:00",71498,14.32,0.608,-1.166,66.81,-1.302,66.37,2.015,184,2.011,7.163,104.1,-410.5,-429.4,0,37.18,509.9
"2016-10-07 15:00:00",71499,14.31,0.608,-1.54,69.29,-1.642,68.75,2.017,187,2.011,7.29500,105.5,-400.4,-420,0,32.4,507.8
"2016-10-07 15:15:00",71500,14.31,0.585,-1.693,69.1,-1.761,68.42,2.018,178,2.012,6.534,97.9,-420.6,-434.3,0,39.9,510.6
"2016-10-07 15:30:00",71501,14.31,0.542,-1.625,69.34,-1.727,68.59,2.018,184,2.012,6.174,89.9,-491.3,-503.5,0,37.18,507.2
"2016-10-07 15:45:00",71502,14.32,0.565,-1.914,70.92,-1.982,70.45,2.02,177,2.013,5.669,90.5,-450.9,-457.3,0,42.63,510.6
"2016-10-07 16:00:00",71503,14.31,0.522,-1.863,69.88,-1.931,69.14,2.018,187,2.011,6.442,95.1,-518.2,-534.1,0,43.32,511.9
"2016-10-07 16:15:00",71504,14.31,0.522,-1.846,69.29,-1.914,68.71,2.021,177,2.014,6.368,112,-595.6,-612.9,0,41.95,508.5
"2016-10-07 16:30:00",71505,14.32,0.522,-2.135,69.71,-2.169,68.68999,2.02,177,2.012,5.942,106.3,-551.8,-562.9,0,41.95,509.9
"2016-10-07 16:45:00",71506,14.31,0.479,-2.39,69.02,-2.457,68.41,2.019,179,2.01,5.977,93.6,-535,-546.1,0,48.09,508.5
"2016-10-07 17:00:00",71507,14.31,0.373,-2.559,68.88,-2.695,68.2,2.02,192,2.011,7.116,102.5,-548.5,-573.2,0,52.86,506.5
"2016-10-07 17:15:00",71508,14.31,0.266,-2.627,68.85,-2.695,68.1,2.019,185,2.009,6.98700,96.3,-578.7,-603.2,0,48.77,510.6
"2016-10-07 17:30:00",71509,14.31,0.138,-3.239,71.33,-3.341,70.72,2.022,189,2.01,6.525,97.6,-585.5,-604.5,0,50.82,509.9
"2016-10-07 17:45:00",71510,14.31,-0.032,-3.239,70.92,-3.341,70.21,2.024,179,2.012,6.591,100,-568.7,-587.9,0,50.14,502.4
"2016-10-07 18:00:00",71511,14.31,-0.224,-3.46,72.16,-3.494,71.47999,2.024,189,2.011,6.526,101.7,-605.7,-625.4,0,49.45,532.4
"2016-10-07 18:15:00",71512,14.31,-0.436,-3.392,71.38,-3.392,70.56,2.023,183,2.01,6.405,97.5,-673,-693.1,0,50.82,510.6
"2016-10-07 18:30:00",71513,14.22,-0.671,-3.239,69.43,-3.341,68.71,2.022,177,2.01,7.42200,94.3,-723.5,-760.8,0,51.17,530.1
"2016-10-07 18:45:00",71514,14.13,-0.947,-3.783,71.74,-3.885,71.06,2.025,194,2.011,6.949,93.9,-713.5,-743.1,0,42.65,510.1
"2016-10-07 19:00:00",71515,14.08,-1.225,-3.54,69.97999,-3.676,69.43999,2.023,189,2.01,7.03200,85.8,-720.2,-751.4,0,48.8,512.9
"2016-10-07 19:15:00",71516,14.04,-1.48,-3.811,71.54,-3.879,70.93,2.024,193,2.01,7.44700,95.70002,-690,-725.9,0,45.05,529.7
"2016-10-07 19:30:00",71517,14,-1.692,-3.539,70.93,-3.641,70.29,2.025,179,2.012,7.14500,93.5,-663.1,-693.4,0,40.61,510.2
"2016-10-07 19:45:00",71518,13.98,-1.887,-3.569,71.89,-3.671,71.21,2.025,182,2.012,6.608,103.6,-656.4,-678.8,0,36.52,530.7
"2016-10-07 20:00:00",71519,13.94,-2.036,-3.703,71.61999,-3.737,70.91,2.025,183,2.011,6.223,101.4,-669.8,-687.3,0,39.93,507.5
"2016-10-07 20:15:00",71520,13.92,-2.185,-3.992,72.59,-4.094,71.85,2.025,189,2.01,6.309,93.70002,-669.8,-688.5,0,37.88,508.9
"2016-10-07 20:30:00",71521,13.89,-2.357,-3.975,72.43999,-4.077,71.76,2.024,192,2.009,6.083,87.6,-683.3,-699,0,48.81,508.9
"2016-10-07 20:45:00",71522,13.86,-2.526,-4.417,73.93999,-4.485,73.26,2.028,187,2.012,5.501,82.9,-700.1,-707.6,0,48.81,510.2
"2016-10-07 21:00:00",71523,13.83,-2.698,-4.06,72.46,-4.094,71.78,2.026,189,2.011,6.178,79.18,-706.9,-724.6,0,44.03,513.7
"2016-10-07 21:15:00",71524,13.8,-2.849,-4.179,72.31,-4.179,71.66,2.027,187,2.011,5.852,82.9,-659.7,-671.7,0,47.44,508.2
"2016-10-07 21:30:00",71525,13.78,-2.955,-4.723,73.93999,-4.825,73.36,2.027,189,2.009,6.228,83.1,-683.3,-701.2,0,46.08,508.2
"2016-10-07 21:45:00",71526,13.76,-3.127,-4.79,73.79999,-4.824,73.09,2.03,180,2.012,6.664,85.3,-639.6,-662.3,0,42.66,508.2
"2016-10-07 22:00:00",71527,13.74,-3.256,-4.449,72.04,-4.585,71.49,2.028,192,2.011,6.645,88.1,-606,-627.2,0,37.88,531.4
"2016-10-07 22:15:00",71528,13.72,-3.342,-4.056,69.4,-4.09,68.52,2.021,184,2.006,6.526,94.3,-612.7,-632.6,0,35.15,511.6
"2016-10-07 22:30:00",71529,13.7,-3.407,-4.717,72.93,-4.853,72.28,2.026,182,2.008,7.339,81.8,-552.1,-579.6,0,34.47,499.3
"2016-10-07 22:45:00",71530,13.68,-3.513,-4.935,73.7,-5.037,73.11999,2.03,189,2.012,7.701,84.6,-525.2,-555.4,0,40.61,515
"2016-10-07 23:00:00",71531,13.65,-3.642,-5.189,75.66,-5.257,75.18,2.032,178,2.013,6.322,84.70002,-518.4,-533,0,48.81,510.2
"2016-10-07 23:15:00",71532,13.63,-3.771,-4.898,76.16,-5.001,75.92,2.028,202,2.01,5.41,77.08,-528.6,-533.2,0,51.54,507.5
"2016-10-07 23:30:00",71533,13.61,-3.816,-4.218,73.78,-4.32,73.22999,2.028,192,2.012,6.028,87.8,-454.5,-464.5,0,28.33,512.3
"2016-10-07 23:45:00",71534,13.59,-3.816,-4.558,76.02,-4.694,75.58,2.028,188,2.011,5.899,91.8,-451.2,-459.8,0,30.38,506.8
"2016-10-08 00:00:00",71535,13.57,-3.836,-3.963,72.93999,-4.099,72.47,2.026,177,2.011,5.278,91.3,-505,-508,0,32.42,509.6
