"TOA5","UM_Lab","CR1000","54800","CR1000.Std.25","CPU:Met_station_20140922.CR1","46375","Table1"
"TIMESTAMP","RECORD","BattV","PTemp_C","AirTC_1","RH_1","AirTC_2","RH_2","DT","Q","TCDT","WS_ms","WindDir","NR_Wm2","CNR_Wm2","Rain_mm_Tot","Ducer_1","Ducer_2"
"TS","RN","V","Deg C","Deg C","%","Deg C","%","m","","m","m/s","degrees","W/m^2","W/m^2","mm","V","V"
"","","Smp","Smp","Smp","Smp","Smp","Smp","Smp","Smp","Smp","Smp","Smp","Smp","Smp","Tot","Smp","Smp"
"2016-10-08 00:15:00",71536,13.55,-3.836,-4.643,75.66,-4.643,75.09,2.029,188,2.012,5.434,84.20002,-552.2,-557.3,0,38.57,530.7
"2016-10-08 00:30:00",71537,13.53,-3.859,-4.983,77.22999,-5.017,76.54999,2.031,184,2.012,3.64,79.47999,-575.8,-575.8,0,39.59,505.8
"2016-10-08 00:45:00",71538,13.51,-3.988,-4.983,76.96,-5.051,76.21,2.03,188,2.011,4.193,68.86999,-585.9,-585.9,0,54.27,515
"2016-10-08 01:00:00",71539,13.49,-4.074,-4.575,73.68999,-4.643,73.18,2.028,190,2.011,4.772,83.70002,-582.5,-582.5,0,41.3,511.6
"2016-10-08 01:15:00",71540,13.47,-4.117,-5.595,77.43,-5.629,76.75,2.034,180,2.013,5.012,89.4,-521.9,-522,0,50.17,506.8
"2016-10-08 01:30:00",71541,13.45,-4.245,-5.476,76.7,-5.544,76.02,2.032,185,2.012,4.998,86.70002,-558.9,-558.9,0,57.68,509.6
"2016-10-08 01:45:00",71542,13.43,-4.397,-5.493,76.28,-5.561,75.7,2.031,180,2.01,5.222,89.3,-592.6,-595.4,0,48.46,513.3
"2016-10-08 02:00:00",71543,13.41,-4.505,-5.374,76.29,-5.408,75.95,2.031,188,2.011,5.428,77.45,-599.3,-604.8,0,48.81,500.7
"2016-10-08 02:15:00",71544,13.39,-4.593,-5.595,77.09,-5.629,76.58,2.032,189,2.011,5.471,87.9,-505.1,-510.1,0,43.35,511.6
"2016-10-08 02:30:00",71545,13.37,-4.657,-4.915,75.53,-4.949,74.97999,2.029,184,2.011,5.347,80.3,-363.6,-366.3,0,39.93,510.2
"2016-10-08 02:45:00",71546,13.36,-4.636,-4.592,74.52,-4.728,73.97999,2.028,186,2.011,5.119,85.70002,-336.7,-337.6,0,27.65,515.7
"2016-10-08 03:00:00",71547,13.34,-4.593,-4.711,75.25999,-4.847,74.91,2.029,188,2.011,6.618,90.4,-437.7,-452.8,0,27.99,530.4
"2016-10-08 03:15:00",71548,13.32,-4.548,-4.711,75.18999,-4.847,74.74,2.028,186,2.01,6.626,82.9,-309.8,-320.5,0,29.01,508.9
"2016-10-08 03:30:00",71549,13.3,-4.528,-4.694,75.07,-4.796,74.56,2.029,182,2.011,7.26,83.9,-198.7,-208.2,0,31.74,510.2
"2016-10-08 03:45:00",71550,13.28,-4.485,-4.167,74.2,-4.337,73.76,2.026,176,2.01,7.122,90.3,-158.3,-165.4,0,38.57,508.2
"2016-10-08 04:00:00",71551,13.27,-4.419,-4.133,74.91,-4.269,74.06,2.027,192,2.012,6.012,112,-202,-206.4,0,32.42,513
"2016-10-08 04:15:00",71552,13.25,-4.354,-4.439,75.46,-4.609,74.81,2.029,187,2.012,5.088,87.6,-309.8,-310.4,0,34.47,508.2
"2016-10-08 04:30:00",71553,13.23,-4.333,-4.745,77.43,-4.983,77.09,2.029,191,2.011,5.245,83.9,-175.1,-176,0,41.98,510.2
"2016-10-08 04:45:00",71554,13.21,-4.354,-4.473,78.45,-4.575,77.97999,2.028,187,2.011,4.729,73.43999,-171.7,-171.7,0,46.76,509.6
"2016-10-08 05:00:00",71555,13.19,-4.333,-4.371,78.42,-4.507,78.00999,2.028,190,2.012,4.433,91.4,-168.4,-168.4,0,41.98,508.9
"2016-10-08 05:15:00",71556,13.18,-4.311,-4.269,77.57,-4.337,77.18999,2.028,184,2.012,4.363,81.5,-363.6,-363.6,0,37.54,513.3
"2016-10-08 05:30:00",71557,13.17,-4.311,-4.524,77.11,-4.66,76.67,2.028,191,2.011,5.089,80.70002,-501.7,-502.7,0,38.57,510.9
"2016-10-08 05:45:00",71558,13.15,-4.333,-4.813,76.96,-4.915,76.47999,2.03,183,2.012,5.657,84.3,-542.1,-549.7,0,45.73,528.3
"2016-10-08 06:00:00",71559,13.13,-4.397,-4.847,76.47999,-4.983,76.11,2.029,189,2.011,5.962,92.1,-579.1,-591,0,44.03,510.9
"2016-10-08 06:15:00",71560,13.12,-4.44,-4.796,76.67,-4.864,76.11999,2.029,189,2.011,5.484,80.3,-505.1,-510.3,0,39.93,507.5
"2016-10-08 06:30:00",71561,13.1,-4.462,-4.677,77.5,-4.813,76.92,2.029,187,2.012,4.886,88.1,-316.5,-316.5,0,35.15,532.1
"2016-10-08 06:45:00",71562,13.09,-4.462,-4.201,78.25,-4.337,77.77,2.026,196,2.01,4.685,83.5,-188.6,-188.6,0,39.25,502
"2016-10-08 07:00:00",71563,13.08,-4.397,-3.044,77.74,-3.18,77.22999,2.024,190,2.013,5.516,79.79,-208.8,-211.1,0,15.36,510.9
"2016-10-08 07:15:00",71564,13.06,-4.225,-2.755,77.54999,-2.891,77.07,2.021,188,2.011,5.407,92.4,-316.5,-319.2,0,20.82,510.2
"2016-10-08 07:30:00",71565,13.05,-4.031,-2.568,77.84,-2.636,77.09,2.022,187,2.012,4.705,101.5,-255.9,-255.9,0,24.91,508.2
"2016-10-08 07:45:00",71566,13.01,-3.836,-2.704,79.06,-2.772,78.45,2.021,182,2.011,4.423,92.3,-242.4,-242.4,0,24.23,513
"2016-10-08 08:00:00",71567,12.98,-3.665,-2.092,75.18999,-2.126,74.43999,2.017,187,2.009,4.512,110.4,-195.3,-195.3,0,24.23,511.6
"2016-10-08 08:15:00",71568,12.97,-3.45,-1.583,74.22999,-1.685,73.47999,2.018,186,2.012,4.902,97.6,-138,-138,0,11.26,513.7
"2016-10-08 08:30:00",71569,12.98,-3.193,-1.555,76.64,-1.623,75.92,2.017,184,2.011,5.715,91.1,-144.8,-147,0,12.63,513
"2016-10-08 08:45:00",71570,12.99,-2.978,-1.593,77.41,-1.695,77,2.016,185,2.01,5.273,90.70002,-239,-240.4,0,20.82,511.6
"2016-10-08 09:00:00",71571,13.01,-2.763,-1.561,76.39,-1.629,75.77,2.016,184,2.01,5.405,81,-336.7,-339.6,0,25.6,507.5
"2016-10-08 09:15:00",71572,13.06,-2.569,-1.204,72.66,-1.272,71.97999,2.016,187,2.012,6.069,82.4,-249.1,-254.8,0,22.87,509.6
"2016-10-08 09:30:00",71573,13.13,-2.377,-1.136,72.93,-1.204,72.32,2.016,196,2.012,6.182,99.8,-296.2,-303.7,0,16.04,505.5
"2016-10-08 09:45:00",71574,13.25,-2.205,-1.238,72.11999,-1.306,71.57,2.016,190,2.011,5.651,89.3,-383.7,-389,0,20.82,530.7
"2016-10-08 10:00:00",71575,13.43,-2.056,-1.391,72.31,-1.391,71.9,2.015,196,2.01,6.628,82.6,-370.3,-383.1,0,29.01,508.9
"2016-10-08 10:15:00",71576,13.85,-1.927,-1.493,72.03,-1.493,71.35,2.017,189,2.011,7.35,93.8,-397.2,-417,0,29.01,508.2
"2016-10-08 10:30:00",71577,14.62,-1.778,-1.34,70.32,-1.442,69.64,2.014,193,2.009,7.80900,80.70002,-289.5,-306.8,0,26.62,511.9
"2016-10-08 10:45:00",71578,14.62,-1.566,-1.446,71.74,-1.514,70.92,2.016,187,2.011,7.25600,107.6,-292.8,-306.9,0,25.94,501
"2016-10-08 11:00:00",71579,14.62,-1.351,-1.907,74.27,-2.043,73.68999,2.018,174,2.011,5.59,95.8,-440.9,-446.5,0,29.69,506.8
"2016-10-08 11:15:00",71580,14.62,-1.268,-2.247,75.08,-2.383,74.33,2.019,189,2.011,5.539,78.78,-94.20002,-95.3,0,43.34,532.1
"2016-10-08 11:30:00",71581,14.62,-1.225,-1.651,73.97999,-1.787,73.16,2.016,179,2.01,6.546,89.20002,107.7,111.3,0,50.85,512.3
"2016-10-08 11:45:00",71582,14.62,-1.119,-1.023,73.45,-1.159,73.18,2.012,209,2.008,6.92100,99.4,188.5,196.2,0,27.3,507.9
"2016-10-08 12:00:00",71583,14.62,-0.88400,-1.126,72.56,-1.227,71.88,2.014,185,2.01,6.217,100.4,-292.8,-300.4,0,22.87,510.2
"2016-10-08 12:15:00",71584,14.62,-0.712,-0.757,72.28,-0.757,71.74,2.011,183,2.008,6.779,108.7,-242.3,-251.5,0,23.55,514.2
"2016-10-08 12:30:00",71585,14.45,-0.522,-0.146,71.86999,-0.214,71.06,2.012,173,2.011,7.01300,104.4,-70.67,-73.7,0,16.04,506
"2016-10-08 12:45:00",71586,14.37,-0.33,-0.078,74.79999,-0.146,73.91,2.011,189,2.011,6.578,97.8,40.38,41.74,0,15.69,506.9
"2016-10-08 13:00:00",71587,14.37,-0.158,0.143,72.88,0.041,72.06,2.007,184,2.008,7.148,95.4,30.29,31.67,0,21.49,508.5
"2016-10-08 13:15:00",71588,14.37,0.031,0.33,73.22999,0.262,72.54999,2.008,190,2.009,7.181,92.8,67.29999,70.42,0,17.74,531.4
"2016-10-08 13:30:00",71589,14.37,0.203,0.398,75.27,0.33,74.66,2.008,186,2.009,7.261,103.3,13.46,14.11,0,12.96,508.9
"2016-10-08 13:45:00",71590,14.36,0.393,0.33,75.95,0.194,75.41,2.009,186,2.01,6.492,100.8,40.38,41.66,0,18.42,530
"2016-10-08 14:00:00",71591,14.37,0.565,0.602,75.47999,0.534,74.83,2.009,182,2.011,6.184,99.4,33.65,34.5,0,17.39,516.7
"2016-10-08 14:15:00",71592,14.33,0.71400,1.247,73.2,1.146,72.59,2.007,187,2.012,6.706,102,16.82,17.44,0,18.76,507.2
"2016-10-08 14:30:00",71593,14.31,0.92600,2.063,67.86,2.029,67.11,1.999,192,2.007,8.97,103.5,74.02,80.3,0,14.67,507.2
"2016-10-08 14:45:00",71594,14.31,1.159,2.046,70.53,2.046,69.31,2.002,192,2.009,9.63,102.8,26.92,29.57,0,16.03,507.8
"2016-10-08 15:00:00",71595,14.31,1.373,1.824,71.43,1.858,70.61,2.005,182,2.012,9.56000,109,50.46,55.36,0,19.44,509.9
"2016-10-08 15:15:00",71596,14.31,1.565,2.007,72.29,1.905,71.61,2.003,181,2.01,8.38,107.6,-13.46,-14.42,0,23.87,533.4
"2016-10-08 15:30:00",71597,14.31,1.712,1.971,72.56,1.971,71.67,2.004,192,2.011,7.623,94.5,47.1,49.73,0,28.31,512.6
"2016-10-08 15:45:00",71598,14.31,1.841,2.497,68.93999,2.361,68.26,2.003,186,2.012,7.21800,110.7,50.46,52.85,0,22.17,509.9
"2016-10-08 16:00:00",71599,14.31,2.033,1.932,72.75,1.83,72,2.004,178,2.011,7.634,89.3,43.74,46.19,0,22.17,530.4
"2016-10-08 16:15:00",71600,14.31,2.162,1.539,69.95,1.471,68.72,2.004,189,2.01,7.524,96.70002,-77.38,-81.5,0,31.72,501
"2016-10-08 16:30:00",71601,14.31,2.203,0.89400,72.66,0.79200,71.92,2.007,182,2.01,7.148,98.6,-191.8,-200.5,0,38.54,508.5
"2016-10-08 16:45:00",71602,14.31,2.162,0.86,71.64,0.86,70.9,2.007,188,2.01,7.38,95.9,-228.8,-240.4,0,48.09,511.3
"2016-10-08 17:00:00",71603,14.3,2.096,0.86,71.13,0.79200,70.29,2.011,186,2.014,8.12,91.3,-53.83,-57.4,0,38.54,512.6
"2016-10-08 17:15:00",71604,14.3,2.076,0.418,73.21,0.316,72.66,2.008,192,2.01,7.885,90.20002,-205.2,-217.8,0,46.04,511.9
"2016-10-08 17:30:00",71605,14.3,1.99,0.419,68.86,0.317,68.08,2.006,182,2.008,7.832,105.3,-218.7,-231.9,0,42.63,514.7
"2016-10-08 17:45:00",71606,14.31,1.904,0.673,69.49,0.605,68.64,2.009,191,2.011,8.87,105.2,-242.2,-262.2,0,39.22,512.6
"2016-10-08 18:00:00",71607,14.26,1.798,0.523,69.2,0.455,68.18,2.01,196,2.012,8.25,107.7,-360,-384.9,0,39.22,501.7
"2016-10-08 18:15:00",71608,14.26,1.672,-0.036,72.93,-0.104,72.38,2.011,196,2.011,8.53,111.2,-407.1,-437.7,0,47.41,511.9
"2016-10-08 18:30:00",71609,14.16,1.523,-0.017,73.56,-0.051,72.64,2.011,190,2.011,7.87500,120.8,-376.8,-399.9,0,44.68,531.7
"2016-10-08 18:45:00",71610,14.08,1.373,0.443,69.43,0.341,68.68,2.009,186,2.011,7.911,128.6,-360,-382.3,0,48.77,506.5
"2016-10-08 19:00:00",71611,14.04,1.308,0.139,71.2,0.105,70.52,2.012,187,2.013,7.61100,121.5,-407.1,-429.7,0,39.22,509.9
"2016-10-08 19:15:00",71612,14.01,1.202,0.225,69.39,0.191,68.61,2.009,196,2.01,7.87600,113.7,-440.7,-467.7,0,29.67,508.5
"2016-10-08 19:30:00",71613,13.98,1.096,0.057,71.33,0.023,70.31,2.013,190,2.013,8.85000,126.2,-504.6,-546,0,35.81,510.6
"2016-10-08 19:45:00",71614,13.94,0.989,-0.452,73.16,-0.486,72.47999,2.012,187,2.01,8.31000,111.6,-578.7,-619.4,0,44.68,509.9
"2016-10-08 20:00:00",71615,13.91,0.82000,-0.724,73.29999,-0.69000,72.54999,2.015,187,2.012,8.03,103.7,-679.6,-723.5,0,46.73,508.5
"2016-10-08 20:15:00",71616,13.88,0.648,-0.758,72.21,-0.89400,71.53,2.014,183,2.011,8.27000,111.9,-730.1,-781,0,43.32,509.9
"2016-10-08 20:30:00",71617,13.86,0.501,-0.758,72.08,-0.86,71.26,2.011,196,2.008,8.68000,109.6,-662.9,-714.7,0,46.73,511.9
"2016-10-08 20:45:00",71618,13.83,0.352,-0.758,71.13,-0.758,70.38,2.011,178,2.008,9.14000,112.9,-736.9,-802,0,39.22,510.6
"2016-10-08 21:00:00",71619,13.8,0.266,-1.047,72.64,-1.081,72.03,2.015,192,2.011,8.24,114.2,-636,-679.8,0,37.86,531
"2016-10-08 21:15:00",71620,13.78,0.117,-1.149,73.25,-1.149,72.64,2.018,189,2.014,8.7,130,-726.8,-784,0,40.59,505.8
"2016-10-08 21:30:00",71621,13.75,-0.032,-1.846,75.54,-1.914,74.93,2.017,192,2.01,8.16,108.2,-750.4,-801,0,61.05,514
"2016-10-08 21:45:00",71622,13.73,-0.224,-1.744,71.74,-1.846,71.06,2.018,187,2.012,7.95400,110.3,-736.9,-783.2,0,50.14,531
"2016-10-08 22:00:00",71623,13.71,-0.416,-1.88,72.08,-1.982,71.33,2.016,188,2.009,9.08,115.5,-720.1,-782.7,0,46.73,504.4
"2016-10-08 22:15:00",71624,13.68,-0.563,-2.203,72.67,-2.305,72.09,2.019,186,2.011,9.16,110.8,-625.9,-681.3,0,47.41,509.9
"2016-10-08 22:30:00",71625,13.66,-0.734,-2.22,74.52,-2.322,73.84,2.019,192,2.011,8.99,108.1,-289.4,-314,0,50.83,507.2
"2016-10-08 22:45:00",71626,13.63,-0.86100,-1.37,72.08,-1.438,71.53,2.013,191,2.008,8.32,118.7,-164.9,-176.6,0,39.92,510.7
"2016-10-08 23:00:00",71627,13.61,-0.86100,-1.012,72.71,-1.114,71.93,2.014,185,2.01,8.83,125.8,-168.3,-182,0,29.68,509.4
"2016-10-08 23:15:00",71628,13.6,-0.82000,-1.132,72.61999,-1.234,72.04,2.012,184,2.008,9.34,112.6,-212,-231.6,0,31.05,510.8
"2016-10-08 23:30:00",71629,13.57,-0.798,-1.302,74.46,-1.404,73.91,2.013,185,2.008,8.65,118,-90.9,-97.9,0,33.78,509.4
"2016-10-08 23:45:00",71630,13.55,-0.777,-1.455,76.54999,-1.557,75.83,2.015,183,2.01,7.68500,117.6,-148.1,-156.5,0,38.55,508
"2016-10-09 00:00:00",71631,13.53,-0.798,-1.284,74.68,-1.42,73.93,2.014,186,2.009,8.42,117.3,-114.4,-122.8,0,37.19,506.7
