"TOA5","UM_Lab","CR1000","54800","CR1000.Std.25","CPU:Met_station_20140922.CR1","46375","Table1"
"TIMESTAMP","RECORD","BattV","PTemp_C","AirTC_1","RH_1","AirTC_2","RH_2","DT","Q","TCDT","WS_ms","WindDir","NR_Wm2","CNR_Wm2","Rain_mm_Tot","Ducer_1","Ducer_2"
"TS","RN","V","Deg C","Deg C","%","Deg C","%","m","","m","m/s","degrees","W/m^2","W/m^2","mm","V","V"
"","","Smp","Smp","Smp","Smp","Smp","Smp","Smp","Smp","Smp","Smp","Smp","Smp","Smp","Tot","Smp","Smp"
"2016-12-25 00:15:00",79024,12.53,-32.64,-32.83,65.27,-32.93,64.69,1.984,184,1.861,8.01,100.1,-608.8,-647.8,0,123.4,464
"2016-12-25 00:30:00",79025,12.53,-32.68,-33.51,65.1,-33.58,64.69,1.986,190,1.86,6.76900,64.43,-581.7,-603.6,0,120.6,464.7
"2016-12-25 00:45:00",79026,12.53,-32.73,-32.52,65.1,-32.55,64.49,1.981,185,1.859,7.186,70.59,-615.5,-644.2,0,120.6,463.3
"2016-12-25 01:00:00",79027,12.53,-32.73,-33.37,65.17,-33.37,64.69,1.986,181,1.861,7.163,85.70002,-602,-629.7,0,119.6,469.2
"2016-12-25 01:15:00",79028,12.53,-32.73,-32.69,64.56,-32.76,63.94,1.983,185,1.861,7.094,81.1,-608.8,-635.9,0,121,467.8
"2016-12-25 01:30:00",79029,12.53,-32.77,-33.1,64.93,-33.17,64.49,1.983,181,1.859,7.495,79.75999,-595.2,-626.8,0,122.7,462.7
"2016-12-25 01:45:00",79030,12.53,-32.82,-33.58,65.96,-33.65,65.55,1.984,186,1.858,7.383,82.4,-602,-632.5,0,127.1,468.5
"2016-12-25 02:00:00",79031,12.53,-32.86,-32.14,66.2,-32.21,65.93,1.981,178,1.861,6.483,87.1,-602,-621,0,121.7,463.7
"2016-12-25 02:15:00",79032,12.53,-32.82,-32.31,63.26,-32.31,62.37,1.984,188,1.863,5.4,77.32,-581.7,-586.6,0,122,462
"2016-12-25 02:30:00",79033,12.53,-32.82,-32.35,62.58,-32.35,61.76,1.983,190,1.862,6.93300,77.17,-588.5,-612.7,0,117.9,483.2
"2016-12-25 02:45:00",79034,12.53,-32.73,-32.69,64.66,-32.76,64.15,1.983,190,1.861,7.33500,82.20002,-588.5,-617.7,0,121,483.6
"2016-12-25 03:00:00",79035,12.53,-32.73,-32.96,65.38,-33.03,64.97,1.983,188,1.86,6.558,80,-595.2,-615,0,122.3,467.1
"2016-12-25 03:15:00",79036,12.53,-32.82,-32.55,65.1,-32.62,64.76,1.98,185,1.858,6.158,87.4,-632.4,-648,0,120,467.5
"2016-12-25 03:30:00",79037,12.53,-32.82,-33.3,64.46,-33.37,63.95,1.986,182,1.861,7.266,47.87,-581.7,-609.8,0,117.2,483.2
"2016-12-25 03:45:00",79038,12.53,-32.82,-33.3,64.18,-33.27,63.6,1.987,184,1.862,6.549,73.56,-581.7,-600.9,0,128.9,463.3
"2016-12-25 04:00:00",79039,12.53,-32.91,-33.37,64.49,-33.37,64.01,1.987,190,1.862,5.611,80.3,-581.7,-589.3,0,125.4,468.2
"2016-12-25 04:15:00",79040,12.53,-32.91,-32.76,61.35,-32.62,60.39,1.986,185,1.863,5.946,82.70002,-574.9,-586.5,0,117.9,461.3
"2016-12-25 04:30:00",79041,12.53,-32.91,-31.08,64.63,-31.02,63.67,1.975,186,1.859,6.49,97.70002,-615.5,-635,0,115.2,462.7
"2016-12-25 04:45:00",79042,12.53,-32.73,-31.36,64.83,-31.32,64.08,1.976,177,1.859,7.13800,95.5,-595.2,-622.3,0,121.7,466.4
"2016-12-25 05:00:00",79043,12.53,-32.55,-32.49,65.95,-32.55,65.51,1.982,189,1.86,6.94100,75.71,-602,-626.9,0,113.4,470.5
"2016-12-25 05:15:00",79044,12.53,-32.51,-32.08,64.62,-32.08,64,1.98,188,1.86,7.268,92.3,-629,-659.4,0,115.5,466.4
"2016-12-25 05:30:00",79045,12.53,-32.46,-31.39,62.3,-31.36,61.41,1.981,185,1.864,6.863,74.35,-595.2,-618.8,0,120.6,466.8
"2016-12-25 05:45:00",79046,12.53,-32.37,-31.77,63.52,-31.7,62.77,1.978,189,1.859,6.96700,84.9,-602,-627.2,0,118.2,465
"2016-12-25 06:00:00",79047,12.53,-32.33,-31.12,64.48,-31.12,63.73,1.974,190,1.858,6.479,102.2,-656.1,-676.8,0,117.2,466.8
"2016-12-25 06:15:00",79048,12.53,-32.29,-31.63,68.03,-31.73,67.68999,1.977,188,1.859,6.543,106.5,-649.3,-670.7,0,117.9,462
"2016-12-25 06:30:00",79049,12.53,-32.2,-30.92,63.97,-30.98,63.25,1.976,181,1.861,7.162,94.3,-615.5,-643.8,0,114.1,465.7
"2016-12-25 06:45:00",79050,12.53,-32.11,-32.28,65.16,-32.35,64.75,1.979,187,1.858,6.793,76.04,-588.5,-610.9,0,121.3,463.3
"2016-12-25 07:00:00",79051,12.53,-32.16,-32.93,64.92,-33.07,64.48,1.985,187,1.862,5.87,74.06,-588.5,-599.4,0,114.8,461.6
"2016-12-25 07:15:00",79052,12.53,-32.2,-32.49,64.07,-32.52,63.52,1.98,185,1.859,6.338,80.9,-602,-619.1,0,119.6,462.3
"2016-12-25 07:30:00",79053,12.53,-32.11,-30.3,62.67,-30.3,61.54,1.973,182,1.86,6.729,103.5,-629,-652.2,0,116.9,465.7
"2016-12-25 07:45:00",79054,12.53,-31.98,-32.49,65.98,-32.55,65.78,1.982,179,1.86,6.514,79.03,-588.5,-607.4,0,112.4,462
"2016-12-25 08:00:00",79055,12.53,-31.9,-33.03,65.57,-33.1,65.03,1.984,183,1.86,5.734,79.24,-561.4,-570.2,0,113.8,465.4
"2016-12-25 08:15:00",79056,12.53,-32.03,-32.38,61.61,-32.35,60.52,1.983,187,1.862,6.061,76.46,-554.6,-567.2,0,114.1,463.7
"2016-12-25 08:30:00",79057,12.53,-32.03,-32.49,66.19,-32.52,65.51,1.98,181,1.859,6.677,77.35,-574.9,-595.5,0,110.3,463.3
"2016-12-25 08:45:00",79058,12.53,-32.07,-32.21,63.83,-32.21,63.11,1.982,190,1.861,6.909,85.70002,-574.9,-598.3,0,124.4,465.7
"2016-12-25 09:00:00",79059,12.53,-32.03,-30.37,63.52,-30.3,62.43,1.974,188,1.861,6.725,96.8,-622.3,-645.1,0,118.2,460.9
"2016-12-25 09:15:00",79060,12.53,-31.85,-32.55,64.45,-32.59,63.8,1.983,185,1.861,6.147,83.3,-581.7,-595.9,0,113.8,468.8
"2016-12-25 09:30:00",79061,12.53,-31.85,-32.42,67.11,-32.49,66.87,1.98,190,1.859,5.744,81.1,-595.2,-604.6,0,119.9,483.2
"2016-12-25 09:45:00",79062,12.53,-31.85,-32.62,67.42,-32.69,67.14,1.979,185,1.857,6.068,80.3,-602,-615.7,0,117.5,463
"2016-12-25 10:00:00",79063,12.53,-31.9,-32.35,65.71,-32.35,65.1,1.982,190,1.861,6.187,80.4,-581.7,-596.4,0,118.2,466.4
"2016-12-25 10:15:00",79064,12.53,-31.98,-31.33,67.54999,-31.36,67.01,1.974,182,1.857,6.94700,90,-632.4,-658.6,0,112.1,463.7
"2016-12-25 10:30:00",79065,12.53,-31.9,-32.28,67.96,-32.49,67.9,1.981,187,1.86,6.678,94,-595.2,-616.5,0,114.5,463.3
"2016-12-25 10:45:00",79066,12.49,-32.03,-31.8,64.82,-31.84,64.07,1.98,185,1.861,7.192,79.50999,-595.2,-623,0,116.2,465
"2016-12-25 11:00:00",79067,12.48,-31.98,-32.32,66.29,-32.35,65.78,1.98,185,1.859,6.57,87,-581.7,-601.1,0,122,470.9
"2016-12-25 11:15:00",79068,12.47,-32.03,-32.96,66.39,-33.03,65.98,1.983,187,1.859,6.82300,70.01,-585.1,-607.8,0,116.2,464.4
"2016-12-25 11:30:00",79069,12.47,-32.11,-32.28,66.6,-32.28,66.19,1.98,187,1.859,7.168,88.9,-602,-629.8,0,115.8,465.4
"2016-12-25 11:45:00",79070,12.48,-32.11,-32.35,65.37,-32.42,64.69,1.98,179,1.859,7.366,90.4,-581.7,-611,0,121,482.9
"2016-12-25 12:00:00",79071,12.49,-32.16,-32.14,66.46,-32.21,66.12,1.979,185,1.859,6.732,80.70002,-588.5,-610.2,0,115.1,463.3
"2016-12-25 12:15:00",79072,12.51,-32.11,-32.01,65.71,-32.01,65.37,1.98,178,1.86,7.10400,85.1,-602,-628.9,0,116.2,467.1
"2016-12-25 12:30:00",79073,12.53,-32.11,-31.19,66.46,-31.12,65.98,1.974,182,1.858,7.10400,81.3,-635.8,-664.3,0,117.9,464
"2016-12-25 12:45:00",79074,12.56,-31.98,-32.01,65.54,-31.94,64.99,1.979,191,1.859,7.314,92,-602,-631.6,0,110.7,465
"2016-12-25 13:00:00",79075,12.62,-31.98,-32.28,65.37,-32.35,64.82,1.983,179,1.862,7.352,97.20002,-595.2,-625,0,120.6,458.5
"2016-12-25 13:15:00",79076,13.64,-31.98,-32.08,66.12,-32.14,65.78,1.98,187,1.86,7.17000,87.9,-608.8,-636.9,0,119.3,462.6
"2016-12-25 13:30:00",79077,14.14,-32.03,-32.52,66.74,-32.55,66.46,1.981,181,1.859,6.82200,82.9,-598.6,-621.8,0,111.7,462
"2016-12-25 13:45:00",79078,13.35,-32.07,-32.28,67.61999,-32.28,67.35,1.98,192,1.859,6.499,78.75999,-612.1,-631.7,0,121.7,463.7
"2016-12-25 14:00:00",79079,13.04,-32.07,-31.77,68.36999,-31.8,68.1,1.978,186,1.859,6.703,83.70002,-608.8,-630.8,0,119.6,465.7
"2016-12-25 14:15:00",79080,12.98,-32.03,-32.08,66.46,-32.08,66.05,1.98,179,1.86,7.17800,80.1,-602,-629.9,0,116.5,463.3
"2016-12-25 14:30:00",79081,12.93,-31.98,-32.18,66.19,-32.21,65.85,1.981,186,1.861,7.11800,85.70002,-595.2,-622.1,0,114.1,486.3
"2016-12-25 14:45:00",79082,12.87,-32.03,-32.14,68.17,-32.25,67.9,1.98,189,1.86,6.655,98.9,-595.2,-616.2,0,114.8,464.4
"2016-12-25 15:00:00",79083,12.81,-32.03,-32.49,67.54999,-32.49,67.25,1.98,186,1.859,6.84200,79.56,-595.2,-618.6,0,115.5,460.9
"2016-12-25 15:15:00",79084,12.75,-32.07,-31.87,67.49,-31.8,67.35,1.98,188,1.861,6.377,74.76,-595.2,-612.7,0,117.9,482.5
"2016-12-25 15:30:00",79085,12.7,-32.03,-31.39,66.94,-31.33,66.74,1.976,187,1.859,6.742,89.70002,-625.7,-648.9,0,115.8,461.3
"2016-12-25 15:45:00",79086,12.65,-31.9,-31.12,68.1,-31.12,67.76,1.974,182,1.858,6.92000,98.5,-615.5,-640.7,0,121.7,462.3
"2016-12-25 16:00:00",79087,12.61,-31.81,-31.67,67.28,-31.6,66.87,1.979,177,1.861,6.474,84.70002,-602,-620.9,0,112.7,486.3
"2016-12-25 16:15:00",79088,12.62,-31.77,-31.53,67.01,-31.39,66.6,1.976,185,1.858,6.604,90.1,-608.8,-629.5,0,111.4,461.6
"2016-12-25 16:30:00",79089,12.61,-31.72,-31.8,66.87,-31.8,66.33,1.981,179,1.862,6.912,83.6,-581.7,-605.4,0,114.1,467.8
"2016-12-25 16:45:00",79090,12.61,-31.72,-32.25,72.34,-32.38,72.75,1.978,189,1.858,6.508,78.68999,-561.4,-579.4,0,132.3,464
"2016-12-25 17:00:00",79091,12.6,-31.72,-31.5,68.68,-31.39,68.51,1.978,177,1.86,6.666,88.6,-439.6,-455.2,0,118.6,465.4
"2016-12-25 17:15:00",79092,12.59,-31.72,-30.47,69.06,-30.47,68.92,1.974,189,1.861,6.392,81.5,-439.6,-452.7,0,116.9,463.7
"2016-12-25 17:30:00",79093,12.58,-31.64,-29.55,68.03,-29.62,67.68999,1.97,187,1.86,6.44,93.1,-426.1,-439.2,0,108.6,463.7
"2016-12-25 17:45:00",79094,12.58,-31.43,-29.07,67.54999,-29.07,67.01,1.967,186,1.859,6.871,102,-432.8,-450.1,0,117.2,463.3
"2016-12-25 18:00:00",79095,12.58,-31.18,-30.23,64.96,-30.1,64.28,1.973,189,1.861,6.534,79.75,-473.4,-488.8,0,113.1,481.2
"2016-12-25 18:15:00",79096,12.57,-31.05,-29.55,68.36999,-29.62,68.03,1.97,180,1.86,5.539,97.8,-480.1,-485.6,0,117.5,462.3
"2016-12-25 18:30:00",79097,12.56,-30.93,-29.07,66.04,-29.11,65.43,1.967,185,1.859,7.07,104.5,-500.4,-522.4,0,109,467.4
"2016-12-25 18:45:00",79098,12.56,-30.72,-29,65.8,-28.97,65.22,1.969,183,1.862,7.227,103.5,-486.8,-509.9,0,112.1,465
"2016-12-25 19:00:00",79099,12.56,-30.56,-29.14,66.24,-29.21,65.69,1.968,189,1.86,6.957,92,-510.5,-531.8,0,108,467.1
"2016-12-25 19:15:00",79100,12.55,-30.44,-30.65,66.71,-30.65,66.3,1.974,181,1.86,5.752,84.8,-513.9,-522.1,0,104.5,463
"2016-12-25 19:30:00",79101,12.55,-30.44,-29.25,66.51,-29.21,65.76,1.967,186,1.859,5.766,103.4,-493.6,-501.6,0,115.5,462.3
"2016-12-25 19:45:00",79102,12.55,-30.36,-29.07,65.96,-29.07,65.28,1.968,188,1.86,7.08000,107,-520.6,-543.7,0,110.7,464.4
"2016-12-25 20:00:00",79103,12.55,-30.24,-29.07,65.62,-29.14,65.01,1.967,188,1.859,6.99,104.3,-527.4,-549.7,0,112.1,482.2
"2016-12-25 20:15:00",79104,12.55,-30.16,-29.14,65.76,-29.14,65.01,1.969,187,1.861,7.3,100.3,-524,-549.7,0,113.4,463
"2016-12-25 20:30:00",79105,12.55,-30.08,-29.35,65.96,-29.38,65.21,1.971,186,1.862,6.92800,102,-547.7,-570.2,0,113.8,463.3
"2016-12-25 20:45:00",79106,12.55,-30,-29.28,65.96,-29.28,65.28,1.969,185,1.86,7.221,90.20002,-527.4,-552.3,0,112.4,464.7
"2016-12-25 21:00:00",79107,12.55,-29.92,-29.21,65.82,-29.21,65.14,1.97,186,1.862,7.01900,96.5,-534.2,-557.1,0,109.7,465.4
"2016-12-25 21:15:00",79108,12.55,-29.88,-29.07,65.89,-29.07,65.21,1.968,181,1.86,7.17800,91.8,-507.1,-530.6,0,114.8,461.6
"2016-12-25 21:30:00",79109,12.55,-29.8,-28.87,65.96,-28.87,65.18,1.968,189,1.861,7.21000,92.9,-500.4,-523.9,0,112.7,466.4
"2016-12-25 21:45:00",79110,12.55,-29.76,-28.94,65.76,-28.94,65.07,1.969,178,1.862,6.666,91,-537.5,-556.6,0,108.3,467.4
"2016-12-25 22:00:00",79111,12.55,-29.68,-29.14,66.51,-29.14,65.89,1.97,184,1.862,6.58,93.20002,-507.1,-524.2,0,112.4,464
"2016-12-25 22:15:00",79112,12.55,-29.68,-30.51,66.58,-30.51,66.23,1.973,185,1.86,6.237,87.4,-503.7,-517,0,111.4,467.8
"2016-12-25 22:30:00",79113,12.55,-29.72,-29.07,66.85,-29.07,66.4,1.967,185,1.859,6.23,93.3,-540.9,-555.1,0,108.3,466.1
"2016-12-25 22:45:00",79114,12.55,-29.68,-29.14,66.58,-29.14,66.17,1.967,189,1.859,6.414,90.8,-561.2,-578.1,0,109.3,463.7
"2016-12-25 23:00:00",79115,12.55,-29.68,-29.35,67.11999,-29.38,66.71,1.967,186,1.858,6.439,95.70002,-561.2,-578.4,0,98,463.3
"2016-12-25 23:15:00",79116,12.55,-29.64,-30.51,70.6,-30.58,70.4,1.97,189,1.857,6.438,98.20002,-581.5,-599.3,0,110.3,466.8
"2016-12-25 23:30:00",79117,12.55,-29.76,-29.79,68.08,-29.79,67.6,1.971,185,1.86,6.376,107,-615.3,-633.3,0,105.6,466.1
"2016-12-25 23:45:00",79118,12.55,-29.8,-29.79,67.46,-29.83,66.99,1.972,184,1.861,7.067,104.7,-628.8,-656.5,0,109,466.1
"2016-12-26 00:00:00",79119,12.55,-29.84,-29.79,67.74,-29.86,67.11999,1.971,191,1.86,7.2,99.3,-635.6,-665.4,0,108.3,463.3
