"TOA5","UM_Lab","CR1000","54800","CR1000.Std.25","CPU:Met_station_20140922.CR1","46375","Table1"
"TIMESTAMP","RECORD","BattV","PTemp_C","AirTC_1","RH_1","AirTC_2","RH_2","DT","Q","TCDT","WS_ms","WindDir","NR_Wm2","CNR_Wm2","Rain_mm_Tot","Ducer_1","Ducer_2"
"TS","RN","V","Deg C","Deg C","%","Deg C","%","m","","m","m/s","degrees","W/m^2","W/m^2","mm","V","V"
"","","Smp","Smp","Smp","Smp","Smp","Smp","Smp","Smp","Smp","Smp","Smp","Smp","Smp","Tot","Smp","Smp"
"2016-12-05 00:15:00",77104,12.97,-8.98000,-8.64000,82.3,-8.81000,80.1,1.881,185,1.851,14.53,107.9,-680.6,-819,0,53.96,473.4
"2016-12-05 00:30:00",77105,12.97,-9.01,-8.77000,79.59,-8.87,77.54999,1.883,189,1.853,14.7,112.8,-663.8,-801,0,52.25,473.7
"2016-12-05 00:45:00",77106,12.97,-9.05,-9.04,83.70002,-9.15,82.1,1.884,188,1.853,15.69,109.3,-660.4,-811,0,57.04,477.1
"2016-12-05 01:00:00",77107,12.97,-9.10000,-8.94000,80.1,-8.98000,78.13,1.886,177,1.855,15.42,117.6,-599.7,-732.8,0,54.99,473
"2016-12-05 01:15:00",77108,12.97,-9.12,-8.74,80.1,-8.81000,78.1,1.888,181,1.858,14.53,111.8,-579.5,-697.1,0,54.3,461.4
"2016-12-05 01:30:00",77109,12.96,-9.16,-8.79,79,-8.89000,77.13,1.883,178,1.852,13.92,114.2,-586.3,-697.5,0,54.3,484.6
"2016-12-05 01:45:00",77110,12.96,-9.16,-8.79,79.65,-8.89000,77.97999,1.883,189,1.852,13.8,112.4,-566.1,-672.1,0,52.25,477.1
"2016-12-05 02:00:00",77111,12.96,-9.14000,-8.7,79.77,-8.77000,77.96,1.884,178,1.854,13.04,114.4,-525.6,-615.6,0,49.18,467.9
"2016-12-05 02:15:00",77112,12.96,-9.12,-8.5,79.53,-8.60000,77.89,1.886,184,1.856,13.32,114.8,-458.2,-539.4,0,48.16,464.8
"2016-12-05 02:30:00",77113,12.96,-9.10000,-8.43000,78.06,-8.46,75.78,1.885,181,1.856,12.84,115.8,-626.7,-731.2,0,48.5,469.9
"2016-12-05 02:45:00",77114,12.95,-9.10000,-8.52000,78.22,-8.62,76.50999,1.888,177,1.858,13.11,121.8,-673.9,-790.2,0,56.69,474.7
"2016-12-05 03:00:00",77115,12.95,-9.05,-8.43000,79.02,-8.53,76.91,1.884,184,1.855,14,115.9,-667.1,-795,0,50.55,472.7
"2016-12-05 03:15:00",77116,12.95,-9.05,-8.72,78.72999,-8.82,76.99,1.886,190,1.856,13.29,115.2,-673.9,-792.8,0,52.94,477.1
"2016-12-05 03:30:00",77117,12.95,-9.05,-8.57,78.27,-8.67,76.18999,1.88,186,1.85,12.84,116.8,-539.1,-629,0,54.99,463.5
"2016-12-05 03:45:00",77118,12.95,-9.03,-8.4,77.61999,-8.46,75.17,1.878,187,1.849,13.8,111.2,-505.4,-600,0,48.84,464.8
"2016-12-05 04:00:00",77119,12.95,-9.01,-8.09,78.13,-8.19000,76.06,1.885,186,1.857,14,108.7,-424.5,-505.9,0,52.6,478.1
"2016-12-05 04:15:00",77120,12.95,-8.94000,-8.09,77.89,-8.23000,75.65,1.879,185,1.851,14.13,112.8,-505.4,-603.7,0,57.04,476.4
"2016-12-05 04:30:00",77121,12.95,-8.89000,-8.07,78.75999,-8.21,76.68,1.881,190,1.853,13.41,113.6,-87.6,-103.3,0,54.3,473
"2016-12-05 04:45:00",77122,12.95,-8.82,-8.09,80,-8.33,78.27,1.879,189,1.851,13.02,126.9,-256.1,-299.8,0,52.25,472.3
"2016-12-05 05:00:00",77123,12.95,-8.78,-8.31000,78.75999,-8.41,76.99,1.885,179,1.856,13.07,113.6,-377.4,-442.2,0,58.4,477.1
"2016-12-05 05:15:00",77124,12.95,-8.78,-8.43000,78.81,-8.53,76.74,1.888,177,1.859,12.94,118.5,-417.8,-488.4,0,55.67,474.4
"2016-12-05 05:30:00",77125,12.95,-8.78,-8.84,78.85,-8.94000,77.11,1.887,181,1.856,12.86,112.4,-559.3,-652.8,0,48.84,493.5
"2016-12-05 05:45:00",77126,12.95,-8.82,-8.77000,78.57,-8.91,77.21,1.885,185,1.854,12.2,116.6,-579.5,-668.3,0,48.84,463.5
"2016-12-05 06:00:00",77127,12.95,-8.85000,-8.21,78.28,-8.31000,76.54999,1.886,182,1.857,11.93,115.5,-458.2,-525.8,0,46.79,472.3
"2016-12-05 06:15:00",77128,12.95,-8.82,-8.19000,77.75999,-8.29,76.16,1.886,181,1.858,11.93,115.4,-491.9,-564.5,0,47.13,465.8
"2016-12-05 06:30:00",77129,12.95,-8.78,-8.14000,80.20002,-8.21,78.68999,1.883,187,1.855,13.07,119.1,-485.2,-568.5,0,51.91,493.2
"2016-12-05 06:45:00",77130,12.95,-8.73000,-7.83500,79.65,-7.937,78.22,1.884,190,1.857,12,122.5,-458.2,-526.5,0,50.2,475.8
"2016-12-05 07:00:00",77131,12.95,-8.64000,-7.51200,77.96,-7.58000,76.7,1.885,178,1.859,11.42,127.6,-350.4,-398.3,0,57.72,470.3
"2016-12-05 07:15:00",77132,12.95,-8.55,-7.63100,78.00999,-7.699,76.96,1.885,186,1.858,10.23,112.8,-343.6,-381.9,0,57.04,473.7
"2016-12-05 07:30:00",77133,12.94,-8.49,-7.784,78.95,-7.852,77.68999,1.885,186,1.858,9.01,109.8,-121.3,-131.6,0,59.08,473
"2016-12-05 07:45:00",77134,12.94,-8.42,-7.59700,78.15,-7.699,77.2,1.884,181,1.858,9.82,118.5,-121.3,-133.7,0,59.77,483.9
"2016-12-05 08:00:00",77135,12.94,-8.35000,-7.42700,79.2,-7.564,77.97999,1.884,187,1.858,10.36,117,-168.4,-187.7,0,54.64,468.6
"2016-12-05 08:15:00",77136,12.94,-8.26,-7.51300,79.72999,-7.649,78.22999,1.88,181,1.854,11.01,117.3,-168.4,-190,0,60.11,461.1
"2016-12-05 08:30:00",77137,12.94,-8.19000,-7.378,77.82,-7.48000,76.42,1.885,181,1.859,11.69,116.3,-208.9,-238.6,0,54.3,487.4
"2016-12-05 08:45:00",77138,12.94,-8.15,-7.669,77.93999,-7.73700,76.97999,1.883,186,1.856,11.34,121.2,-424.5,-481.7,0,59.77,464.8
"2016-12-05 09:00:00",77139,12.94,-8.13,-7.99300,77.81,-8.06000,76.93,1.884,181,1.856,10.08,113.1,-491.9,-545.1,0,59.43,485.7
"2016-12-05 09:15:00",77140,12.94,-8.17,-8.74,78.6,-8.91,77.75,1.889,178,1.859,9.75,110.9,-505.3,-556.4,0,65.23,475.1
"2016-12-05 09:30:00",77141,12.94,-8.31000,-8.94000,76.97,-9.01,75.91,1.891,177,1.86,9.86,111.5,-566,-624.5,0,52.94,468.2
"2016-12-05 09:45:00",77142,12.94,-8.42,-9.01,76.18999,-9.15,75.03,1.89,177,1.859,9.68000,111.1,-572.7,-629.8,0,47.13,484.3
"2016-12-05 10:00:00",77143,12.94,-8.53,-8.91,73.81,-8.94000,72.79,1.885,182,1.854,10.86,114.1,-586.2,-659.3,0,50.2,471.7
"2016-12-05 10:15:00",77144,12.94,-8.62,-9.42,73.2,-9.59,72.45,1.887,182,1.854,10.49,113.4,-633.4,-707.4,0,57.38,465.2
"2016-12-05 10:30:00",77145,12.92,-8.76,-9.47000,72.53,-9.54,71.51,1.887,177,1.854,10.67,115.9,-660.3,-740,0,60.45,469.6
"2016-12-05 10:45:00",77146,12.9,-8.89000,-9.69000,72.07,-9.76,71.15,1.89,182,1.856,9.99,105.4,-619.9,-685.7,0,61.48,463.8
"2016-12-05 11:00:00",77147,12.9,-9.01,-9.89000,72.58,-9.96,71.29,1.892,186,1.857,10.12,108.2,-640.2,-709.9,0,50.89,472.3
"2016-12-05 11:15:00",77148,12.9,-9.10000,-9.96,71.79999,-10.1,70.95,1.889,186,1.854,10.43,102.1,-646.9,-721.6,0,56.35,466.2
"2016-12-05 11:30:00",77149,12.9,-9.19000,-9.86,71.09,-9.89000,70.27,1.889,182,1.855,10.22,102.9,-640.2,-711.3,0,54.99,467.6
"2016-12-05 11:45:00",77150,12.91,-9.3,-10.42,71.85,-10.52,70.93,1.891,179,1.855,9.95,104.2,-640.2,-707.6,0,61.82,467.6
"2016-12-05 12:00:00",77151,12.92,-9.41,-10.06,70.22999,-10.1,69.38,1.889,188,1.854,10.09,105.3,-643.5,-713.2,0,52.6,474.7
"2016-12-05 12:15:00",77152,12.93,-9.48000,-9.96,68.29,-9.96,67.27,1.894,178,1.859,10.4,107.6,-633.4,-706.2,0,55.67,471
"2016-12-05 12:30:00",77153,12.95,-9.55,-10,68.91,-10.1,67.89,1.887,190,1.852,10.7,101.5,-640.2,-717.8,0,58.4,461.4
"2016-12-05 12:45:00",77154,12.97,-9.60000,-10.27,68.86999,-10.34,68.29,1.891,182,1.855,9.9,110.9,-633.4,-699.5,0,59.43,472
"2016-12-05 13:00:00",77155,13.05,-9.66,-10.01,68.01,-10.08,67.18999,1.89,189,1.855,10.39,107.9,-633.4,-706.1,0,55.33,474.8
"2016-12-05 13:15:00",77156,13.08,-9.69000,-10.03,66.46,-10.1,65.84,1.892,185,1.857,10.94,100.9,-633.4,-713.5,0,57.72,474.4
"2016-12-05 13:30:00",77157,13.2,-9.71,-10.18,66.81,-10.25,66.3,1.893,186,1.857,10.14,109.3,-616.6,-684,0,58.75,487
"2016-12-05 13:45:00",77158,13.26,-9.71,-9.81000,65.04,-9.84,64.47,1.894,186,1.86,9.96,103.4,-626.7,-692.8,0,56.36,485.4
"2016-12-05 14:00:00",77159,13.28,-9.71,-9.81000,65.01,-9.91,64.47,1.894,189,1.86,9.45,104.9,-626.7,-686,0,54.31,467.6
"2016-12-05 14:15:00",77160,13.24,-9.69000,-9.71,63,-9.81000,62.22,1.888,183,1.854,9.39000,102.5,-640.2,-700,0,55.67,464.2
"2016-12-05 14:30:00",77161,13.19,-9.66,-10.05,64.06,-10.12,63.17,1.892,182,1.857,9.64000,91.9,-620,-681.2,0,56.7,474.1
"2016-12-05 14:45:00",77162,13.15,-9.75,-11.68,70.29,-11.82,69.91,1.893,187,1.852,7.911,85,-613.2,-651.2,0,63.87,473
"2016-12-05 15:00:00",77163,13.12,-9.96,-10.37,65.3,-10.37,64.48,1.89,192,1.854,8.56000,102,-626.7,-674.1,0,55.68,465.6
"2016-12-05 15:15:00",77164,13.09,-10.01,-9.83,62.85,-9.89000,62.03,1.888,185,1.854,9.43000,107.2,-620,-678.5,0,51.93,474.9
"2016-12-05 15:30:00",77165,13.05,-9.98000,-10.71,66.08,-10.71,65.3,1.89,184,1.853,9.22,96.3,-613.3,-668.3,0,59.78,472.5
"2016-12-05 15:45:00",77166,13.02,-10.1,-11.27,67.97,-11.38,67.43,1.895,187,1.855,8.33,101.4,-613.3,-656.7,0,61.49,474.2
"2016-12-05 16:00:00",77167,13,-10.19,-10.68,65.1,-10.71,64.35,1.895,182,1.858,8.27000,98.4,-609.9,-652.4,0,57.06,465
"2016-12-05 16:15:00",77168,13,-10.21,-10.44,63.33,-10.44,62.44,1.892,181,1.855,8.63,105.8,-620.1,-668,0,62.19,475.6
"2016-12-05 16:30:00",77169,13,-10.26,-10.92,63.97,-10.92,63.12,1.897,189,1.859,8.03,95.5,-613.3,-652.8,0,60.48,493
"2016-12-05 16:45:00",77170,12.99,-10.33,-10.88,64.65,-10.85,63.7,1.893,178,1.855,7.87500,95.3,-572.9,-608,0,58.43,475.3
"2016-12-05 17:00:00",77171,12.98,-10.42,-10.95,64.07,-10.98,63.19,1.89,193,1.852,7.61100,95.8,-576.3,-608.3,0,61.51,465.4
"2016-12-05 17:15:00",77172,12.98,-10.58,-11.97,67.38,-12.07,66.87,1.892,185,1.85,7.14400,99.6,-545.9,-570.9,0,64.59,474
"2016-12-05 17:30:00",77173,12.98,-10.74,-11.97,66.7,-12.07,65.81,1.897,186,1.855,8.5,89.8,-535.9,-575.8,0,64.59,461
"2016-12-05 17:45:00",77174,12.97,-10.91,-12.11,68.84,-12.14,68.29999,1.897,187,1.854,8.9,86.9,-559.5,-605.9,0,61.52,486.7
"2016-12-05 18:00:00",77175,12.97,-11.04,-12.44,69.63,-12.41,69.09,1.894,190,1.85,7.89500,90.9,-549.4,-583.2,0,61.52,485.3
"2016-12-05 18:15:00",77176,12.96,-11.21,-12.2,69.13,-12.27,68.54999,1.893,188,1.85,7.15100,91.5,-552.8,-578.1,0,63.23,463.1
"2016-12-05 18:30:00",77177,12.96,-11.35,-11.49,66.68,-11.52,65.8,1.898,182,1.858,6.938,89.1,-546,-568.5,0,77.92,474.4
"2016-12-05 18:45:00",77178,12.95,-11.39,-11.21,66.27,-11.18,65.25,1.892,185,1.853,7.35400,89.9,-552.8,-580.5,0,52.97,469.2
"2016-12-05 19:00:00",77179,12.95,-11.37,-10.96,66.84,-10.89,66.02,1.892,183,1.854,7.43500,90.9,-559.5,-588.5,0,60.49,474
"2016-12-05 19:15:00",77180,12.95,-11.3,-10.55,67.25,-10.62,66.53,1.891,178,1.854,7.90700,92.5,-573,-608.4,0,51.61,466.5
"2016-12-05 19:30:00",77181,12.94,-11.23,-10.99,69.63,-10.92,68.97999,1.894,178,1.856,8.01,88.5,-566.2,-602.5,0,58.78,464.8
"2016-12-05 19:45:00",77182,12.94,-11.18,-10.74,70.93999,-10.84,70.63,1.892,185,1.854,7.964,92.3,-468.5,-498.1,0,59.13,465.1
"2016-12-05 20:00:00",77183,12.94,-11.14,-11.42,73.22,-11.45,72.81,1.893,187,1.853,7.195,87.3,-417.9,-437.5,0,55.02,473.3
"2016-12-05 20:15:00",77184,12.94,-11.14,-10.5,73.04999,-10.5,72.6,1.891,188,1.854,6.80300,88.5,-374.1,-388.5,0,72.79999,467.2
"2016-12-05 20:30:00",77185,12.94,-11.07,-10.26,73.45,-10.36,72.97999,1.891,181,1.855,7.044,95.8,-360.6,-376.3,0,58.44,469.2
"2016-12-05 20:45:00",77186,12.93,-10.98,-10.5,74.22999,-10.5,73.68999,1.891,187,1.854,6.673,88.6,-431.4,-446.8,0,60.15,494.9
"2016-12-05 21:00:00",77187,12.93,-10.93,-10.94,75.52,-10.91,74.97999,1.893,184,1.855,5.794,89.20002,-465.1,-473,0,63.91,485
"2016-12-05 21:15:00",77188,12.92,-10.93,-8.97,70.52,-8.87,69.67,1.886,187,1.855,5.402,118.8,-552.8,-557.5,0,52.29,493.2
"2016-12-05 21:30:00",77189,12.92,-10.79,-9.41,72.29,-9.28,71.36999,1.888,182,1.855,5.733,95.8,-546,-554.5,0,56.39,464.5
"2016-12-05 21:45:00",77190,12.92,-10.7,-9.74,75.04999,-9.71,74.51,1.887,178,1.853,5.682,100.7,-546,-553.9,0,56.39,464.5
"2016-12-05 22:00:00",77191,12.92,-10.6,-8.58,72.5,-8.58,71.82,1.887,187,1.857,7.114,110.7,-364,-380.4,0,47.85,468.9
"2016-12-05 22:15:00",77192,12.92,-10.37,-8.19000,72.99,-8.12,72.04,1.883,178,1.855,6.79600,100.3,-316.8,-328.9,0,49.56,473.3
"2016-12-05 22:30:00",77193,12.92,-10.17,-7.971,73.08,-7.937,72.46,1.885,174,1.857,5.917,104.5,-444.8,-453.5,0,51.26,494.8
"2016-12-05 22:45:00",77194,12.92,-9.94000,-8.33,73.88,-8.33,73.43,1.886,182,1.857,6.013,103.2,-438.1,-447.5,0,51.59,474.6
"2016-12-05 23:00:00",77195,12.92,-9.8,-8.26,74.59,-8.19000,73.81,1.885,191,1.856,6.384,91.20002,-330.2,-339.9,0,51.93,472.8
"2016-12-05 23:15:00",77196,12.92,-9.66,-7.63100,75.9,-7.66500,75.22,1.883,187,1.857,5.544,104.6,-175.2,-177.2,0,49.19,470.7
"2016-12-05 23:30:00",77197,12.92,-9.46,-6.865,73.74,-6.76300,73.09,1.881,182,1.857,6.068,101.1,-296.5,-303.2,0,42.69,462.8
"2016-12-05 23:45:00",77198,12.92,-9.19000,-6.661,74.25,-6.661,73.77,1.881,186,1.858,6.196,102.7,-289.8,-297.1,0,42.69,474.4
"2016-12-06 00:00:00",77199,12.92,-8.94000,-6.423,74.76,-6.423,74.29,1.881,187,1.859,5.787,106.6,-202.2,-205.5,0,42.69,461.4
