"TOA5","UM_Lab","CR1000","54800","CR1000.Std.25","CPU:Met_station_20140922.CR1","46375","Table1"
"TIMESTAMP","RECORD","BattV","PTemp_C","AirTC_1","RH_1","AirTC_2","RH_2","DT","Q","TCDT","WS_ms","WindDir","NR_Wm2","CNR_Wm2","Rain_mm_Tot","Ducer_1","Ducer_2"
"TS","RN","V","Deg C","Deg C","%","Deg C","%","m","","m","m/s","degrees","W/m^2","W/m^2","mm","V","V"
"","","Smp","Smp","Smp","Smp","Smp","Smp","Smp","Smp","Smp","Smp","Smp","Smp","Smp","Tot","Smp","Smp"
"2017-03-25 00:15:00",87664,13.97,-27.94,-29.28,74.81,-29.22,75.29,1.953,190,1.845,5.22,90.70002,-540.7,-543.3,0,107.9,456.5
"2017-03-25 00:30:00",87665,13.95,-27.94,-28.77,75.04999,-28.74,75.36,1.95,190,1.844,5.439,85.6,-534,-539,0,109.9,437.3
"2017-03-25 00:45:00",87666,13.93,-27.87,-28.46,74.81,-28.53,75.15,1.952,185,1.847,6.095,109.3,-496.8,-508.4,0,106.5,434.6
"2017-03-25 01:00:00",87667,13.91,-27.83,-28.98,74.54,-29.01,74.74,1.954,193,1.847,6.541,107.6,-486.7,-502.6,0,104.8,430.8
"2017-03-25 01:15:00",87668,13.89,-27.79,-28.19,75.49,-28.19,75.77,1.94,184,1.837,7.12500,112.5,-446.1,-466.3,0,103.4,439.7
"2017-03-25 01:30:00",87669,13.87,-27.72,-27.75,75.7,-27.78,76.11,1.947,188,1.845,7.12500,101.4,-290.6,-303.8,0,102.7,436.3
"2017-03-25 01:45:00",87670,13.85,-27.58,-27.44,76.04,-27.51,76.31,1.946,186,1.846,6.942,116,-371.7,-387.1,0,101,433.9
"2017-03-25 02:00:00",87671,13.83,-27.43,-26.96,75.84,-27.03,76.14,1.946,176,1.847,7.068,109.7,-321,-335.1,0,97.6,436.6
"2017-03-25 02:15:00",87672,13.81,-27.25,-26.55,76.25,-26.66,76.47999,1.945,189,1.848,7.11800,100.3,-456.1,-476.7,0,94.9,439.4
"2017-03-25 02:30:00",87673,13.8,-27.08,-26.69,75.7,-26.72,75.9,1.946,201,1.848,7.347,102.6,-510.2,-535.6,0,97.3,434.2
"2017-03-25 02:45:00",87674,13.77,-26.93,-26.69,76.04,-26.76,76.08,1.946,182,1.848,7.534,108,-412.2,-434.4,0,97.6,459.2
"2017-03-25 03:00:00",87675,13.76,-26.83,-26.48,76.72,-26.59,76.89,1.944,184,1.847,7.904,109.9,-280.4,-297.8,0,96.20002,444.2
"2017-03-25 03:15:00",87676,13.74,-26.69,-26.21,76.52,-26.42,76.61999,1.944,184,1.848,7.48100,113.1,-310.8,-327.2,0,92.1,437.3
"2017-03-25 03:30:00",87677,13.72,-26.55,-26.42,76.24,-26.55,76.41,1.945,187,1.849,7.20400,82.5,-446,-466.9,0,92.1,433.2
"2017-03-25 03:45:00",87678,13.7,-26.48,-26.69,76.1,-26.83,76.17,1.946,187,1.848,6.612,112.3,-385.2,-398.4,0,96.6,454.8
"2017-03-25 04:00:00",87679,13.68,-26.44,-26.83,75.99,-26.9,76.22999,1.947,188,1.849,6.263,108.7,-300.7,-308.8,0,97.9,454.8
"2017-03-25 04:15:00",87680,13.66,-26.44,-26.42,76.29999,-26.56,76.57,1.945,188,1.849,6.359,110.4,-250,-257.2,0,96.9,437.3
"2017-03-25 04:30:00",87681,13.64,-26.34,-25.67,76.64,-25.74,76.71,1.942,187,1.849,6.304,123.4,-358.1,-368.1,0,103.4,431.5
"2017-03-25 04:45:00",87682,13.63,-26.23,-25.24,76.79999,-25.31,77,1.94,188,1.848,6.182,107.8,-418.9,-429.5,0,96.20002,433.9
"2017-03-25 05:00:00",87683,13.61,-26.1,-26.35,75.96,-26.42,76.1,1.945,188,1.849,6.485,111.6,-496.6,-512.3,0,98.3,434.6
"2017-03-25 05:15:00",87684,13.59,-26.06,-26.21,76.22999,-26.28,76.43999,1.943,188,1.847,6.593,117.3,-405.4,-419.1,0,99,433.9
"2017-03-25 05:30:00",87685,13.57,-26.06,-26.18,76.5,-26.21,76.61,1.945,188,1.849,6.131,123.2,-601.3,-615.7,0,96.20002,435.3
"2017-03-25 05:45:00",87686,13.55,-26.03,-26.86,75.47999,-26.9,75.68999,1.948,189,1.85,5.958,113.4,-570.9,-582.5,0,96.9,434.6
"2017-03-25 06:00:00",87687,13.53,-26.13,-27.31,75.89,-27.31,76.29999,1.948,188,1.848,5.957,107.9,-456,-465.3,0,94.20002,434.6
"2017-03-25 06:15:00",87688,13.52,-26.23,-26.35,77.32,-26.42,77.79999,1.943,188,1.847,6.18,114.1,-212.8,-218.2,0,103.4,434.2
"2017-03-25 06:30:00",87689,13.48,-26.2,-25.53,77.18999,-25.53,77.63,1.941,188,1.848,5.703,116.4,-358.1,-363.4,0,99,431.8
"2017-03-25 06:45:00",87690,13.43,-26.1,-25.67,76.85,-25.6,77.36,1.942,188,1.849,5.439,125.5,-574.3,-579.6,0,96.9,437.3
"2017-03-25 07:00:00",87691,13.4,-26.03,-26.54,76.04,-26.54,76.35,1.946,188,1.849,5.353,114,-597.9,-602.4,0,103.8,433.9
"2017-03-25 07:15:00",87692,13.4,-26.03,-26.38,77.11999,-26.28,77.77,1.944,188,1.848,5.295,119.3,-564.1,-567.7,0,102.1,456.8
"2017-03-25 07:30:00",87693,13.45,-26.06,-26.56,77.11999,-26.49,77.63,1.945,189,1.848,5.352,116.8,-564.1,-568.3,0,100.7,428.8
"2017-03-25 07:45:00",87694,13.58,-26.03,-26.35,76.16,-26.42,76.43999,1.945,188,1.849,5.573,111.2,-564.1,-571,0,94.20002,436
"2017-03-25 08:00:00",87695,14.6,-25.93,-26.42,76.63,-26.49,77.04,1.946,188,1.849,5.543,109,-527,-533.1,0,92.1,456.5
"2017-03-25 08:15:00",87696,14.6,-25.79,-26.63,75.27,-26.63,75.4,1.948,188,1.851,5.645,108.6,-483.1,-489.7,0,94.9,455.8
"2017-03-25 08:30:00",87697,14.6,-25.59,-27.24,75.74,-27.38,75.95,1.949,188,1.849,5.329,102.3,-429,-432,0,93.5,449.7
"2017-03-25 08:45:00",87698,14.61,-25.42,-26.83,75.81,-26.9,75.74,1.946,188,1.848,5.898,106.7,-391.8,-399.3,0,96.20002,434.6
"2017-03-25 09:00:00",87699,14.61,-25.15,-25.94,76.56,-26.08,76.36,1.943,189,1.848,6.654,114.9,-422.2,-437,0,86.3,447.3
"2017-03-25 09:15:00",87700,14.61,-24.86,-25.67,76.22,-25.94,75.97999,1.942,188,1.848,6.82200,113.5,-327.6,-340.3,0,86.6,436.6
"2017-03-25 09:30:00",87701,14.61,-24.47,-25.3,76.32,-25.57,76.15,1.941,184,1.849,6.804,105.8,-361.4,-375.3,0,85.6,429.4
"2017-03-25 09:45:00",87702,14.61,-24.08,-25.2,75.93,-25.54,75.25,1.942,184,1.85,6.996,114,-361.4,-376.7,0,83.5,443
"2017-03-25 10:00:00",87703,14.61,-23.7,-25.06,75.72,-25.27,74.42,1.941,187,1.85,7.156,113.3,-334.4,-349.7,0,86.9,437.4
"2017-03-25 10:15:00",87704,14.61,-23.32,-24.79,76.09,-25.06,74.56,1.94,186,1.85,7.02600,107.1,-246.5,-257.2,0,95.1,436.7
"2017-03-25 10:30:00",87705,14.61,-22.95,-24.58,76.22999,-24.79,74.42,1.938,192,1.849,6.879,106.8,-138.4,-144,0,94.1,439.1
"2017-03-25 10:45:00",87706,14.61,-22.64,-24.31,76.09,-24.45,74.08,1.938,186,1.85,6.83000,106.5,-77.65,-80.70002,0,88.6,435
"2017-03-25 11:00:00",87707,14.61,-22.28,-23.9,76.74,-24.17,74.83,1.937,190,1.85,6.276,103,-74.28,-76.29,0,82.1,436
"2017-03-25 11:15:00",87708,14.61,-21.95,-23.7,76.53,-23.97,74.35,1.937,189,1.851,6.038,104.2,-54.02,-55.21,0,92.4,457.2
"2017-03-25 11:30:00",87709,14.62,-21.62,-23.22,76.72,-23.5,74.5,1.934,182,1.85,5.944,116.6,27.01,27.55,0,90.3,431.9
"2017-03-25 11:45:00",87710,14.61,-21.3,-23.12,76.78,-23.29,74.4,1.934,190,1.85,6.548,113.7,91.1,94.1,0,80.4,433.6
"2017-03-25 12:00:00",87711,14.61,-21.03,-22.75,76.88,-23.02,74.02,1.933,181,1.851,6.345,109.2,67.51,69.43999,0,81.8,444.6
"2017-03-25 12:15:00",87712,14.61,-20.77,-22.54,76.78,-22.78,73.82,1.932,191,1.851,5.894,118.5,74.25,75.67,0,75.63,435
"2017-03-25 12:30:00",87713,14.61,-20.54,-22.44,77.25999,-22.61,74.11999,1.931,190,1.85,6.049,101.9,74.25,75.91,0,75.97999,459.3
"2017-03-25 12:45:00",87714,14.62,-20.31,-22,77.09,-22.27,73.71,1.93,191,1.851,6.134,107,13.5,13.83,0,78.02,453.8
"2017-03-25 13:00:00",87715,14.61,-20.06,-21.73,77.32,-21.86,73.54,1.929,185,1.851,6.04,109.4,185.6,189.7,0,77.68,433.6
"2017-03-25 13:15:00",87716,14.61,-19.86,-21.25,77.35,-21.39,73.46,1.927,189,1.851,6.091,130.6,192.4,196.8,0,77.68,430.8
"2017-03-25 13:30:00",87717,14.62,-19.69,-21.46,77.1,-21.63,72.84,1.928,190,1.851,5.941,120.7,91.1,93,0,74.93,435.6
"2017-03-25 13:45:00",87718,14.62,-19.52,-21.25,77.24,-21.49,72.18999,1.927,190,1.851,5.789,116.5,172.1,175,0,80,437.2
"2017-03-25 14:00:00",87719,14.62,-19.38,-21.08,77.17,-21.29,71.65,1.927,190,1.851,5.746,113.1,246.4,250.3,0,77.64,432
"2017-03-25 14:15:00",87720,14.61,-19.24,-20.95,77.1,-21.19,71.29999,1.926,189,1.851,6.041,108,84.4,86.20002,0,80.4,438.8
"2017-03-25 14:30:00",87721,14.61,-19.13,-20.78,76.96,-20.91,70.14,1.925,191,1.85,6.444,104.9,145.1,149.6,0,76.27,458.6
"2017-03-25 14:45:00",87722,14.61,-19.02,-20.64,76.89,-20.91,69.79999,1.916,177,1.842,6.224,103,131.6,135,0,74.9,434.7
"2017-03-25 15:00:00",87723,14.61,-18.91,-20.57,77.2,-20.71,69.9,1.924,188,1.85,5.907,111,124.8,127.3,0,79,436.7
"2017-03-25 15:15:00",87724,14.61,-18.78,-20.61,77.22999,-20.78,70.52,1.925,191,1.851,5.548,116.6,-43.86,-44.37,0,71.47999,434.7
"2017-03-25 15:30:00",87725,14.61,-18.67,-20.67,77.22999,-20.91,70.79,1.925,186,1.851,5.649,121.9,0,0,0,77.63,438.8
"2017-03-25 15:45:00",87726,14.61,-18.53,-20.81,77.22999,-20.91,71.1,1.926,193,1.851,5.181,111.1,-104.6,-105,0,76.95,430.6
"2017-03-25 16:00:00",87727,14.61,-18.4,-20.98,77.03,-21.15,71.17,1.926,187,1.851,4.995,107.3,-60.73,-60.73,0,79.34,433.7
"2017-03-25 16:15:00",87728,14.61,-18.29,-20.98,76.75999,-21.15,70.21,1.926,197,1.851,4.74,104.5,-114.7,-114.7,0,79.68999,431.3
"2017-03-25 16:30:00",87729,14.61,-18.18,-20.85,76.31,-20.98,69.11999,1.926,193,1.851,4.712,103,-226.1,-226.1,0,77.63,434
"2017-03-25 16:45:00",87730,14.61,-18.04,-20.98,75.9,-21.12,68.78,1.927,186,1.852,4.875,104.2,-307,-307,0,83.8,436.7
"2017-03-25 17:00:00",87731,14.61,-17.97,-21.12,75.53,-21.22,67.89,1.927,186,1.851,4.965,97.8,-401.5,-401.5,0,82.1,430.9
"2017-03-25 17:15:00",87732,14.61,-17.88,-21.25,75.22,-21.32,67.61999,1.928,186,1.851,4.967,97.5,-442,-442,0,72.85,438.8
"2017-03-25 17:30:00",87733,14.61,-17.86,-21.29,74.4,-21.29,65.88,1.928,188,1.851,4.812,100.5,-448.7,-448.7,0,71.47999,436
"2017-03-25 17:45:00",87734,14.62,-17.83,-21.8,74.1,-21.73,65.24,1.928,185,1.849,4.345,85.70002,-452.1,-452.1,0,77.29,432.3
"2017-03-25 18:00:00",87735,14.61,-17.83,-22.62,73.68999,-22.58,66.77,1.933,187,1.851,4.555,84.6,-472.4,-472.4,0,74.21,432.6
"2017-03-25 18:15:00",87736,14.62,-17.94,-22.89,73.47999,-22.82,66.29,1.932,187,1.849,5.008,85.1,-502.7,-502.8,0,76.27,435.4
"2017-03-25 18:30:00",87737,14.61,-18.1,-23.44,72.67,-23.3,66.02,1.935,190,1.85,4.995,83.9,-489.2,-489.2,0,74.21,435.4
"2017-03-25 18:45:00",87738,14.61,-18.32,-23.91,72.43,-23.74,65.85,1.937,190,1.85,4.764,89.1,-496,-496,0,91.3,431.3
"2017-03-25 19:00:00",87739,14.61,-18.61,-24.73,72.04999,-24.53,66.33,1.941,190,1.851,4.498,85.1,-529.7,-529.7,0,86.20002,456.9
"2017-03-25 19:15:00",87740,14.61,-18.97,-25.21,73.54999,-25.07,68.43999,1.942,190,1.85,3.957,88,-570.2,-570.2,0,94.70002,436
"2017-03-25 19:30:00",87741,14.59,-19.38,-25.28,72.56,-25.14,67.08,1.941,193,1.849,4.071,79.52,-583.8,-583.8,0,97.1,437.1
"2017-03-25 19:45:00",87742,14.51,-19.8,-25.96,71.31,-25.82,66.64,1.945,192,1.85,4.961,84.20002,-577.1,-577.1,0,87.6,457
"2017-03-25 20:00:00",87743,14.45,-20.37,-26.36,71.86,-26.23,67.93999,1.946,187,1.85,4.898,83.70002,-590.6,-590.6,0,97.5,434.9
"2017-03-25 20:15:00",87744,14.38,-21.09,-26.57,72.01,-26.46,67.81,1.946,187,1.849,4.763,88.8,-597.4,-597.4,0,96.20002,434.3
"2017-03-25 20:30:00",87745,14.31,-21.74,-26.57,71.86999,-26.5,68.09,1.946,185,1.849,4.964,86.1,-597.4,-597.4,0,95.1,436.7
"2017-03-25 20:45:00",87746,14.29,-22.25,-27.21,70.65,-27.11,66.49,1.951,190,1.851,4.611,78.89,-563.7,-563.7,0,93.4,431.6
"2017-03-25 21:00:00",87747,14.27,-22.76,-26.77,70.53,-26.7,65.92,1.948,184,1.85,5.074,77.92,-573.9,-574.8,0,93.4,433.6
"2017-03-25 21:15:00",87748,14.24,-23.13,-26.9,70.53,-26.9,66.27,1.948,190,1.85,5.272,87,-570.6,-573.9,0,92.70002,437
"2017-03-25 21:30:00",87749,14.22,-23.48,-26.83,70.04999,-26.8,65.35,1.947,190,1.849,5.617,91.8,-567.2,-574.7,0,103,435.7
"2017-03-25 21:45:00",87750,14.19,-23.76,-26.39,69.03,-26.26,63.71,1.947,192,1.851,4.738,91.70002,-550.4,-550.4,0,101.6,435.7
"2017-03-25 22:00:00",87751,14.17,-23.95,-25.54,68.14,-25.37,62.14,1.944,195,1.851,5.355,86.4,-570.8,-575.1,0,93.8,434.6
"2017-03-25 22:15:00",87752,14.14,-24.05,-26.15,68.76,-25.98,63.23,1.946,187,1.85,5.536,80.8,-580.9,-587.5,0,99.6,433.6
"2017-03-25 22:30:00",87753,14.12,-24.18,-26.36,68.96,-26.22,63.47,1.946,186,1.85,5.795,86.4,-584.3,-594.2,0,96.9,434.3
"2017-03-25 22:45:00",87754,14.1,-24.31,-26.63,68.54999,-26.49,63.23,1.946,192,1.849,5.779,88.20002,-567.4,-576.8,0,101,435
"2017-03-25 23:00:00",87755,14.08,-24.43,-27.24,68.9,-27.17,64.33,1.949,189,1.849,5.741,84.8,-564,-572.9,0,88.70002,439.2
"2017-03-25 23:15:00",87756,14.06,-24.66,-27.29,69.68,-27.36,65.62,1.951,184,1.851,5.836,77.04999,-577.5,-587.8,0,97.6,455.7
"2017-03-25 23:30:00",87757,14.04,-24.86,-27.24,68.71,-27.21,64.31,1.95,194,1.85,5.663,78.61,-550.5,-558.3,0,92.8,430.4
"2017-03-25 23:45:00",87758,14.02,-25.02,-26.63,69.33,-26.63,64.89,1.947,188,1.85,5.993,76.14,-560.6,-572.5,0,94.9,455.1
"2017-03-26 00:00:00",87759,13.99,-25.09,-26.56,68.71,-26.49,63.94,1.947,186,1.85,5.875,83.5,-570.8,-581.4,0,100.3,437.3
