"TOA5","UM_Lab","CR1000","54800","CR1000.Std.25","CPU:Met_station_20140922.CR1","46375","Table1"
"TIMESTAMP","RECORD","BattV","PTemp_C","AirTC_1","RH_1","AirTC_2","RH_2","DT","Q","TCDT","WS_ms","WindDir","NR_Wm2","CNR_Wm2","Rain_mm_Tot","Ducer_1","Ducer_2"
"TS","RN","V","Deg C","Deg C","%","Deg C","%","m","","m","m/s","degrees","W/m^2","W/m^2","mm","V","V"
"","","Smp","Smp","Smp","Smp","Smp","Smp","Smp","Smp","Smp","Smp","Smp","Smp","Smp","Tot","Smp","Smp"
"2017-05-30 00:15:00",94000,13.88,2.801,-1.706,93.70002,-1.842,93.9,2.015,189,2.009,1.915,170.1,-265.7,-265.7,0,71.28,419.8
"2017-05-30 00:30:00",94001,13.83,2.503,-1.961,94.5,-1.995,94.8,2.015,189,2.008,1.264,180.2,-222,-222,0,65.83,398
"2017-05-30 00:45:00",94002,13.8,2.203,-1.723,94.1,-1.859,94.5,2.015,189,2.009,1.245,171.7,-252.3,-252.3,0,63.1,400.1
"2017-05-30 01:00:00",94003,13.75,1.947,-2.215,95.20002,-2.317,95.8,2.018,188,2.01,1.076,187,-292.7,-292.7,0,59,397.3
"2017-05-30 01:15:00",94004,13.71,1.672,-2.333,94.9,-2.401,95,2.017,188,2.008,1.1,160.9,-232.1,-232.1,0,58.32,396.7
"2017-05-30 01:30:00",94005,13.68,1.437,-2.142,95.5,-2.278,95.8,2.017,189,2.009,1.246,165.4,-255.7,-255.7,0,62.41,402.8
"2017-05-30 01:45:00",94006,13.64,1.224,-2.071,96.1,-2.309,96.6,2.016,188,2.008,1.878,167.6,-164.8,-164.8,0,61.05,406.9
"2017-05-30 02:00:00",94007,13.61,1.053,-2.137,97.20002,-2.375,97.70002,2.016,189,2.008,2.001,150.7,-151.4,-151.4,0,52.86,404.2
"2017-05-30 02:15:00",94008,13.57,0.90300,-2.067,97.1,-2.339,97.70002,2.016,188,2.008,2.208,160.3,-90.8,-90.8,0,53.55,401.4
"2017-05-30 02:30:00",94009,13.53,0.777,-2.084,96.70002,-2.356,97.20002,2.016,189,2.008,1.817,163.9,-80.8,-80.8,0,48.09,397.3
"2017-05-30 02:45:00",94010,13.51,0.648,-2.22,96.70002,-2.39,97.20002,2.017,189,2.009,1.796,173,-151.4,-151.4,0,45.36,401.4
"2017-05-30 03:00:00",94011,13.48,0.542,-2.22,97.20002,-2.39,97.8,2.016,189,2.008,1.236,164.1,-60.57,-60.57,0,46.38,401.8
"2017-05-30 03:15:00",94012,13.46,0.458,-2.169,97.4,-2.373,97.9,2.017,189,2.009,1.796,172.5,-47.11,-47.11,0,41.95,402.1
"2017-05-30 03:30:00",94013,13.45,0.373,-2.169,97.6,-2.441,98.1,2.017,189,2.009,1.533,169.6,-26.92,-26.92,0,44,396
"2017-05-30 03:45:00",94014,13.45,0.287,-2.288,97.70002,-2.559,98.20002,2.019,177,2.011,2.058,176.9,-26.92,-26.92,0,43.32,403.5
"2017-05-30 04:00:00",94015,13.46,0.203,-2.322,98,-2.627,98.6,2.02,169,2.011,1.956,175.8,-13.46,-13.46,0,41.95,400.1
"2017-05-30 04:15:00",94016,13.47,0.16,-2.424,97.6,-2.661,98.3,2.019,186,2.01,1.894,176.2,-47.11,-47.11,0,49.11,399.1
"2017-05-30 04:30:00",94017,13.51,0.097,-2.441,97.5,-2.678,98,2.02,181,2.011,1.906,194.6,10.09,10.09,0,41.27,396
"2017-05-30 04:45:00",94018,13.57,0.054,-2.508,97.1,-2.746,97.70002,2.019,189,2.01,2.171,194.6,57.2,57.2,0,38.54,420.5
"2017-05-30 05:00:00",94019,13.67,0.074,-2.492,96.70002,-2.763,97.3,2.023,182,2.014,1.704,190.4,37.01,37.01,0,34.45,399.4
"2017-05-30 05:15:00",94020,13.77,0.117,-2.508,96.6,-2.814,97.4,2.018,204,2.009,1.544,194.6,-13.46,-13.46,0,41.27,400.8
"2017-05-30 05:30:00",94021,13.86,0.181,-2.644,96.1,-2.848,96.8,2.006,214,1.996,1.817,176.7,6.73000,6.73000,0,37.86,400.1
"2017-05-30 05:45:00",94022,13.94,0.246,-2.695,95.9,-2.967,96.4,2.005,200,1.995,1.881,174.7,23.55,23.55,0,37.86,400.1
"2017-05-30 06:00:00",94023,13.96,0.352,-2.678,96.20002,-2.984,96.70002,1.988,246,1.978,1.97,165.2,-37.01,-37.01,0,37.86,419.9
"2017-05-30 06:15:00",94024,13.98,0.458,-3.018,94.8,-3.256,95.3,1.986,193,1.975,1.596,312.4,-40.38,-40.38,0,39.9,400.1
"2017-05-30 06:30:00",94025,13.99,0.415,-3.375,95.4,-3.613,95.70002,1.987,197,1.975,3.18,313.6,37.01,37.01,0,57.64,404.2
"2017-05-30 06:45:00",94026,14.01,0.266,-3.511,95.3,-3.715,95.70002,1.988,210,1.975,3.098,321.2,-6.73000,-6.73000,0,63.78,400.8
"2017-05-30 07:00:00",94027,14.07,0.138,-3.511,94.8,-3.749,95.1,1.975,201,1.962,2.839,325.1,-87.5,-87.5,0,62.41,411
"2017-05-30 07:15:00",94028,14.13,0.117,-3.426,94.4,-3.596,94.6,1.963,208,1.951,2.465,336.6,-151.4,-151.4,0,56.28,399.4
"2017-05-30 07:30:00",94029,14.22,0.223,-3.273,94,-3.375,93.9,1.957,200,1.945,1.973,339,-171.6,-171.6,0,41.27,397.3
"2017-05-30 07:45:00",94030,14.32,0.436,-3.035,93.8,-3.273,94.20002,1.946,257,1.935,2.051,322.3,-353.3,-353.3,0,54.91,403.5
"2017-05-30 08:00:00",94031,14.39,0.69100,-2.967,93.20002,-3.103,92.70002,1.94,173,1.929,1.922,344.2,-760.4,-760.4,0.254,32.4,400.8
"2017-05-30 08:15:00",94032,14.62,0.96900,-2.967,92.3,-2.967,91.6,1.934,181,1.923,1.589,334.8,-740.3,-740.3,0.254,31.04,398
"2017-05-30 08:30:00",94033,14.63,1.351,-2.543,89.9,-2.577,88.8,1.932,187,1.923,1.686,330.3,-730.1,-730.1,0.508,31.72,398
"2017-05-30 08:45:00",94034,14.63,1.947,-1.985,86.1,-2.325,87.1,1.935,179,1.928,1.877,1.931,-679.6,-679.6,0.762,22.51,418.8
"2017-05-30 09:00:00",94035,14.63,2.715,-1.891,83.5,-2.196,86,1.94,192,1.933,1.758,0.145,-174.9,-174.9,0.254,18.76,398
"2017-05-30 09:15:00",94036,14.63,3.592,-1.553,81.70002,-1.926,83.5,1.944,193,1.938,1.4,0.145,-70.64,-70.64,0,20.12,400.8
"2017-05-30 09:30:00",94037,14.62,4.428,-1.352,81.5,-1.454,82.20002,1.948,180,1.943,1.3,345.6,60.55,60.55,0,31.72,421.9
"2017-05-30 09:45:00",94038,14.63,5.397,-0.376,77.09,-0.376,78.38,1.955,186,1.954,0.91,334.7,232.1,232.1,0,17.39,401.4
"2017-05-30 10:00:00",94039,14.62,6.635,1.576,67.36,-0.428,76.46,1.957,172,1.963,0.447,253.3,185,185,0,20.8,419.7
"2017-05-30 10:15:00",94040,14.56,7.817,1.921,67.22,-1.509,83.3,1.962,177,1.969,0.92,293.5,359.8,359.8,0,31.7,402.5
"2017-05-30 10:30:00",94041,14.3,8.59,2.186,65.89,-1.107,80.1,1.963,193,1.971,1.078,290.5,669,669,0,35.11,399.1
"2017-05-30 10:45:00",94042,14.2,9.37,0.143,74.5,-1.317,83.4,1.965,193,1.966,1.193,314,581.5,581.5,0,36.47,418.9
"2017-05-30 11:00:00",94043,14.12,10.11,0.021,74.78,-0.387,76.78,1.969,189,1.969,1.021,315.9,911,911,0,35.11,400.5
"2017-05-30 11:15:00",94044,14.07,10.99,-0.81100,79.68,-0.70900,79.24,1.972,170,1.969,0.951,322,817,817,0,39.87,398.3
"2017-05-30 11:30:00",94045,14.03,11.66,-0.91300,80.8,-1.117,82.3,1.974,171,1.971,1.127,303.9,789.7,789.7,0,42.58,396.1
"2017-05-30 11:45:00",94046,14,12.09,-0.545,78.11,-0.511,77.84,1.976,170,1.974,0.98100,347.2,735.9,735.9,0,37.81,401.6
"2017-05-30 12:00:00",94047,14,12.65,-0.279,76.27,-0.11,74.97999,1.977,178,1.976,1.011,317.4,1223,1223,0,33.04,398.8
"2017-05-30 12:15:00",94048,13.98,13.3,0.465,72.46,-0.315,76.06,1.982,184,1.984,0.98300,15.49,1408,1408,0,19.41,402.9
"2017-05-30 12:30:00",94049,13.94,13.92,0.261,74.16,-0.248,76.74,1.985,172,1.986,0.91300,33.92,1361,1361,0,20.78,400.2
"2017-05-30 12:45:00",94050,13.94,14.44,1.851,65.77,1.037,69.93999,1.986,193,1.993,0.70500,28.23,1055,1055,0,20.1,413.1
"2017-05-30 13:00:00",94051,13.93,15.24,2.386,63.69,1.572,67.46,1.988,194,1.997,0.223,14.45,245.2,245.2,0,35.08,413.8
"2017-05-30 13:15:00",94052,13.88,16.07,4.624,54.16,3.402,58.12,1.99,195,2.007,0.018,136.3,1250,1250,0,19.41,400.9
"2017-05-30 13:30:00",94053,13.87,16.66,2.86,61.96,2.792,61.79,1.992,198,2.002,0.203,120.4,1807,1807,0,25.54,400.1
"2017-05-30 13:45:00",94054,13.88,16.91,0.96,68.84,0.689,69.04999,1.992,194,1.995,1.052,77.65,1243,1243,0,37.79,400.7
"2017-05-30 14:00:00",94055,13.87,16.61,0.62,71.28,0.62,70.61,1.994,210,1.996,1.236,132.6,1562,1562,0,46.63,396.6
"2017-05-30 14:15:00",94056,13.87,16.32,4.657,55.61,3.3,59.28,1.997,216,2.014,0.352,200.3,1575,1575,0,30.3,402.1
"2017-05-30 14:30:00",94057,13.87,16.54,1.655,69.61,1.282,69.97999,2.002,173,2.008,0.397,253.6,1448,1448,0,34.39,419.2
"2017-05-30 14:45:00",94058,13.84,16.61,5.709,51.07,1.096,69.72999,2.004,198,2.025,0.607,290.5,1521,1521,0,41.19,398
"2017-05-30 15:00:00",94059,13.82,16.74,-0.499,81.9,-0.126,79.36,2.008,216,2.006,0.94900,322.8,1384,1384,0,48.68,397.2
"2017-05-30 15:15:00",94060,13.82,16.56,-0.804,83.9,-1.007,84.5,2.018,177,2.015,1.378,302,1471,1471,0,52.78,422.6
"2017-05-30 15:30:00",94061,13.81,15.95,-0.974,84.4,-1.007,84.1,2.017,185,2.013,1.89,317.7,1579,1579,0,47.34,397.5
"2017-05-30 15:45:00",94062,13.81,15.29,-1.109,84.8,-1.075,83.6,2.015,194,2.011,1.672,316.9,1787,1787,0,36.44,407.7
"2017-05-30 16:00:00",94063,13.81,14.83,-0.94000,83.4,-0.73600,81.70002,2.015,192,2.012,1.522,330.8,1072,1072,0,30.31,400.9
"2017-05-30 16:15:00",94064,13.84,14.56,-0.767,82.8,-0.632,81.3,2.018,179,2.015,1.293,315.4,1518,1518,0,39.17,398.8
"2017-05-30 16:30:00",94065,13.84,14.42,-0.933,84.4,-0.798,82.9,2.019,184,2.016,1.426,325.1,1213,1213,0,40.53,400.2
"2017-05-30 16:45:00",94066,13.82,14.21,-1.203,85.6,-0.99900,83.9,2.021,189,2.017,1.594,328.9,789.4,789.4,0,30.99,396.8
"2017-05-30 17:00:00",94067,13.86,13.9,-1.335,86.20002,-1.132,84.20002,2.021,193,2.016,1.837,328,816,816,0,41.89,413.1
"2017-05-30 17:15:00",94068,13.87,13.56,-1.198,85.20002,-1.062,83.5,2.022,194,2.018,1.781,341.7,554.3,554.3,0,31.68,399.5
"2017-05-30 17:30:00",94069,13.87,13.26,-1.096,84.4,-1.13,84.6,2.023,180,2.019,1.717,351.9,715.6,715.6,0,33.04,403.6
"2017-05-30 17:45:00",94070,13.87,13.02,-0.892,82.5,-0.791,81.20002,2.022,181,2.019,1.415,341,336,336,0,23.5,408.4
"2017-05-30 18:00:00",94071,13.87,12.88,-1.028,83.70002,-1.198,84.4,2.022,193,2.018,1.633,7.49300,692.1,692.1,0,16.69,398.8
"2017-05-30 18:15:00",94072,13.85,12.67,-0.92600,84.1,-1.13,84.4,2.021,194,2.018,1.716,0.241,426.7,426.7,0,33.72,411.8
"2017-05-30 18:30:00",94073,13.82,12.44,-0.994,83.6,-0.892,82.1,2.022,190,2.018,1.559,350.2,198.2,198.2,0,37.81,417.9
"2017-05-30 18:45:00",94074,13.82,12.35,-1.061,85.3,-1.129,85.20002,2.022,190,2.018,1.507,11.88,329.3,329.3,0,27.59,416.6
"2017-05-30 19:00:00",94075,13.81,12.16,-1.193,86.20002,-1.193,86,2.021,186,2.017,1.845,8.99,228.5,228.5,0,46.66,398.8
"2017-05-30 19:15:00",94076,13.87,11.86,-1.462,86,-1.428,85.5,2.021,185,2.016,1.676,11.18,-53.76,-53.76,0,39.17,408.4
"2017-05-30 19:30:00",94077,13.87,11.56,-1.373,85.1,-1.135,83,2.02,181,2.015,1.536,354.5,-255.4,-255.4,0,39.17,398.2
"2017-05-30 19:45:00",94078,13.87,11.4,-1.728,86.6,-1.185,83.70002,2.02,189,2.014,1.396,347.5,-339.4,-339.4,0,41.21,399.5
"2017-05-30 20:00:00",94079,13.87,11.27,-2.033,88.4,-1.864,86.70002,2.022,185,2.014,1.917,344.7,-547.7,-547.7,0,46.66,396.1
"2017-05-30 20:15:00",94080,13.87,10.9,-2.169,87.1,-2.033,85.5,2.022,189,2.014,2.177,11.66,-399.9,-399.9,0,33.04,407.8
"2017-05-30 20:30:00",94081,13.87,10.47,-2.644,87.4,-2.407,85.70002,2.024,184,2.014,2.318,347.3,-635.2,-635.2,0,46,411.2
"2017-05-30 20:45:00",94082,13.87,10,-3.001,88.3,-2.763,86.3,2.025,188,2.014,2.212,350.7,-628.5,-628.5,0,38.5,418.1
"2017-05-30 21:00:00",94083,13.89,9.52000,-3.255,88.8,-2.882,86.3,2.026,188,2.014,1.867,349.8,-655.4,-655.4,0,39.88,396.4
"2017-05-30 21:15:00",94084,13.93,9.08,-3.577,87.20002,-3.17,85.20002,2.027,192,2.014,1.832,354.4,-655.5,-655.5,0,38.51,400.5
"2017-05-30 21:30:00",94085,13.93,8.59,-3.334,86.3,-3.164,85,2.027,184,2.015,2.341,5.014,-615.1,-615.1,0,39.88,401.8
"2017-05-30 21:45:00",94086,13.93,7.97,-3.45,87.4,-3.416,86.4,2.027,186,2.014,2.763,9.64000,-642,-642,0,38.51,399.1
"2017-05-30 22:00:00",94087,14.01,7.268,-3.99,85.1,-3.888,84.20002,2.029,181,2.014,2.899,24.4,-655.5,-655.5,0,46.01,408
"2017-05-30 22:15:00",94088,14.04,6.547,-3.497,83.3,-3.328,82.6,2.023,192,2.01,2.758,4.918,-669.1,-669.1,0,37.83,397.1
"2017-05-30 22:30:00",94089,14.04,5.939,-3.711,83.8,-3.541,83.20002,2.028,188,2.014,2.404,354.4,-696,-696,0,37.83,401.2
"2017-05-30 22:45:00",94090,14.02,5.397,-3.621,82.9,-3.621,82.6,2.026,189,2.013,2.614,17.94,-743.1,-743.1,0,43.98,399.9
"2017-05-30 23:00:00",94091,14,4.816,-4.13,80.9,-4.097,80.5,2.027,192,2.012,2.689,25.47,-729.7,-729.7,0,45.35,399.3
"2017-05-30 23:15:00",94092,13.97,4.17,-4.708,82.4,-4.708,82,2.031,190,2.013,2.941,36.9,-746.6,-746.6,0,57.64,398.7
"2017-05-30 23:30:00",94093,13.93,3.526,-3.176,71.78,-3.244,71.51,2.02,188,2.008,2.986,38.78,-773.6,-773.6,0,39.22,408.9
"2017-05-30 23:45:00",94094,13.9,3.057,-3.51,68.79999,-3.747,69.01,2.026,191,2.013,2.774,69.43,-777,-777,0,40.59,400.8
"2017-05-31 00:00:00",94095,13.86,2.587,-4.968,73.9,-5.036,73.26,2.03,182,2.011,2.167,62.07,-736.6,-736.6,0,54.91,393.9
