"TOA5","UM_Lab","CR1000","54800","CR1000.Std.25","CPU:Met_station_20140922.CR1","46375","Table1"
"TIMESTAMP","RECORD","BattV","PTemp_C","AirTC_1","RH_1","AirTC_2","RH_2","DT","Q","TCDT","WS_ms","WindDir","NR_Wm2","CNR_Wm2","Rain_mm_Tot","Ducer_1","Ducer_2"
"TS","RN","V","Deg C","Deg C","%","Deg C","%","m","","m","m/s","degrees","W/m^2","W/m^2","mm","V","V"
"","","Smp","Smp","Smp","Smp","Smp","Smp","Smp","Smp","Smp","Smp","Smp","Smp","Smp","Tot","Smp","Smp"
"2017-04-18 00:15:00",89968,13.82,-8.26,-10.99,88.70002,-11.19,89,1.897,182,1.858,13.27,125.9,-202.1,-237.7,0,64.89,429
"2017-04-18 00:30:00",89969,13.8,-8.51,-11.26,88.4,-11.46,88.70002,1.9,174,1.86,13.19,101.7,-330.1,-387.7,0,57.72,430.7
"2017-04-18 00:45:00",89970,13.78,-8.76,-11.61,88.4,-11.82,88.70002,1.898,182,1.857,13.07,116.7,-384.1,-450,0,64.89,454.9
"2017-04-18 01:00:00",89971,13.76,-9.01,-11.66,88.20002,-11.8,88.4,1.899,181,1.858,13.04,118.5,-306.6,-359,0,61.48,433.1
"2017-04-18 01:15:00",89972,13.74,-9.21,-11.65,88.3,-11.85,88.6,1.898,178,1.857,13.52,120.9,-242.6,-286.6,0,67.28,432.7
"2017-04-18 01:30:00",89973,13.72,-9.43000,-11.75,88.1,-12.02,88.5,1.899,187,1.858,13.81,125.9,-215.6,-256.1,0,66.94,424.9
"2017-04-18 01:45:00",89974,13.7,-9.60000,-11.87,88,-12.14,88.4,1.901,181,1.859,13.29,123.1,-208.9,-245.8,0,59.43,430.3
"2017-04-18 02:00:00",89975,13.68,-9.78,-12,87.8,-12.21,88.20002,1.902,187,1.86,11.96,131.1,-229.1,-263.1,0,58.4,432
"2017-04-18 02:15:00",89976,13.66,-9.94000,-12.23,87.6,-12.43,88,1.902,187,1.859,11.63,135.7,-289.8,-330.7,0,59.09,431.4
"2017-04-18 02:30:00",89977,13.64,-10.12,-12.41,87.3,-12.62,87.70002,1.903,190,1.859,11.56,135.1,-404.3,-460.8,0,63.2,434.2
"2017-04-18 02:45:00",89978,13.62,-10.3,-12.62,87.1,-12.82,87.3,1.905,186,1.86,11.86,133,-451.5,-517.5,0,65.25,428.8
"2017-04-18 03:00:00",89979,13.6,-10.51,-12.84,87.20002,-13.04,87.20002,1.905,186,1.86,11.45,135.1,-508.9,-578.7,0,68.34,431.9
"2017-04-18 03:15:00",89980,13.58,-10.7,-12.97,86.9,-13.18,86.8,1.906,181,1.86,10.93,143.3,-572.9,-645.3,0,69.71,428.5
"2017-04-18 03:30:00",89981,13.56,-10.88,-13.19,86.70002,-13.3,86.5,1.906,182,1.859,10.5,127.7,-613.4,-685.3,0,62.88,425.1
"2017-04-18 03:45:00",89982,13.54,-11.09,-13.36,86.3,-13.43,85.9,1.908,192,1.861,10.21,132.6,-586.5,-651.6,0,66.3,429.9
"2017-04-18 04:00:00",89983,13.53,-11.25,-13.43,86.20002,-13.5,85.70002,1.907,187,1.86,9.39000,115.2,-596.6,-652.3,0,64.59,422.1
"2017-04-18 04:15:00",89984,13.51,-11.44,-13.7,86.4,-13.77,85.70002,1.909,191,1.861,9.27000,133,-600,-654.4,0,63.57,423.1
"2017-04-18 04:30:00",89985,13.49,-11.61,-13.77,86,-13.83,85.20002,1.908,191,1.859,9.48000,126.2,-579.7,-635.1,0,58.78,434.7
"2017-04-18 04:45:00",89986,13.47,-11.79,-13.78,86.6,-13.85,85.4,1.908,192,1.859,9.11,125.2,-579.7,-630.5,0,58.44,454.2
"2017-04-18 05:00:00",89987,13.42,-11.96,-13.7,86,-13.83,84.6,1.908,191,1.86,9.10000,132,-529.2,-575.4,0,61.18,428.9
"2017-04-18 05:15:00",89988,13.38,-12.08,-14.11,85.5,-14.17,84.1,1.91,192,1.86,8.99,128.2,-552.8,-599.7,0,60.83,433.4
"2017-04-18 05:30:00",89989,13.36,-12.22,-14.29,85.4,-14.46,84,1.911,191,1.86,8.35000,130.6,-546,-585,0,64.25,430.6
"2017-04-18 05:45:00",89990,13.37,-12.36,-14.51,85.4,-14.58,83.6,1.912,192,1.861,7.92700,117.9,-424.7,-451.1,0,68.01,429.6
"2017-04-18 06:00:00",89991,13.4,-12.48,-14.53,85.8,-14.7,84.3,1.911,190,1.859,7.675,123.2,-215.7,-228,0,62.54,457.6
"2017-04-18 06:15:00",89992,13.46,-12.58,-13.97,85.6,-14.17,83.6,1.91,191,1.861,7.78,145.7,-252.8,-267.8,0,58.44,452.8
"2017-04-18 06:30:00",89993,13.58,-12.58,-14.06,85.20002,-14.19,82.9,1.912,192,1.862,7.213,163,-323.6,-338.9,0,69.72,430.6
"2017-04-18 06:45:00",89994,13.77,-12.58,-14.74,85.5,-14.94,85.5,1.915,191,1.863,3.743,209.4,-185.4,-185.4,0,63.23,433
"2017-04-18 07:00:00",89995,14.56,-12.58,-14.94,85.3,-15.08,85.3,1.915,192,1.862,1.679,204.5,-222.5,-222.5,0,62.88,432.7
"2017-04-18 07:15:00",89996,14.61,-12.5,-15.04,85.20002,-15.31,85.9,1.917,192,1.863,1.348,245.5,-111.3,-111.3,0,56.39,429.6
"2017-04-18 07:30:00",89997,14.62,-12.34,-15.01,84.5,-15.28,85.3,1.917,191,1.864,1.393,245.7,-215.7,-215.7,0,66.64,455.6
"2017-04-18 07:45:00",89998,14.62,-12.15,-14.94,85.1,-15.45,85.6,1.917,190,1.864,1.125,245.8,-23.6,-23.6,0,61.86,446
"2017-04-18 08:00:00",89999,14.61,-11.93,-15.21,84.9,-15.52,86.3,1.917,192,1.863,1.656,239.9,30.34,30.34,0,65.28,427.5
"2017-04-18 08:15:00",90000,14.62,-11.75,-15.35,85,-15.62,87.1,1.917,192,1.862,2.523,238.1,37.08,37.08,0,64.94,436.1
"2017-04-18 08:30:00",90001,14.62,-11.61,-15.18,85.3,-15.35,86.4,1.918,192,1.864,2.394,230.4,151.7,151.7,0,58.78,434.7
"2017-04-18 08:45:00",90002,14.62,-11.44,-15.14,84.8,-15.45,85.8,1.918,192,1.864,2.815,238.5,209,209,0,63.23,454.9
"2017-04-18 09:00:00",90003,14.62,-11.37,-15.14,85,-15.28,85.4,1.918,192,1.864,3.103,235.4,273,273,0,65.28,430.3
"2017-04-18 09:15:00",90004,14.62,-11.25,-14.87,85.1,-15.01,85.4,1.917,192,1.864,2.925,232.4,202.2,202.2,0,63.91,431
"2017-04-18 09:30:00",90005,14.62,-10.95,-14.67,84.9,-14.77,85.5,1.916,192,1.864,2.126,218.7,330.3,330.3,0,57.07,431
"2017-04-18 09:45:00",90006,14.62,-10.54,-14.54,85,-14.54,85.1,1.918,191,1.866,1.843,227.6,303.3,303.3,0,55.02,433.7
"2017-04-18 10:00:00",90007,14.62,-10.14,-14.13,87.3,-14.64,84,1.918,192,1.868,1.932,264.7,296.6,296.6,0,57.06,431.6
"2017-04-18 10:15:00",90008,14.61,-9.71,-13.08,84.3,-14.61,83.1,1.917,190,1.871,1.638,241.5,310,310,0,62.85,429
"2017-04-18 10:30:00",90009,14.58,-9.28,-13.66,85,-14.27,81.6,1.916,173,1.867,1.507,253.4,303.2,303.2,0,61.82,423.2
"2017-04-18 10:45:00",90010,14.56,-8.8,-13.98,84,-14.32,80.3,1.917,171,1.867,1.866,240.3,451.5,451.5,0,60.79,429.6
"2017-04-18 11:00:00",90011,14.56,-8.35000,-13.45,84.3,-14.03,77.64,1.916,170,1.868,1.622,261.8,566,566,0,59.43,433.7
"2017-04-18 11:15:00",90012,14.56,-7.70400,-11.52,85.1,-14,77.9,1.916,170,1.875,1.607,269.9,-23.58,-23.58,0,50.2,432.7
"2017-04-18 11:30:00",90013,14.56,-6.972,-11.25,83.6,-13.53,76.83,1.917,170,1.877,1.323,253.2,249.3,249.3,0,55.67,422.5
"2017-04-18 11:45:00",90014,14.51,-6.224,-11.95,81.4,-14.43,77.86999,1.916,178,1.874,1.278,243.5,249.3,249.3,0,52.6,426.9
"2017-04-18 12:00:00",90015,14.5,-5.592,-13.4,81.70002,-14.35,77.39,1.916,187,1.868,1.368,237.7,532.2,532.2,0,58.74,426.9
"2017-04-18 12:15:00",90016,14.5,-5.047,-13.16,83.8,-14.08,75.99,1.917,174,1.87,1.406,248.2,555.6,555.6,0,54.63,435
"2017-04-18 12:30:00",90017,14.5,-4.485,-12.21,81.8,-14.29,76.39,1.914,192,1.871,1.358,252.1,262.6,262.6,0,51.2,434.8
"2017-04-18 12:45:00",90018,14.5,-3.945,-12.62,84.1,-13.4,73.74,1.914,191,1.869,0.78800,242.1,235.7,235.7,0,44.37,453.2
"2017-04-18 13:00:00",90019,14.47,-3.299,-12.84,85.4,-14.14,75.25,1.916,174,1.87,1.339,276.2,595.9,595.9,0,53.92,432.8
"2017-04-18 13:15:00",90020,14.44,-2.912,-13.19,84.4,-14.21,76.15,1.916,178,1.869,1.344,260.9,420.8,420.8,0,55.29,430.7
"2017-04-18 13:30:00",90021,14.44,-2.677,-11.23,84.8,-13.27,74.29,1.914,191,1.874,1.112,262.5,117.8,117.8,0,46.08,453.6
"2017-04-18 13:45:00",90022,14.44,-2.248,-12.49,83,-13.85,75.61999,1.912,190,1.868,1.321,245.9,154.8,154.8,0,58.7,420.5
"2017-04-18 14:00:00",90023,14.44,-1.887,-12.46,81.1,-14.02,74.6,1.913,191,1.869,1.402,261.1,467.9,467.9,0,59.39,430
"2017-04-18 14:15:00",90024,14.44,-1.778,-11.17,82.6,-13.96,75.24,1.91,188,1.871,1.476,268.9,461.1,461.1,0,50.17,433.1
"2017-04-18 14:30:00",90025,14.43,-1.629,-9.51,81.70002,-13.75,73.77,1.91,190,1.876,1.265,263.5,269.3,269.3,0,52.22,434.5
"2017-04-18 14:45:00",90026,14.43,-1.437,-11.99,83.1,-14.26,76.66,1.91,191,1.868,1.68,279.2,262.5,262.5,0,55.97,447.8
"2017-04-18 15:00:00",90027,14.38,-1.566,-11.05,80.1,-14.49,76.75,1.911,189,1.872,2.031,262.8,228.9,228.9,0,61.77,426.3
"2017-04-18 15:15:00",90028,14.37,-1.801,-12.21,79.77,-14.28,77.29,1.909,191,1.866,1.904,294,218.8,218.8,0,61.77,420.8
"2017-04-18 15:30:00",90029,14.38,-1.907,-11.9,80.3,-13.8,74.1,1.91,191,1.868,1.353,289,407.3,407.3,0,55.29,452.6
"2017-04-18 15:45:00",90030,14.38,-1.735,-13.43,79,-13.39,71.83,1.91,191,1.862,1.281,318.9,484.7,484.7,0,58.02,431.4
"2017-04-18 16:00:00",90031,14.37,-1.566,-13.62,82.3,-13.75,72.52,1.91,190,1.862,1.199,295.4,161.6,161.6,0,65.53,453.9
"2017-04-18 16:15:00",90032,14.37,-1.566,-13.92,80.4,-14.09,75,1.91,190,1.861,1.201,320.9,175,175,0,63.82,425.6
"2017-04-18 16:30:00",90033,14.37,-1.652,-13.75,79.93,-13.55,72.86,1.91,192,1.861,0.673,310.9,-43.76,-43.76,0,62.8,453.9
"2017-04-18 16:45:00",90034,14.37,-1.715,-13.94,81.9,-13.8,75.91,1.909,192,1.86,0.717,326.2,-80.8,-80.8,0,63.14,433.8
"2017-04-18 17:00:00",90035,14.37,-1.864,-14.07,80.9,-14.21,76.15,1.909,192,1.859,0.70500,354.5,40.39,40.39,0,62.12,451.9
"2017-04-18 17:15:00",90036,14.37,-2.122,-13.85,82.4,-14.12,76.97999,1.909,192,1.86,0.66200,16.71,-158.2,-158.2,0,60.75,455.3
"2017-04-18 17:30:00",90037,14.38,-2.4,-13.92,80.9,-14.02,75.47999,1.909,192,1.86,0.511,353.7,-80.8,-80.8,0,66.21,433.4
"2017-04-18 17:45:00",90038,14.37,-2.655,-13.95,81.8,-14.02,77.32,1.909,192,1.86,0.577,332,-94.20002,-94.20002,0,59.04,433.8
"2017-04-18 18:00:00",90039,14.37,-2.955,-13.7,81.9,-13.53,74.92,1.908,194,1.86,0.249,336,-316.4,-316.4,0,54.27,432.4
"2017-04-18 18:15:00",90040,14.4,-3.193,-12.9,82.4,-12.8,70.93,1.908,189,1.862,0.056,331.9,-531.9,-531.9,0,61.09,422.2
"2017-04-18 18:30:00",90041,14.43,-3.321,-11.98,79.06,-11.84,68.39,1.906,186,1.864,0,331.8,-521.8,-521.8,0,50.51,432.1
"2017-04-18 18:45:00",90042,14.43,-3.513,-13.68,81.70002,-13.34,74.27,1.906,188,1.858,0.057,212.4,-579,-579,0,48.46,423.2
"2017-04-18 19:00:00",90043,14.44,-3.816,-14.15,82.6,-14.15,78.6,1.908,170,1.858,0.327,240.5,-471.3,-471.3,0,61.09,429.7
"2017-04-18 19:15:00",90044,14.44,-4.291,-14.34,83.20002,-14.75,82.5,1.907,189,1.856,0.85300,256.1,-491.6,-491.6,0,62.46,429
"2017-04-18 19:30:00",90045,14.44,-4.916,-14.95,83.9,-15.19,83.8,1.909,190,1.856,0.869,242.8,-525.3,-525.3,0,65.53,425.9
"2017-04-18 19:45:00",90046,14.43,-5.635,-14.61,83.3,-15.43,84.8,1.909,192,1.857,0.51,262.2,-471.4,-471.4,0,66.22,434.9
"2017-04-18 20:00:00",90047,14.43,-6.358,-14.91,83.20002,-15.53,85,1.91,192,1.857,0.08800,262.3,-458,-458,0,59.42,430.3
"2017-04-18 20:15:00",90048,14.4,-7.04000,-15.16,84.1,-15.74,85.1,1.91,194,1.856,0.005,262.3,-424.4,-424.4,0,71.72,432.4
"2017-04-18 20:30:00",90049,14.35,-7.74900,-15.84,82,-15.94,82.9,1.913,197,1.857,0.007,262.2,-424.4,-424.4,0,74.11,435.5
"2017-04-18 20:45:00",90050,14.3,-8.49,-16.83,86.70002,-16.69,87.6,1.914,200,1.854,0.234,262.2,-411,-411,0,74.79999,455.3
"2017-04-18 21:00:00",90051,14.25,-9.34,-16.38,85.6,-16.45,87.1,1.916,203,1.858,0.587,78.34,-394.2,-394.2,0,68.31,429.6
"2017-04-18 21:15:00",90052,14.2,-10.19,-20.33,83.3,-17.03,87.9,1.928,205,1.855,0.795,93.6,-397.6,-397.6,0,86.4,420.4
"2017-04-18 21:30:00",90053,14.13,-11.16,-20.45,78.92,-17.45,85,1.929,209,1.855,1.377,85.1,-323.5,-323.5,0,85.8,425.4
"2017-04-18 21:45:00",90054,14.08,-12.1,-17.05,84.6,-16.88,85.9,1.921,207,1.86,1.43,79.74,-431.4,-431.4,0,65.62,428.6
"2017-04-18 22:00:00",90055,14.02,-12.69,-19.64,82.9,-17.09,85.8,1.917,271,1.847,1.992,81.9,-353.9,-353.9,0,78.61,421.7
"2017-04-18 22:15:00",90056,14,-13.42,-20.83,82,-19.77,85.5,1.926,209,1.851,2.076,91.3,-384.3,-384.3,0,83,433.7
"2017-04-18 22:30:00",90057,13.98,-14.13,-19.73,82.4,-18.47,85,1.923,209,1.852,2.26,87.70002,-313.6,-313.6,0,77.24,434
"2017-04-18 22:45:00",90058,13.95,-14.62,-19.16,82.5,-18.81,83.5,1.92,192,1.851,2.571,90.20002,-333.8,-333.8,0,72.79999,455.6
"2017-04-18 23:00:00",90059,13.93,-14.97,-19.19,82.8,-18.75,84.20002,1.921,187,1.852,2.49,90.5,-337.2,-337.2,0,73.5,431.1
"2017-04-18 23:15:00",90060,13.91,-15.27,-19.92,81.70002,-19.61,83.3,1.923,187,1.852,2.36,108.9,-313.6,-313.6,0,76.58,428.7
"2017-04-18 23:30:00",90061,13.89,-15.6,-18.96,82.5,-18.93,83.1,1.92,187,1.852,2.343,124.8,-226,-226,0,75.91,422.6
"2017-04-18 23:45:00",90062,13.87,-15.8,-18.4,82.9,-18.43,83.5,1.917,187,1.851,2.194,116.2,-148.4,-148.4,0,74.21,434
"2017-04-19 00:00:00",90063,13.84,-15.88,-17.68,83.70002,-17.75,84.6,1.914,187,1.851,2.27,130.1,-114.7,-114.7,0,74.21,432.6
