Datetime,optimized_PDD
2012-06-15,0.0285078697
2012-06-16,0.0238175118333
2012-06-17,0.0316111055833
2012-06-18,0.0336995456167
2012-06-19,0.03766121335
2012-06-20,0.04814935035
2012-06-21,0.0412893934167
2012-06-22,0.0322147499833
2012-06-23,0.0349727300833
2012-06-24,0.0454418651167
2012-06-25,0.0417650109167
2012-06-26,0.04792394005
2012-06-27,0.0413741469
2012-06-28,0.0404174114667
2012-06-29,0.0386137028167
2012-06-30,0.0342577218
2012-07-01,0.0308289089333
2012-07-02,0.0355767356333
2012-07-03,0.0317932595167
2012-07-04,0.0338317487333
2012-07-05,0.0366321947
2012-07-06,0.0368566868833
2012-07-07,0.03211958205
2012-07-08,0.0465437353167
2012-07-09,0.0569215360833
2012-07-10,0.070239645
2012-07-11,0.06311888765
2012-07-12,0.0430452918
2012-07-13,0.0376017786
2012-07-14,0.0310892190333
2012-07-15,0.0294585461833
2012-07-16,0.0358541205333
2012-07-17,0.0332025892667
2012-07-18,0.0356787519833
2012-07-19,0.0346889256
2012-07-20,0.0238016821483
2012-07-21,0.0242130298232
2012-07-22,0.0181804403167
2012-07-23,0.0249522027667
2012-07-24,0.0237577469333
2012-07-25,0.0360781348
2012-07-26,0.05374458375
2012-07-27,0.0706907663
2012-07-28,0.0504966341833
2012-07-29,0.03499280155
2012-07-30,0.0415804152167
2012-07-31,0.0408433654167
2012-08-01,0.0435053142333
2012-08-02,0.0498047544833
2012-08-03,0.0543995848167
2012-08-04,0.0670280915
2012-08-05,0.0549489843833
2012-08-06,0.03285731385
2012-08-07,0.0300253961667
2012-08-08,0.0272424476333
2012-08-09,0.0227806786
2012-08-10,0.0107076474317
2012-08-11,0.009640430282
2012-08-12,0.008222529435
2012-08-13,0.0176980048317
2012-08-14,0.0318992469667
2012-08-15,0.0475084294833
2012-08-16,0.0528186855667
2012-08-17,0.0466995687
2012-08-18,0.04989025765
2012-08-19,0.0357106695833
2012-08-20,0.0324541536833
2012-08-21,0.0292522298167
2012-08-22,0.02290524094
2012-08-23,0.0271471174667
2012-08-24,0.0175639831
2012-08-25,0.0184189503383
2012-08-26,0.00626966051333
2012-08-30,0.0203964054117
2012-08-31,0.0286256676333
2012-09-01,0.01581665012
2012-09-02,0.00797824863262
2012-09-03,0.0135592447417
2012-09-10,0.00935539364167
2012-09-11,0.0362804439
2012-09-12,0.000920651795
2012-09-14,0.00960217913917
