Datetime,melt_sonic_abovefreeze
2012-06-15,0.02970217705
2012-06-16,0.01957873281
2012-06-17,0.01895946598
2012-06-18,0.04279108743
2012-06-19,0.03939749359
2012-06-20,0.04817831928
2012-06-21,0.05269397224
2012-06-22,0.03552301389
2012-06-23,0.02407898493
2012-06-24,0.03965348296
2012-06-25,0.04111489018
2012-06-26,0.04253909296
2012-06-27,0.04654259792
2012-06-28,0.04629198574
2012-06-29,0.03738959315
2012-06-30,0.03194097179
2012-07-01,0.03357458741
2012-07-02,0.02876258749
2012-07-03,0.03000882248
2012-07-04,0.03898737843
2012-07-05,0.04662924266
2012-07-06,0.0627183284
2012-07-07,0.03802450925
2012-07-08,0.04531640022
2012-07-09,0.06895788991
2012-07-10,0.07564537617
2012-07-11,0.06977198501
2012-07-12,0.04518747961
2012-07-13,0.04556809894
2012-07-14,0.03385879133
2012-07-15,0.02972510814
2012-07-16,0.02978234987
2012-07-17,0.03153010679
2012-07-18,0.03386272799
2012-07-19,0.04518170293
2012-07-20,0.03705039793
2012-07-21,0.01937809237
2012-07-22,0.01643093088
2012-07-23,0.01627503514
2012-07-24,0.02391278617
2012-07-25,0.02408976661
2012-07-26,0.04428389056
2012-07-27,0.07794007221
2012-07-28,0.07487691393
2012-07-29,0.03459199107
2012-07-30,0.03524899196
2012-07-31,0.03894063082
2012-08-01,0.03200049671
2012-08-02,0.03244647224
2012-08-03,0.06414956366
2012-08-04,0.08973884829
2012-08-05,0.05360129593
2012-08-06,0.02511935426
2012-08-07,0.01851988593
2012-08-08,0.02986106032
2012-08-09,0.02501951725
2012-08-10,
2012-08-11,
2012-08-12,
2012-08-13,0.02545415054
2012-08-14,0.03345378218
2012-08-15,0.03339715106
2012-08-16,0.05261845407
2012-08-17,0.04193447895
2012-08-18,0.03767022259
2012-08-19,0.03188382106
2012-08-20,0.015177799
2012-08-21,0.01205457708
2012-08-22,0.01944149753
2012-08-23,0.01986858692
2012-08-24,0.01724429889
2012-08-25,0.01496277146
2012-08-26,0.00399989863
2012-08-30,0.02374097908
2012-08-31,0.00917856121
2012-09-01,0.00964938338
2012-09-02,0.00384247136
2012-09-03,
2012-09-10,0.00374565737
2012-09-11,0.02423125614
2012-09-12,0.01123495191
2012-09-14,0.00217336028
