TIMESTAMP,optimized_PDD
2014-07-17,0.0233725777778
2014-07-18,0.0249288090278
2014-07-19,0.0311506027778
2014-07-20,0.041384244697
2014-07-21,0.0394268781818
2014-07-22,0.0399133479167
2014-07-23,0.0386973159091
2014-07-24,0.0195078772727
2014-07-25,0.0283704096154
2014-07-26,0.0339863243697
2014-07-27,0.0396943923611
2014-07-28,0.0294825743056
2014-07-29,0.0321842649254
2014-07-30,0.0360216680556
2014-07-31,0.0331897423611
2014-08-01,0.0138070461538
2014-08-02,0.02343740625
2014-08-03,0.0186295458333
2014-08-04,0.0120410479167
2014-08-05,0.0147939965278
2014-08-06,0.0105528923611
2014-08-07,0.0109572875
2014-08-08,0.0212130590278
2014-08-09,0.0346199118056
2014-08-10,0.0326482680556
2014-08-11,0.0306769722222
2014-08-12,0.0486788763889
2014-08-13,0.0252231465278
2014-08-14,0.0175392909722
2014-08-15,0.0196716722222
2014-08-16,0.0508060388889
2014-08-17,0.0545526375
2014-08-18,0.0464360895833
2014-08-19,0.0446535965278
2014-08-20,0.04422995
2014-08-21,0.0326294805556
2014-08-22,0.0284272270833
2014-08-23,0.0179020520833
2014-08-29,0.0411834756944
2014-08-30,0.0396223736111
2014-08-31,0.00171012638889
2014-09-04,0.0158146680556
2014-09-05,0.0280221361111
2014-09-07,0.00573505833333
2014-09-08,0.00908085694444
2014-09-21,0.00823866666667
2015-06-18,0.0060140875
2015-06-19,0.0273354645833
2015-06-20,0.0240968822917
2015-06-21,0.00997685833333
2015-06-22,0.0384651447917
2015-06-23,0.0390713895833
2015-06-24,0.04639364375
2015-06-25,0.0392175145833
2015-06-26,0.0347081666667
2015-06-27,0.0445641239583
2015-06-28,0.0510031916667
2015-06-29,0.053673278125
2015-06-30,0.0465479447917
2015-07-01,0.0426265760417
2015-07-02,0.0387076427083
2015-07-03,0.0317740114583
2015-07-04,0.0420895666667
2015-07-05,0.042260593617
2015-07-06,0.0505590760417
2015-07-07,0.0599841385417
2015-07-08,0.04572146875
2015-07-09,0.0341887270833
2015-07-10,0.0233213760417
2015-07-11,0.032103140625
2015-07-12,0.0177413145833
2015-07-13,0.0180273020833
2015-07-14,0.00863076875
2015-07-15,0.0295854416667
2015-07-16,0.0404198255814
2015-07-17,0.02955065
2015-07-18,0.0265679604167
2015-07-19,0.0209889427083
2015-07-20,0.0241148
2015-07-21,0.0213653885417
2015-07-22,0.0198366427083
2015-07-23,0.0211674239583
2015-07-24,0.0159952947917
2015-07-25,0.00437940104167
2015-07-27,0.00570548541667
2015-07-28,0.00815603645833
2015-08-02,0.007958071875
2015-08-03,0.00115212604167
2015-08-04,0.00784813020833
2015-08-05,0.010944240625
2015-08-06,0.002176740625
2015-08-07,0.01428685
2015-08-08,0.00883290833333
2015-08-09,0.000135861458333
2015-08-17,0.0136959135417
2015-08-18,0.0101762145833
2015-08-19,0.00821413854167
2015-08-20,0.0139138833333
2015-08-28,0.0244592375
2015-08-29,0.030067828125
2015-08-30,0.03556160625
2015-08-31,0.0239123125
2015-09-03,0.000749586458333
2015-09-04,0.0168626510417
2015-09-05,0.00568913333333
2015-09-07,0.0202859770833
2016-04-10,0.030784884375
2016-04-11,0.0604505208333
2016-04-12,0.0216345020833
2016-04-14,0.0165434375
2016-04-23,0.0001690875
2016-04-24,0.00845785416667
2016-04-27,0.0002171
2016-05-09,0.009873875
2016-05-11,0.02838686875
2016-05-12,0.0224028760417
2016-05-13,0.023258403125
2016-05-14,0.0313786041667
2016-05-15,0.019118890625
2016-05-16,0.0168997041667
2016-05-17,0.0188384697917
2016-05-18,0.004849784375
2016-05-19,0.005465596875
2016-06-06,0.0186718177083
2016-06-07,0.022806459375
2016-06-08,0.0323600770833
2016-06-09,0.0495617729167
2016-06-10,0.0671253020833
2016-06-11,0.0568596729167
2016-06-12,0.0479938864583
2016-06-13,0.0261341083333
2016-06-14,0.0237745375
2016-06-19,0.0362772708333
2016-06-20,0.0265383875
2016-06-21,0.0333439854167
2016-06-22,0.0361772447917
2016-06-23,0.032633365625
2016-06-24,0.0329106552083
2016-06-25,0.0279664114583
2016-06-26,0.00965399166667
2016-06-27,0.00663268333333
2016-06-28,0.0240542625
2016-06-29,0.00899068854167
2016-06-30,0.000472470833333
2016-07-01,0.0187313114583
2016-07-02,0.02274853125
2016-07-03,0.0251223666667
2016-07-04,0.008225271875
2016-07-05,0.00971713854167
2016-07-06,0.0287685333333
2016-07-07,0.03098789375
2016-07-08,0.03078331875
2016-07-09,0.0274974197917
2016-07-10,0.022597709375
2016-07-11,0.0196228479167
2016-07-12,0.0168984864583
2016-07-13,0.0173749583333
2016-07-14,0.0345714354167
2016-07-15,0.0410686052083
2016-07-16,0.0498736802083
2016-07-17,0.041029290625
2016-07-18,0.0341492385417
2016-07-19,0.0558164447917
2016-07-20,0.0625677677083
2016-07-21,0.0509990166667
2016-07-22,0.05836754375
2016-07-23,0.045150015625
2016-07-24,0.0318115864583
2016-07-25,0.0315349927083
2016-07-26,0.0298552510417
2016-07-27,0.03543009375
2016-07-28,0.0306521541667
2016-07-29,0.0298348979167
2016-07-30,0.0302130833333
2016-07-31,0.0267307854167
2016-08-01,0.025966934375
2016-08-02,0.029242221875
2016-08-03,0.022440103125
2016-08-04,0.0108904875
2016-08-05,0.0175852739583
2016-08-06,0.0146786041667
2016-08-07,0.0243061541667
2016-08-08,0.0304061770833
2016-08-09,0.0342821427083
2016-08-10,0.0335395145833
2016-08-11,0.0264239229167
2016-08-12,0.01292893125
2016-08-13,0.00770600625
2016-08-17,0.002524309375
2016-08-18,0.0117341854167
2016-08-19,0.018685734375
2016-08-20,0.014682953125
2016-08-21,0.00618213125
2016-08-22,0.02143340625
2016-08-23,0.03886820625
2016-08-24,0.051189675
2016-08-25,0.0405312479167
2016-08-26,0.0228094166667
2016-08-27,0.019613628125
2016-08-28,0.02070486875
2016-08-31,0.00361172291667
2016-09-01,0.00334939375
2016-11-05,0.00543828541667
2017-05-04,0.00857579791667
2017-05-05,0.030253615625
2017-05-06,0.006229621875
2017-05-08,0.00425554270833
2017-05-09,0.00386674583333
2017-05-18,0.02125596875
2017-05-19,0.0347086885417
2017-05-20,0.0104863822917
2017-06-11,0.0230105125
2017-06-12,0.0138820489583
2017-06-13,0.00478368020833
2017-06-14,0.011680084375
2017-06-15,0.0175287375
2017-06-16,0.0138434302083
2017-06-17,0.000518047916667
2017-06-23,0.0169459770833
2017-06-24,0.0222953697917
2017-06-25,0.0452850072917
2017-06-26,0.0494488739583
2017-06-27,0.03169346875
2017-06-28,0.0192589270833
2017-06-29,0.0135694458333
2017-06-30,0.00264416666667
2017-07-07,0.02064015625
2017-07-08,0.0181516822917
2017-07-12,0.017738009375
2017-07-13,0.028983371875
2017-07-14,0.0290030291667
2017-07-15,0.004898840625
2017-07-19,0.0349718875
2017-07-20,0.00660398020833
