Datetime,melt_sonic_abovefreeze
2011-07-13,
2011-07-14,
2011-07-15,
2011-07-16,
2011-07-17,
2011-07-18,
2011-07-19,
2011-07-20,0.04310832981
2011-07-21,0.03165832488
2011-07-22,0.05993010023
2011-07-23,0.04445941136
2011-07-24,0.03995908644
2011-07-25,0.02156438375
2011-07-26,0.01411331467
2011-07-27,0.02125021171
2011-07-28,0.02442262004
2011-07-29,0.027419483
2011-07-30,0.05139896944
2011-07-31,0.04398716868
2011-08-01,0.03962869092
2011-08-02,0.03251994564
2011-08-03,0.04060833959
2011-08-04,0.03282884696
2011-08-05,0.03612521003
2011-08-06,0.04227522026
2011-08-07,0.04018851018
2011-08-08,0.02103007361
2011-08-09,0.03552223766
2011-08-10,0.03639906088
2011-08-11,0.02439919573
2011-08-12,0.0199515407
2011-08-17,0.02569680295
2011-08-18,0.01299663183
2011-08-19,
2011-08-24,0.0388775842
2011-08-25,0.01070882904
2011-08-26,0.0299724789
2011-08-27,0.05449239523
2011-08-28,0.04149591901
2011-08-29,0.01765258404
2011-08-30,0.00105756196
2011-09-04,0.00652314299
2011-09-09,0.00569172058
2011-09-10,
2011-11-13,
2012-04-02,
2012-04-06,0.01844651627
2012-04-07,
2012-05-07,0.01130927798
2012-05-08,0.01413946716
2012-05-28,0.05375791694
2012-05-29,0.03089182005
2012-05-30,0.02236160563
2012-05-31,0.02650766846
2012-06-01,0.0398058934
2012-06-02,0.03117068227
2012-06-03,0.02009816809
2012-06-04,0.01088470292
2012-06-05,0.01125717229
2012-06-06,0.02429890827
2012-06-07,0.01588591277
2012-06-08,
2012-06-12,0.00734977243
2012-06-14,0.0522968992
2012-06-15,0.05689923785
2012-06-16,0.01691996306
2012-06-17,0.02145039169
2012-06-18,0.04876507454
2012-06-19,0.02925811616
2012-06-20,0.04764136104
2012-06-21,0.05200486473
2012-06-22,0.03716442639
2012-06-23,0.01009010821
2012-06-24,0.0185734913
2012-06-25,0.03481873759
2012-06-26,0.03937397009
2012-06-27,0.0420094493
2012-06-28,0.04406051195
2012-06-29,0.03737019832
2012-06-30,0.02790177754
2012-07-01,0.02571137842
2012-07-02,0.02625981722
2012-07-03,0.02596315722
2012-07-04,0.02774450679
2012-07-05,0.03414800025
2012-07-06,0.04793308884
2012-07-07,0.03562144404
2012-07-08,0.02806935222
2012-07-09,0.0658919079
2012-07-10,0.08556667665
2012-07-11,0.0812702345
2012-07-12,0.05480713875
2012-07-13,0.04353845951
2012-07-14,0.03444168455
2012-07-15,0.02384697315
2012-07-16,0.04603860898
2012-07-17,0.07522841872
2012-07-18,0.06945405649
2012-07-19,0.04219108075
2012-07-20,0.0344887088
2012-07-21,0.02998133684
2012-07-22,0.02919105644
2012-07-23,0.01522437189
2012-07-24,0.02419837602
2012-07-25,0.02925252785
2012-07-26,0.04005454271
2012-07-27,0.05652635716
2012-07-28,0.05608808751
2012-07-29,0.03165032689
2012-07-30,0.03216589467
2012-07-31,0.0333001942
2012-08-01,0.03698493071
2012-08-02,0.04260116133
2012-08-03,0.05658659643
2012-08-04,0.07248791095
2012-08-05,0.06890041795
2012-08-06,0.04283463548
2012-08-07,0.02718930851
2012-08-08,0.02049799297
2012-08-09,0.00672472528
2012-08-14,0.03042509834
2012-08-15,0.03970403892
2012-08-16,0.03447113943
2012-08-17,
