"TOA5","UM_Lab","CR1000","54800","CR1000.Std.25","CPU:Met_station_20140922.CR1","46375","Table1"
"TIMESTAMP","RECORD","BattV","PTemp_C","AirTC_1","RH_1","AirTC_2","RH_2","DT","Q","TCDT","WS_ms","WindDir","NR_Wm2","CNR_Wm2","Rain_mm_Tot","Ducer_1","Ducer_2"
"TS","RN","V","Deg C","Deg C","%","Deg C","%","m","","m","m/s","degrees","W/m^2","W/m^2","mm","V","V"
"","","Smp","Smp","Smp","Smp","Smp","Smp","Smp","Smp","Smp","Smp","Smp","Smp","Smp","Tot","Smp","Smp"
"2015-07-18 00:15:00",28528,13.69,4.213,0.574,87.4,0.67600,86,1.011,192,1.012,3.173,91.4,-433.9,-433.9,0,29.67,784.1
"2015-07-18 00:30:00",28529,13.64,3.978,0.646,87.20002,0.81600,85.1,1.012,187,1.013,3.159,80.8,-427.2,-427.2,0,32.4,780
"2015-07-18 00:45:00",28530,13.59,3.784,0.461,87.6,0.461,86.3,1.011,187,1.012,3.299,86.9,-534.8,-534.8,0,30.35,782.1
"2015-07-18 01:00:00",28531,13.56,3.592,0.33,87.1,0.466,85.6,1.013,187,1.014,2.991,94.5,-571.8,-571.8,0,32.4,781.4
"2015-07-18 01:15:00",28532,13.51,3.377,0.025,88,0.16,86.5,1.014,187,1.014,2.594,95.20002,-605.5,-605.5,0,26.26,803
"2015-07-18 01:30:00",28533,13.47,3.142,-0.245,89.5,-0.177,88.20002,1.014,187,1.014,2.375,96.6,-598.7,-598.7,0,28.99,782.7
"2015-07-18 01:45:00",28534,13.43,2.907,0.027,88,0.129,86.3,1.013,178,1.013,3.175,77.2,-548.3,-548.3,0,31.04,807
"2015-07-18 02:00:00",28535,13.39,2.758,0.299,86.3,0.401,84,1.012,191,1.013,3.384,71.99,-524.7,-524.7,0,27.63,780.7
"2015-07-18 02:15:00",28536,13.36,2.652,0.605,83.8,0.74100,81.8,1.012,187,1.013,3.281,72.22999,-507.9,-507.9,0,33.77,788.9
"2015-07-18 02:30:00",28537,13.33,2.609,0.74100,82.8,0.94500,80.5,1.011,192,1.012,3.01,69.14,-548.3,-548.3,0,34.45,788.9
"2015-07-18 02:45:00",28538,13.3,2.544,0.503,85.20002,0.775,82.5,1.012,191,1.013,2.336,78,-555,-555,0,32.4,783.4
"2015-07-18 03:00:00",28539,13.27,2.46,0.248,86.3,0.452,83.6,1.013,183,1.013,2.314,66.97,-524.7,-524.7,0,26.94,786.2
"2015-07-18 03:15:00",28540,13.25,2.374,0.384,85.6,0.588,83.4,1.012,187,1.013,2.564,70.25,-437.3,-437.3,0,31.04,784.1
"2015-07-18 03:30:00",28541,13.25,2.311,0.299,86.20002,0.571,83.9,1.012,192,1.013,2.414,76.97999,-393.6,-393.6,0,31.72,784.8
"2015-07-18 03:45:00",28542,13.25,2.288,0.299,86.5,0.469,84.4,1.012,191,1.013,2.65,82.8,-380.1,-380.1,0,33.08,782.1
"2015-07-18 04:00:00",28543,13.27,2.245,0.282,86.6,0.418,84.6,1.013,182,1.014,2.521,83.70002,-423.9,-423.9,0,32.4,783.4
"2015-07-18 04:15:00",28544,13.29,2.182,0.061,86.8,0.129,85,1.013,192,1.013,2.663,86.5,-460.9,-460.9,0,39.22,781.4
"2015-07-18 04:30:00",28545,13.32,2.139,0.265,85.70002,0.537,83.4,1.012,192,1.012,2.566,75.39,-299.4,-299.4,0,29.67,804
"2015-07-18 04:45:00",28546,13.39,2.203,0.469,85.70002,0.571,83.9,1.012,183,1.013,2.337,79.18,-70.65,-70.65,0,34.45,807
"2015-07-18 05:00:00",28547,13.49,2.438,0.554,85.6,0.656,83.70002,1.012,187,1.013,2.551,83.20002,-10.09,-10.09,0,20.8,785.5
"2015-07-18 05:15:00",28548,13.62,2.758,0.537,85.3,0.673,83.5,1.012,182,1.013,2.122,90.1,50.46,50.46,0,28.99,784.1
"2015-07-18 05:30:00",28549,13.77,3.142,0.775,84.4,0.91100,82.6,1.011,192,1.012,2.37,76.24,117.7,117.7,0,32.4,782.7
"2015-07-18 05:45:00",28550,13.95,3.549,0.85800,84.1,0.92600,82.6,1.012,183,1.014,2.254,65.26,144.6,144.6,0,34.45,781.4
"2015-07-18 06:00:00",28551,14.15,3.956,0.717,84.70002,0.85300,83,1.012,171,1.013,2.264,88.1,252.3,252.3,0,31.72,788.9
"2015-07-18 06:15:00",28552,14.36,4.236,1.239,82.5,1.273,80.9,1.013,188,1.015,2.267,72.93,403.6,403.6,0,33.08,784.1
