"TOA5","UM_Lab","CR1000","54800","CR1000.Std.25","CPU:Met_station_20140922.CR1","46375","Table1"
"TIMESTAMP","RECORD","BattV","PTemp_C","AirTC_1","RH_1","AirTC_2","RH_2","DT","Q","TCDT","WS_ms","WindDir","NR_Wm2","CNR_Wm2","Rain_mm_Tot","Ducer_1","Ducer_2"
"TS","RN","V","Deg C","Deg C","%","Deg C","%","m","","m","m/s","degrees","W/m^2","W/m^2","mm","V","V"
"","","Smp","Smp","Smp","Smp","Smp","Smp","Smp","Smp","Smp","Smp","Smp","Smp","Smp","Tot","Smp","Smp"
"2015-02-28 00:15:00",15106,13.25,-22.64,-22.91,52.93,-22.81,51.94,1.674,192,1.602,9.31000,112.9,-644.8,-704,0,82.8,830
"2015-02-28 00:30:00",15107,13.25,-22.61,-22.95,52.15,-22.84,51.23,1.675,192,1.603,8.8,105.8,-624.6,-675.1,0,80.8,836
"2015-02-28 00:45:00",15108,13.24,-22.61,-22.81,51.5,-22.74,50.55,1.675,191,1.604,8.44000,111.5,-644.8,-692.1,0,81.8,842
"2015-02-28 01:00:00",15109,13.24,-22.61,-22.66,51.89,-22.62,50.94,1.673,192,1.602,8.42,108,-624.6,-670.1,0,81.1,833
"2015-02-28 01:15:00",15110,13.24,-22.64,-22.81,51.64,-22.81,50.85,1.676,192,1.604,8.19000,115.8,-644.8,-688.6,0,75.97999,830
"2015-02-28 01:30:00",15111,13.23,-22.64,-22.74,51.02,-22.71,50.1,1.674,187,1.603,8.51,104.3,-644.8,-693.1,0,73.58,834
"2015-02-28 01:45:00",15112,13.23,-22.7,-25.61,62.41,-25.54,61.49,1.68,182,1.599,6.456,88.6,-651.6,-671.8,0,81.8,850
"2015-02-28 02:00:00",15113,13.23,-22.92,-23.08,50.92,-22.98,49.9,1.676,187,1.604,7.222,102.7,-638.1,-668.3,0,93.4,861
"2015-02-28 02:15:00",15114,13.23,-22.98,-24.09,53.84,-23.95,52.88,1.68,186,1.604,6.138,93.20002,-617.8,-632.8,0,84.5,833
"2015-02-28 02:30:00",15115,13.22,-23.23,-25.68,56.96,-25.71,56.55,1.684,186,1.603,6.98700,97.1,-563.8,-587.7,0,91.4,829
"2015-02-28 02:45:00",15116,13.21,-23.54,-25.5,55.93,-25.54,55.32,1.684,187,1.603,7.392,86.9,-523.4,-550,0,99.6,832
"2015-02-28 03:00:00",15117,13.21,-23.73,-24.55,52.46,-24.38,51.47,1.682,186,1.605,8.76,94.6,-503.2,-543.5,0,90,831
"2015-02-28 03:15:00",15118,13.21,-23.82,-23.9,51.09,-23.83,50,1.678,183,1.603,8.14000,91.20002,-483,-515.2,0,80.4,851
"2015-02-28 03:30:00",15119,13.2,-23.92,-25.68,57.95,-25.74,57.5,1.683,191,1.602,8.13,87.9,-455.9,-486.3,0,89,851
"2015-02-28 03:45:00",15120,13.2,-24.02,-25.73,57.66,-25.76,57.18,1.684,185,1.603,7.971,71.36,-499.8,-531.5,0,91.4,860
"2015-02-28 04:00:00",15121,13.2,-24.14,-25.67,57.1,-25.78,56.62,1.685,174,1.604,7.982,84.4,-483,-513.6,0,96.20002,829
"2015-02-28 04:15:00",15122,13.19,-24.27,-25.67,56.79,-25.74,56.18,1.686,177,1.605,8.31000,78.43999,-472.8,-506.2,0,92.8,840
"2015-02-28 04:30:00",15123,13.2,-24.37,-25.54,57.79,-25.6,57.38,1.684,182,1.603,8.32,69.76,-455.9,-488.1,0,98.3,830
"2015-02-28 04:45:00",15124,13.19,-24.47,-25.81,57.76,-25.88,57.32,1.686,186,1.604,8.02000,77.81,-425.5,-452.9,0,92.8,840
"2015-02-28 05:00:00",15125,13.19,-24.56,-25.94,57.42,-25.98,57.01,1.685,181,1.603,8.17,84.6,-428.9,-457.9,0,93.5,838
"2015-02-28 05:15:00",15126,13.19,-24.66,-26.15,58.61,-26.15,58.24,1.687,178,1.604,8.05,78.97,-374.9,-399.2,0,99.6,830
"2015-02-28 05:30:00",15127,13.19,-24.76,-26.56,60.93,-26.59,60.56,1.688,190,1.604,8.06000,65.55,-334.4,-356.1,0,88.4,834
"2015-02-28 05:45:00",15128,13.18,-24.86,-26.27,61.84,-26.34,61.53,1.685,190,1.602,8.04,73.06,-307.3,-327.2,0,94.9,848
"2015-02-28 06:00:00",15129,13.18,-24.96,-25.88,60.73,-25.98,60.53,1.685,178,1.603,7.746,71.7,-314.1,-332.4,0,93.5,859
"2015-02-28 06:15:00",15130,13.18,-24.96,-25.93,60.68,-25.99,60.37,1.684,186,1.602,8.01,72.79,-344.5,-366.6,0,96.6,833
"2015-02-28 06:30:00",15131,13.17,-25.02,-25.67,61.14,-25.81,60.93,1.685,182,1.604,8.02000,74.42,-334.4,-355.8,0,96.9,842
"2015-02-28 06:45:00",15132,13.17,-25.06,-25.47,60.25,-25.47,59.91,1.684,173,1.604,7.699,76.45,-320.8,-339.3,0,93.20002,855
"2015-02-28 07:00:00",15133,13.17,-25.02,-25.26,61.07,-25.33,60.8,1.683,192,1.603,7.76200,76.14,-297.2,-314.7,0,86.6,852
"2015-02-28 07:15:00",15134,13.17,-24.99,-25.4,60.53,-25.47,60.18,1.683,177,1.603,7.877,64.75,-222.9,-236.6,0,90.8,834
"2015-02-28 07:30:00",15135,13.16,-24.99,-24.72,59.5,-24.85,59.09,1.681,181,1.603,8.99,73.18,-179,-194.2,0,81.20002,835
"2015-02-28 07:45:00",15136,13.16,-24.89,-24.54,60.18,-24.68,59.98,1.68,182,1.603,9.19000,77.32,-172.2,-187.6,0,79.11,851
"2015-02-28 08:00:00",15137,13.16,-24.79,-23.9,59.91,-23.96,59.57,1.679,186,1.604,8.54,75.04999,-276.9,-297.8,0,89.4,831
"2015-02-28 08:15:00",15138,13.14,-24.66,-24.65,61,-24.72,60.66,1.68,190,1.602,8.88,68.43,-324.2,-351,0,85.6,827
"2015-02-28 08:30:00",15139,13.12,-24.63,-24.65,60.87,-24.78,60.73,1.679,177,1.601,9.63,60.61,-361.4,-397,0,78.42,827
"2015-02-28 08:45:00",15140,13.11,-24.6,-24.24,60.76,-24.31,60.39,1.678,187,1.602,9.69000,63.2,-361.4,-397.5,0,87.70002,834
"2015-02-28 09:00:00",15141,13.14,-24.53,-24.03,61,-24.03,60.66,1.679,191,1.603,8.98000,66.08,-307.3,-333.4,0,89.70002,829
"2015-02-28 09:15:00",15142,13.57,-24.47,-23.96,61.82,-24.03,61.69,1.675,181,1.6,8.59,59.93,-307.3,-330.8,0,84.9,830
"2015-02-28 09:30:00",15143,14.61,-24.31,-22.5,59.16,-22.57,58.85,1.673,186,1.603,8.97,62.64,-331,-358.9,0,79.09,852
"2015-02-28 09:45:00",15144,14.61,-24.05,-22.33,59.7,-22.4,59.43,1.672,186,1.602,9.09,64.16,-300.6,-326.7,0,76.68999,831
"2015-02-28 10:00:00",15145,14.6,-23.7,-21.68,59.52,-21.75,59.28,1.671,190,1.603,8.32,66.84,-179,-191.7,0,73.93999,830
"2015-02-28 10:15:00",15146,14.61,-23.29,-22.09,61.12,-22.13,60.88,1.673,190,1.604,7.616,66.21,-358,-377.9,0,70.16,833
"2015-02-28 10:30:00",15147,14.61,-22.92,-22.44,61.77,-22.47,61.6,1.676,192,1.606,7.27700,67.51,-334.3,-350.5,0,75.29,830
"2015-02-28 10:45:00",15148,14.61,-22.61,-22.13,61.8,-22.13,61.53,1.673,191,1.604,5.718,89.6,-422,-428.5,0,77,832
"2015-02-28 11:00:00",15149,14.61,-22.34,-22.67,63.1,-22.61,62.76,1.675,192,1.604,5.49,78.93999,-341,-344.6,0,69.47,831
"2015-02-28 11:15:00",15150,14.62,-22.04,-21.99,61.32,-21.92,60.85,1.673,190,1.604,5.459,88.5,-354.5,-358,0,76.66,830
"2015-02-28 11:30:00",15151,14.61,-21.8,-22.54,62.41,-22.51,62.1,1.674,191,1.603,6.245,87.1,-344.4,-353.5,0,72.21,831
"2015-02-28 11:45:00",15152,14.62,-21.53,-21.52,62.74,-21.48,62.23,1.671,190,1.604,6.467,88.6,-374.7,-386.4,0,79.06,830
"2015-02-28 12:00:00",15153,14.61,-21.27,-19.92,59.46,-19.95,59.26,1.667,191,1.605,6.536,117.6,-408.5,-421.8,0,78.36999,836
"2015-02-28 12:15:00",15154,14.62,-20.95,-20.05,60.48,-20.02,60.21,1.668,192,1.606,5.147,109.5,-320.7,-321.7,0,70.16,831
"2015-02-28 12:30:00",15155,14.61,-20.66,-20.77,62.63,-20.84,62.46,1.67,192,1.605,5.574,115.6,-246.4,-249.4,0,68.1,833
"2015-02-28 12:45:00",15156,14.62,-20.51,-19.92,62.26,-20.02,62.12,1.668,192,1.606,5.098,115.7,-212.6,-213.1,0,69.47,829
"2015-02-28 13:00:00",15157,14.62,-20.28,-20.16,62.9,-20.16,62.6,1.668,192,1.605,5.818,111,-266.6,-271.3,0,67.42,834
"2015-02-28 13:15:00",15158,14.61,-20.17,-19.61,61.98,-19.54,61.51,1.666,192,1.605,5.545,118.7,-165.4,-167.3,0,66.39,854
"2015-02-28 13:30:00",15159,14.61,-20,-18.93,62.76,-19,62.66,1.662,191,1.603,5.398,107.8,-74.25,-74.88,0,68.1,838
"2015-02-28 13:45:00",15160,14.61,-19.78,-19.07,63.61,-19.07,63.41,1.664,192,1.605,5.576,119,-232.9,-235.7,0,73.92,860
"2015-02-28 14:00:00",15161,14.61,-19.61,-19.75,64.56,-19.75,64.63,1.668,192,1.607,4.45,134.4,-232.9,-232.9,0,69.81,830
"2015-02-28 14:15:00",15162,14.62,-19.38,-18.94,61.69,-18.94,61.29,1.664,192,1.605,4.065,128.3,-266.6,-266.6,0,68.43,838
"2015-02-28 14:30:00",15163,14.61,-19.19,-18.73,62.17,-18.8,61.97,1.665,192,1.607,5.054,129.3,-259.9,-260.2,0,70.79999,827
"2015-02-28 14:45:00",15164,14.63,-19.05,-18.46,60.67,-18.46,60.26,1.663,192,1.606,4.276,141,-118.1,-118.1,0,76.95,830
"2015-02-28 15:00:00",15165,14.61,-18.83,-18.94,63.12,-18.94,62.92,1.666,192,1.607,4.223,134.5,-141.7,-141.7,0,68.4,830
"2015-02-28 15:15:00",15166,14.61,-18.61,-19.69,65.99,-19.62,65.64,1.665,192,1.604,3.479,151.4,-236.2,-236.2,0,71.47999,852
"2015-02-28 15:30:00",15167,14.62,-18.42,-20.33,67.68999,-20.33,67.76,1.669,192,1.606,4.316,145.8,-263.2,-263.2,0,78.32,832
"2015-02-28 15:45:00",15168,14.61,-18.37,-19.79,67.04,-19.75,66.87,1.667,192,1.605,4.657,116.7,-249.7,-249.7,0,75.58,831
"2015-02-28 16:00:00",15169,14.61,-18.45,-19.82,67.01,-19.82,66.97,1.667,192,1.605,4.799,129.1,-273.3,-273.3,0,74.9,827
"2015-02-28 16:15:00",15170,14.61,-18.5,-19.99,65.88,-19.96,65.78,1.668,192,1.606,4.12,138.5,-307,-307,0,64.64,841
"2015-02-28 16:30:00",15171,14.61,-18.61,-20.85,66.56,-20.85,66.46,1.67,192,1.605,3.711,141.5,-340.8,-340.8,0,73.53,830
"2015-02-28 16:45:00",15172,14.61,-18.78,-20.85,64.04,-20.91,63.8,1.67,192,1.605,4.266,136.7,-361,-361,0,79.34,830
"2015-02-28 17:00:00",15173,14.61,-18.91,-21.53,65.41,-21.46,65.13,1.673,192,1.606,5.136,140.5,-398.1,-399.3,0,75.24,832
"2015-02-28 17:15:00",15174,14.61,-19.16,-21.83,65.68,-21.8,65.51,1.673,192,1.605,4.776,125.1,-435.3,-435.3,0,81.1,831
"2015-02-28 17:30:00",15175,14.61,-19.41,-22.96,68.51,-22.82,68.29999,1.677,192,1.605,3.428,133.8,-435.3,-435.3,0,95.8,830
"2015-02-28 17:45:00",15176,14.57,-19.72,-23.09,67.42,-23.03,67.49,1.677,192,1.605,4.564,127.8,-442.1,-442.1,0,85.20002,838
"2015-02-28 18:00:00",15177,14.61,-20.03,-23.06,66.47,-22.99,66.06,1.676,191,1.604,4.933,117.7,-421.9,-421.9,0,80.4,854
"2015-02-28 18:15:00",15178,14.23,-20.28,-23.47,66.92,-23.43,66.75,1.679,191,1.605,5.019,129.2,-482.6,-482.8,0,82.8,832
"2015-02-28 18:30:00",15179,14.03,-20.57,-22.68,64.71,-22.61,64.44,1.675,191,1.604,4.188,119.1,-489.4,-489.4,0,80.8,832
"2015-02-28 18:45:00",15180,13.86,-20.77,-23.28,65.44,-23.24,65.14,1.678,192,1.605,4.305,124.5,-455.6,-455.6,0,87.6,839
"2015-02-28 19:00:00",15181,13.74,-21,-23.43,66.14,-23.5,66.14,1.678,192,1.604,4.958,109.9,-448.9,-448.9,0,88.6,833
"2015-02-28 19:15:00",15182,13.66,-21.18,-23.29,65.05,-23.23,64.88,1.677,191,1.604,4.928,120.2,-462.4,-462.4,0,86.6,830
"2015-02-28 19:30:00",15183,13.6,-21.35,-24.69,67.36999,-24.66,67.1,1.683,192,1.605,3.745,97.20002,-421.9,-421.9,0,83.5,863
"2015-02-28 19:45:00",15184,13.54,-21.65,-24.98,68.27,-24.84,68.04,1.682,191,1.603,4.114,125.5,-394.9,-394.9,0,91,830
"2015-02-28 20:00:00",15185,13.49,-21.92,-24.45,66.08,-24.38,65.95,1.68,191,1.603,4.722,113.7,-428.7,-428.7,0,90,858
"2015-02-28 20:15:00",15186,13.45,-22.1,-24.72,66.84,-24.72,66.63,1.681,192,1.603,4.052,119.1,-246.5,-246.5,0,93.4,834
"2015-02-28 20:30:00",15187,13.42,-22.28,-24.58,66.98,-24.62,66.84,1.681,192,1.604,4.003,108.6,-233,-233,0,93.4,831
"2015-02-28 20:45:00",15188,13.4,-22.43,-23.97,66.44,-23.97,66.3,1.678,192,1.603,4.56,127.9,-124.9,-124.9,0,85.20002,853
"2015-02-28 21:00:00",15189,13.38,-22.46,-23.68,66.46,-23.75,66.35,1.678,192,1.604,4.823,119.7,-118.2,-118.2,0,88.6,833
"2015-02-28 21:15:00",15190,13.36,-22.49,-23.68,67.89,-23.75,67.89,1.678,192,1.604,3.856,120,-94.5,-94.5,0,91.4,860
"2015-02-28 21:30:00",15191,13.34,-22.52,-23.77,68.35,-23.83,68.42,1.678,192,1.603,3.283,115.7,-199.2,-199.2,0,86.20002,831
"2015-02-28 21:45:00",15192,13.33,-22.55,-23.9,68.08,-23.97,67.93999,1.679,192,1.604,3.393,133.6,-205.9,-205.9,0,90,829
"2015-02-28 22:00:00",15193,13.32,-22.61,-23.9,67.93999,-23.97,67.93999,1.68,192,1.605,3.391,99.6,-212.7,-212.7,0,82.8,832
"2015-02-28 22:15:00",15194,13.31,-22.67,-24.17,69.41,-24.24,69.43999,1.68,192,1.604,3.28,102.3,-165.4,-165.4,0,84.20002,838
"2015-02-28 22:30:00",15195,13.3,-22.76,-24.04,68.83,-24.11,68.83,1.679,192,1.603,3.713,102.6,-162.1,-162.1,0,85.20002,830
"2015-02-28 22:45:00",15196,13.29,-22.8,-23.7,67.74,-23.77,67.6,1.678,192,1.604,4.254,120.4,-145.2,-145.2,0,88.3,828
"2015-02-28 23:00:00",15197,13.29,-22.83,-23.68,67,-23.75,66.73,1.678,192,1.604,4.207,119,-151.9,-151.9,0,84.9,830
"2015-02-28 23:15:00",15198,13.28,-22.83,-23.61,66.39,-23.68,66.01,1.678,192,1.604,4.24,127.8,-155.3,-155.3,0,89.70002,832
"2015-02-28 23:30:00",15199,13.28,-22.86,-23.83,67.74,-23.97,67.46,1.678,192,1.603,4.22,112.8,-118.2,-118.2,0,89.3,835
"2015-02-28 23:45:00",15200,13.27,-22.89,-23.7,66.92,-23.7,66.58,1.678,191,1.604,4.236,121.7,-97.9,-97.9,0,91.4,833
"2015-03-01 00:00:00",15201,13.26,-22.89,-23.83,68.08,-23.97,67.86999,1.678,192,1.603,3.639,98.4,-141.8,-141.8,0,90,850
