"TOA5","UM_Lab","CR1000","54800","CR1000.Std.25","CPU:Met_station_20140922.CR1","46375","Table1"
"TIMESTAMP","RECORD","BattV","PTemp_C","AirTC_1","RH_1","AirTC_2","RH_2","DT","Q","TCDT","WS_ms","WindDir","NR_Wm2","CNR_Wm2","Rain_mm_Tot","Ducer_1","Ducer_2"
"TS","RN","V","Deg C","Deg C","%","Deg C","%","m","","m","m/s","degrees","W/m^2","W/m^2","mm","V","V"
"","","Smp","Smp","Smp","Smp","Smp","Smp","Smp","Smp","Smp","Smp","Smp","Smp","Smp","Tot","Smp","Smp"
"2015-01-21 00:15:00",11458,13.07,-28.99,-29.08,65.07,-29.01,64.18,1.731,189,1.636,8.39000,88.5,-584.7,-626.9,0,99.70002,852
"2015-01-21 00:30:00",11459,13.06,-28.95,-28.46,63.98,-28.5,62.75,1.729,185,1.636,7.72,84.3,-584.7,-618.5,0,105.2,852
"2015-01-21 00:45:00",11460,13.06,-28.91,-28.73,63.91,-28.73,63.02,1.729,178,1.636,7.79000,88.9,-571.2,-605.1,0,95.9,872
"2015-01-21 01:00:00",11461,13.06,-28.87,-28.67,64.52,-28.73,63.67,1.73,182,1.637,7.656,86.5,-547.5,-578.4,0,100.7,852
"2015-01-21 01:15:00",11462,13.06,-28.84,-28.26,64.52,-28.26,63.35,1.729,181,1.637,7.70400,86.6,-530.6,-561.1,0,115.4,874
"2015-01-21 01:30:00",11463,13.05,-28.76,-27.78,63.76,-27.78,62.57,1.725,186,1.635,7.995,76.03,-530.6,-564.4,0,100,853
"2015-01-21 01:45:00",11464,13.05,-28.65,-27.71,66.15,-27.71,65.5,1.726,183,1.636,8.45,88.1,-493.4,-529.7,0,106.2,854
"2015-01-21 02:00:00",11465,13.05,-28.53,-27.78,66.76,-27.85,65.98,1.727,181,1.637,8.56000,83.6,-392,-421.7,0,97.9,856
"2015-01-21 02:15:00",11466,13.05,-28.46,-27.37,64.37,-27.37,63.45,1.725,174,1.636,7.582,81.5,-334.6,-353,0,96.20002,852
"2015-01-21 02:30:00",11467,13.04,-28.35,-26.83,61.02,-26.83,59.66,1.722,177,1.635,6.982,86,-381.9,-398,0,90.8,853
"2015-01-21 02:45:00",11468,13.04,-28.2,-26.96,61.78,-26.96,60.72,1.724,185,1.637,7.44000,79.47999,-341.3,-359.1,0,89.4,874
"2015-01-21 03:00:00",11469,13.03,-28.01,-26.69,63.34,-26.69,62.22,1.722,186,1.636,7.811,91,-334.6,-354.6,0,101.4,855
"2015-01-21 03:15:00",11470,13.03,-27.9,-26.48,61.37,-26.48,60.31,1.722,178,1.636,7.13,91,-287.3,-300.3,0,93.5,854
"2015-01-21 03:30:00",11471,13.03,-27.76,-26.25,62.12,-26.28,61.19,1.721,186,1.636,7.398,91,-209.5,-220.2,0,92.8,853
"2015-01-21 03:45:00",11472,13.03,-27.65,-26.14,61.71,-26.21,60.92,1.721,185,1.637,6.618,83.70002,-300.8,-311.1,0,88,852
"2015-01-21 04:00:00",11473,13.03,-27.5,-25.94,61.57,-25.94,60.68,1.721,178,1.637,6.249,80.9,-239.9,-246.3,0,97.3,850
"2015-01-21 04:15:00",11474,13.03,-27.36,-25.56,62.12,-25.6,61.19,1.72,178,1.638,6.317,88.5,-223,-229.3,0,99,852
"2015-01-21 04:30:00",11475,13.03,-27.22,-25.53,62.53,-25.53,61.98,1.719,185,1.637,5.882,85.6,-277,-282.2,0,89.4,874
"2015-01-21 04:45:00",11476,13.03,-27.08,-25.38,61.04,-25.38,60.22,1.719,178,1.637,5.374,86,-378.4,-381.4,0,90.1,854
"2015-01-21 05:00:00",11477,13.02,-26.97,-25.56,61.84,-25.53,61.16,1.721,177,1.638,5.315,95,-344.6,-346.9,0,95.5,854
"2015-01-21 05:15:00",11478,13.02,-26.86,-25.7,62.46,-25.6,61.3,1.72,173,1.637,4.243,82.8,-185.8,-185.8,0,92.1,854
"2015-01-21 05:30:00",11479,13.02,-26.79,-25.26,63.69,-25.32,63.07,1.718,174,1.637,4.349,82.5,-131.8,-131.8,0,94.20002,848
"2015-01-21 05:45:00",11480,13.02,-26.65,-25.12,65.87,-25.15,65.26,1.719,170,1.638,4.183,80.3,-145.3,-145.3,0,93.20002,853
"2015-01-21 06:00:00",11481,13.02,-26.51,-24.39,65.1,-24.35,64.25,1.716,173,1.638,3.602,86.9,-118.2,-118.2,0,84.20002,855
"2015-01-21 06:15:00",11482,13.02,-26.34,-24.37,66.27,-24.44,65.73,1.717,178,1.639,4.049,92.9,-162.2,-162.2,0,86.6,853
"2015-01-21 06:30:00",11483,13.02,-26.17,-24.78,66.81,-24.64,65.31,1.718,170,1.638,2.329,103.7,-135.1,-135.1,0,82.9,855
"2015-01-21 06:45:00",11484,13.02,-26.06,-23.01,56.92,-22.05,51.22,1.721,170,1.647,0.99600,127.3,-33.78,-33.78,0,88.4,855
"2015-01-21 07:00:00",11485,13.02,-25.93,-23.76,60.43,-23.48,56.99,1.716,170,1.64,0.339,176,-13.51,-13.51,0,87.70002,855
"2015-01-21 07:15:00",11486,13.01,-25.79,-24.58,57.53,-24.64,56.1,1.716,170,1.637,1.084,176.2,-20.27,-20.27,0,90.1,854
"2015-01-21 07:30:00",11487,13.01,-25.72,-24.65,60.26,-24.78,59.27,1.717,169,1.638,1.095,176.2,-6.75600,-6.75600,0,93.8,853
"2015-01-21 07:45:00",11488,13.01,-25.66,-24.83,63.62,-24.9,61.78,1.718,169,1.638,1.08,176.2,23.65,23.65,0,82.5,857
"2015-01-21 08:00:00",11489,13.01,-25.62,-24.97,63.85,-25,60.82,1.718,169,1.638,1.127,176.2,6.75600,6.75600,0,84.6,859
"2015-01-21 08:15:00",11490,13.01,-25.62,-24.82,61.52,-24.92,60.8,1.718,169,1.638,1.143,176.3,27.02,27.02,0,86,850
"2015-01-21 08:30:00",11491,13.01,-25.59,-24.78,65.06,-24.85,63.26,1.719,168,1.639,0.376,176.3,-20.27,-20.27,0,82.9,854
"2015-01-21 08:45:00",11492,13,-25.55,-25.06,63.46,-25.19,61.55,1.719,170,1.638,0.81100,176.3,-33.78,-33.78,0,87.70002,852
"2015-01-21 09:00:00",11493,13,-25.52,-25.04,64.33,-25.18,61.84,1.719,170,1.638,0.193,176.3,-74.31,-74.31,0,85.6,873
"2015-01-21 09:15:00",11494,13,-25.52,-25.26,63.66,-25.33,61.55,1.72,169,1.639,0.264,176.3,-212.8,-212.8,0,87.70002,856
"2015-01-21 09:30:00",11495,13,-25.55,-25.53,65.57,-25.53,64.55,1.721,170,1.639,0.027,176.3,-212.8,-212.8,0,91.1,854
"2015-01-21 09:45:00",11496,13,-25.59,-25.94,67.08,-25.88,65.61,1.722,170,1.638,0.526,176.2,-37.16,-37.16,0,96.20002,848
"2015-01-21 10:00:00",11497,13,-25.66,-25.74,68.71,-25.81,67.35,1.721,170,1.638,0.302,176.2,-6.75600,-6.75600,0,94.20002,850
"2015-01-21 10:15:00",11498,13,-25.69,-25.53,68.85,-25.7,68.51,1.721,170,1.639,0.135,176.2,-67.56,-67.56,0,91.8,853
"2015-01-21 10:30:00",11499,12.97,-25.69,-25.53,69.67,-25.67,69.09,1.721,170,1.639,0,176.2,-6.75600,-6.75600,0,97.9,849
"2015-01-21 10:45:00",11500,12.95,-25.69,-25.26,68.51,-25.33,67.76,1.719,170,1.638,0.002,176.2,47.29,47.29,0,89.4,851
"2015-01-21 11:00:00",11501,12.94,-25.66,-25.06,68.99,-25.19,68.92,1.719,170,1.638,0.187,176.2,47.29,47.29,0,84.6,849
"2015-01-21 11:15:00",11502,12.94,-25.59,-24.78,68.75,-24.89,68.43999,1.718,169,1.638,0.057,176.2,77.68999,77.68999,0,83.9,856
"2015-01-21 11:30:00",11503,12.96,-25.49,-24.56,69.86,-24.7,69.34,1.717,170,1.638,0.41,176.2,98,98,0,93.8,857
"2015-01-21 11:45:00",11504,13.01,-25.35,-24.31,66.56,-24.44,64.07,1.717,170,1.639,0,176.2,13.51,13.51,0,87.3,854
"2015-01-21 12:00:00",11505,13.06,-25.22,-24.75,69.57,-24.99,69.67,1.719,170,1.639,0.242,176.3,-104.7,-104.7,0,81.8,854
"2015-01-21 12:15:00",11506,13.11,-25.12,-24.61,69.04999,-24.89,68.92,1.718,170,1.639,0.025,176.3,-13.51,-13.51,0,89.4,852
"2015-01-21 12:30:00",11507,13.19,-25.02,-24.58,67.49,-24.72,67.01,1.718,170,1.639,0.012,176.3,20.26,20.26,0,84.9,851
"2015-01-21 12:45:00",11508,13.27,-24.86,-24.53,65.25,-25.04,65.73,1.719,170,1.64,0.038,176.3,-97.9,-97.9,0,88,852
"2015-01-21 13:00:00",11509,13.27,-24.76,-25.06,69.11999,-25.12,68.34,1.72,170,1.639,0.223,176.3,-74.29999,-74.29999,0,93.20002,854
"2015-01-21 13:15:00",11510,13.28,-24.69,-25.26,71.17,-25.4,70.79,1.72,168,1.639,0.668,176.3,-77.68,-77.68,0,82.5,853
"2015-01-21 13:30:00",11511,13.3,-24.66,-25.26,70.83,-25.47,70.42,1.72,170,1.639,0.235,176.3,-185.8,-185.8,0,87,853
"2015-01-21 13:45:00",11512,13.32,-24.63,-25.28,69.04,-25.38,68.25,1.721,169,1.639,0,176.3,-165.5,-165.5,0,87.3,852
"2015-01-21 14:00:00",11513,13.32,-24.66,-25.74,71.31,-25.81,70.68999,1.722,170,1.639,0.01,176.3,-84.4,-84.4,0,86.6,852
"2015-01-21 14:15:00",11514,13.3,-24.73,-25.67,70.52,-25.74,70.08,1.721,169,1.638,0,176.3,-54.04,-54.04,0,88.4,851
"2015-01-21 14:30:00",11515,13.27,-24.79,-25.53,70.08,-25.6,69.53,1.721,169,1.639,0,176.2,-20.26,-20.26,0,92.1,851
"2015-01-21 14:45:00",11516,13.24,-24.86,-25.4,70.61999,-25.53,70.49,1.72,170,1.638,0,176.2,-13.51,-13.51,0,87.3,851
"2015-01-21 15:00:00",11517,13.21,-24.89,-25.26,70.21,-25.36,69.93999,1.719,170,1.638,0,176.2,-13.51,-13.51,0,88,852
"2015-01-21 15:15:00",11518,13.17,-24.89,-25.19,69.67,-25.33,69.53,1.719,170,1.638,0.202,176.2,-33.77,-33.77,0,88.4,851
"2015-01-21 15:30:00",11519,13.13,-24.89,-24.95,70.42,-25.06,70.28,1.718,170,1.638,0.529,176.2,-27.02,-27.02,0,87.3,857
"2015-01-21 15:45:00",11520,13.1,-24.89,-24.85,71.78,-24.99,71.72,1.718,169,1.638,0.233,176.2,-47.28,-47.28,0,88.4,874
"2015-01-21 16:00:00",11521,13.06,-24.86,-24.65,74.38,-24.85,74.72,1.718,170,1.639,0.132,176.2,-60.79,-60.79,0,87,855
"2015-01-21 16:15:00",11522,13.03,-24.82,-24.58,74.38,-24.78,74.72,1.717,169,1.638,0,176.2,-111.5,-111.5,0,83.20002,870
"2015-01-21 16:30:00",11523,13.01,-24.76,-24.65,73.93,-24.72,74.17,1.718,170,1.639,0,176.2,-118.2,-118.2,0,93.5,847
"2015-01-21 16:45:00",11524,13.01,-24.76,-24.65,73.59,-24.78,73.76,1.718,170,1.639,0,176.1,-114.8,-114.8,0,92.5,849
"2015-01-21 17:00:00",11525,13.02,-24.76,-24.72,74.17,-24.78,74.17,1.718,170,1.638,0.051,176.2,-125,-125,0,81.20002,856
"2015-01-21 17:15:00",11526,13.02,-24.73,-24.78,74.04,-24.78,74.1,1.718,169,1.638,0.166,176.1,-172.2,-172.2,0,85.3,872
"2015-01-21 17:30:00",11527,13.01,-24.73,-24.65,73.83,-24.58,73.56,1.718,170,1.639,0.282,176.2,-165.5,-165.5,0,89.70002,854
"2015-01-21 17:45:00",11528,13.01,-24.73,-24.78,74.45,-24.44,73.97,1.718,173,1.638,0.263,176.2,-60.79,-60.79,0,90.4,852
"2015-01-21 18:00:00",11529,13.01,-24.73,-24.72,74.34,-24.72,74.38,1.719,174,1.639,0.285,176.2,-20.26,-20.26,0,84.20002,853
"2015-01-21 18:15:00",11530,13.01,-24.73,-24.65,76.22,-24.51,75.06,1.717,174,1.638,0.058,176.2,33.77,33.77,0,98.3,851
"2015-01-21 18:30:00",11531,13,-24.73,-24.27,74.72,-24.31,74.72,1.717,190,1.639,0.042,176.2,-219.5,-219.5,0,89.4,851
"2015-01-21 18:45:00",11532,13,-24.69,-24.63,75.68999,-24.77,75.96,1.719,189,1.64,0.063,176.2,-138.5,-138.5,0,88,852
"2015-01-21 19:00:00",11533,13,-24.73,-24.65,75.81,-24.65,76.29,1.719,190,1.64,0.00900,176.2,-20.26,-20.26,0,90.1,872
"2015-01-21 19:15:00",11534,13,-24.73,-24.72,75.91,-24.78,75.95,1.719,189,1.639,0.132,176.2,-54.04,-54.04,0,93.1,871
"2015-01-21 19:30:00",11535,12.99,-24.69,-24.78,75.91,-24.78,76.22,1.72,189,1.64,0.031,176.2,-97.9,-97.9,0,87,855
"2015-01-21 19:45:00",11536,12.99,-24.69,-24.78,76.15,-24.85,76.7,1.72,189,1.64,0.065,176.2,-60.79,-60.79,0,87,854
"2015-01-21 20:00:00",11537,12.99,-24.73,-24.78,76.56,-24.85,76.77,1.72,189,1.64,0,176.2,6.755,6.755,0,83.9,851
"2015-01-21 20:15:00",11538,12.99,-24.73,-24.78,76.56,-24.92,77.04,1.719,189,1.639,0.028,176.2,20.26,20.26,0,89.4,850
"2015-01-21 20:30:00",11539,12.98,-24.69,-24.85,76.9,-25.06,77.52,1.72,189,1.64,0.013,176.2,20.26,20.26,0,84.6,852
"2015-01-21 20:45:00",11540,12.98,-24.69,-24.85,77.11,-25.06,77.72,1.719,168,1.639,0.004,176.2,27.02,27.02,0,81.20002,855
"2015-01-21 21:00:00",11541,12.97,-24.69,-24.8,77.09,-25.04,77.67,1.719,169,1.639,0.015,176.2,13.51,13.51,0,82.9,855
"2015-01-21 21:15:00",11542,12.97,-24.69,-24.77,77.25999,-24.9,77.57,1.716,189,1.636,0,176.2,27.02,27.02,0,84.6,854
"2015-01-21 21:30:00",11543,12.97,-24.66,-24.7,76.78,-24.87,77.4,1.716,189,1.637,0,176.2,0,0,0,88,856
"2015-01-21 21:45:00",11544,12.97,-24.66,-24.65,77,-24.82,77.38,1.716,189,1.637,0,176.2,-13.51,-13.51,0,89,853
"2015-01-21 22:00:00",11545,12.97,-24.63,-24.58,76.83,-24.85,77.47999,1.716,187,1.637,0,176.2,-20.26,-20.26,0,90.70002,874
"2015-01-21 22:15:00",11546,12.96,-24.63,-24.58,77.04,-24.78,77.52,1.718,168,1.639,0.008,176.2,-23.64,-23.64,0,90.1,851
"2015-01-21 22:30:00",11547,12.96,-24.6,-24.44,76.9,-24.65,77.45,1.715,187,1.636,0.085,176.2,-40.53,-40.53,0,92.1,854
"2015-01-21 22:45:00",11548,12.96,-24.6,-24.58,77.21,-24.72,77.79,1.716,184,1.637,0.057,176.2,-70.92,-70.92,0,90.70002,856
"2015-01-21 23:00:00",11549,12.96,-24.56,-24.75,77.68999,-24.82,78.34,1.715,172,1.635,0.151,176.2,-111.5,-111.5,0,78.41,870
"2015-01-21 23:15:00",11550,12.96,-24.6,-24.7,77.33,-24.83,77.86999,1.714,188,1.635,0.57,176.2,-84.4,-84.4,0,83.6,853
"2015-01-21 23:30:00",11551,12.96,-24.6,-24.78,77.11,-24.92,77.65,1.714,189,1.634,0.95800,176.2,-67.54999,-67.54999,0,96.9,849
"2015-01-21 23:45:00",11552,12.96,-24.63,-24.85,77.28,-24.92,77.86,1.714,188,1.634,0.868,176.2,-54.04,-54.04,0,86.3,853
"2015-01-22 00:00:00",11553,12.95,-24.63,-24.85,77.18,-24.92,77.79,1.714,188,1.634,0.506,176.2,-47.28,-47.28,0,85.3,853
