"TOA5","UM_Lab","CR1000","54800","CR1000.Std.25","CPU:Met_station_20140922.CR1","46375","Table1"
"TIMESTAMP","RECORD","BattV","PTemp_C","AirTC_1","RH_1","AirTC_2","RH_2","DT","Q","TCDT","WS_ms","WindDir","NR_Wm2","CNR_Wm2","Rain_mm_Tot","Ducer_1","Ducer_2"
"TS","RN","V","Deg C","Deg C","%","Deg C","%","m","","m","m/s","degrees","W/m^2","W/m^2","mm","V","V"
"","","Smp","Smp","Smp","Smp","Smp","Smp","Smp","Smp","Smp","Smp","Smp","Smp","Smp","Tot","Smp","Smp"
"2015-03-10 00:15:00",16066,13.32,-28.57,-31.6,71.47,-31.57,72.01,1.694,176,1.593,4.765,78.66,-527.2,-527.2,0,109.2,829
"2015-03-10 00:30:00",16067,13.3,-28.8,-32.01,71.47,-32.01,72.15,1.7,184,1.597,4.965,79.22,-513.7,-513.7,0,115.4,830
"2015-03-10 00:45:00",16068,13.29,-29.02,-31.53,72.71,-31.47,73.39,1.695,188,1.594,4.738,76.17,-513.7,-513.7,0,114.7,831
"2015-03-10 01:00:00",16069,13.28,-29.22,-31.6,72.61,-31.67,73.47,1.695,185,1.594,4.853,77.88,-493.4,-493.4,0,114.8,828
"2015-03-10 01:15:00",16070,13.27,-29.33,-31.46,72.28,-31.19,73.34,1.695,188,1.594,3.968,84.3,-506.9,-506.9,0,111.4,850
"2015-03-10 01:30:00",16071,13.26,-29.41,-32.56,71.18,-32.49,71.9,1.699,188,1.595,4.163,67.17,-479.9,-479.9,0,109.3,827
"2015-03-10 01:45:00",16072,13.25,-29.61,-31.12,72.86,-30.99,73.88,1.695,188,1.596,4.773,81.9,-523.9,-523.9,0,128.9,824
"2015-03-10 02:00:00",16073,13.24,-29.72,-32.11,70.91,-32.08,71.29,1.699,188,1.596,4.501,74.04999,-473.3,-473.3,0,118.9,848
"2015-03-10 02:15:00",16074,13.23,-29.88,-32.49,71.93999,-32.35,72.93,1.7,188,1.596,4.364,75.02,-476.7,-476.7,0,113.4,834
"2015-03-10 02:30:00",16075,13.23,-30.12,-31.94,72.21,-31.67,72.99,1.698,189,1.596,3.85,73.01,-398.9,-398.9,0,114.1,830
"2015-03-10 02:45:00",16076,13.22,-30.2,-31.94,71.42,-31.74,72.07,1.698,188,1.596,4.011,74.25,-412.5,-412.5,0,116.2,827
"2015-03-10 03:00:00",16077,13.21,-30.28,-31.67,72,-31.19,73.03,1.697,189,1.596,3.761,77.57,-486.8,-486.8,0,118.2,827
"2015-03-10 03:15:00",16078,13.21,-30.32,-31.87,71.29,-31.43,71.97,1.697,189,1.595,3.708,64.67,-466.5,-466.5,0,113.1,829
"2015-03-10 03:30:00",16079,13.19,-30.4,-32.49,71.11999,-32.28,71.7,1.7,189,1.596,4.302,71.27,-473.3,-473.3,0,116.9,830
"2015-03-10 03:45:00",16080,13.19,-30.56,-32.69,71.63,-32.35,72.86,1.699,189,1.594,4.026,72.53,-486.8,-486.8,0,110.3,827
"2015-03-10 04:00:00",16081,13.18,-30.72,-32.42,71.84,-31.81,73.17,1.7,188,1.596,3.743,78.35,-473.3,-473.3,0,118.9,827
"2015-03-10 04:15:00",16082,13.18,-30.81,-32.83,71.74,-32.62,72.72999,1.7,188,1.595,4.399,79.75999,-466.5,-466.5,0,110,830
"2015-03-10 04:30:00",16083,13.18,-30.97,-31.87,72.09,-31.8,73.01,1.693,170,1.591,4.949,81.3,-469.9,-469.9,0,115.8,831
"2015-03-10 04:45:00",16084,13.17,-30.97,-32.01,71.14,-31.87,71.86,1.688,201,1.586,4.715,84.8,-392.2,-392.2,0,119.3,825
"2015-03-10 05:00:00",16085,13.17,-30.97,-31.46,72.61,-31.39,73.43,1.689,209,1.589,4.346,83.1,-192.7,-192.7,0,112.7,830
"2015-03-10 05:15:00",16086,13.16,-30.93,-30.44,73.02,-30.51,73.63,1.682,189,1.586,3.927,81.4,77.75999,77.75999,0,115.8,828
"2015-03-10 05:30:00",16087,13.16,-30.76,-29.65,73.18,-29.69,73.97,1.679,173,1.585,3.348,86.5,81.1,81.1,0,111.7,827
"2015-03-10 05:45:00",16088,13.15,-30.56,-29.62,72.86999,-29.69,73.49,1.672,200,1.579,4.211,85.4,-273.8,-273.8,0,101.8,847
"2015-03-10 06:00:00",16089,13.15,-30.4,-30.71,71.5,-30.71,72.04999,1.676,196,1.579,3.636,86.3,-398.9,-398.9,0,108.6,826
"2015-03-10 06:15:00",16090,13.14,-30.4,-31.33,71.83,-31.19,72.59,1.678,202,1.579,3.767,82,-497,-497,0,113.4,829
"2015-03-10 06:30:00",16091,13.14,-30.44,-31.16,70.97999,-30.99,71.56,1.677,201,1.578,4.316,84.1,-500.4,-500.4,0,114.5,828
"2015-03-10 06:45:00",16092,13.14,-30.52,-32.15,71.36,-32.01,72.31,1.678,211,1.576,3.724,77.79,-513.9,-513.9,0,109,849
"2015-03-10 07:00:00",16093,13.13,-30.64,-32.01,70.99,-31.87,71.43,1.681,197,1.579,3.981,76.50999,-500.4,-500.4,0,111.4,829
"2015-03-10 07:15:00",16094,13.13,-30.76,-32.9,70.51,-32.66,71.16,1.685,203,1.58,4.165,76.22,-493.6,-493.6,0,109.7,826
"2015-03-10 07:30:00",16095,13.11,-30.97,-32.35,71.51,-31.91,72.18999,1.681,218,1.578,3.824,81.9,-517.3,-517.3,0,115.1,829
"2015-03-10 07:45:00",16096,13.09,-31.14,-32.49,73.32,-32.21,74.59,1.683,194,1.58,4.04,81.9,-524,-524,0,116.2,829
"2015-03-10 08:00:00",16097,13.09,-31.26,-32.01,72.17,-31.67,72.88,1.681,202,1.579,3.692,80.3,-520.6,-520.6,0,113.1,828
"2015-03-10 08:15:00",16098,13.12,-31.35,-33.58,70.49,-33.48,71.17,1.683,241,1.576,4.11,76.58,-503.8,-503.8,0,115.5,824
"2015-03-10 08:30:00",16099,13.38,-31.51,-33.58,70.56,-33.44,71.24,1.688,182,1.581,4.402,81.5,-503.8,-503.8,0,125.1,828
"2015-03-10 08:45:00",16100,13.37,-31.56,-33.1,71.45,-32.9,72.4,1.686,188,1.581,4.03,81.9,-514,-514,0,121,826
"2015-03-10 09:00:00",16101,13.92,-31.6,-33.58,69.4,-33.51,69.81,1.682,245,1.575,4.144,84.1,-459.9,-459.9,0,118.2,827
"2015-03-10 09:15:00",16102,14.6,-31.64,-33.58,69.81,-33.51,70.42,1.689,174,1.582,4.321,83.20002,-473.5,-473.5,0,120.3,832
"2015-03-10 09:30:00",16103,14.6,-31.72,-33.17,71.96,-33.03,72.75,1.686,177,1.58,3.784,91.6,-493.8,-493.8,0,116.5,849
"2015-03-10 09:45:00",16104,14.61,-31.68,-32.52,70.56,-32.35,71.17,1.684,215,1.581,4.382,88.6,-483.6,-483.6,0,114.8,828
"2015-03-10 10:00:00",16105,14.61,-31.51,-32.49,70.56,-32.28,71.24,1.686,199,1.583,3.763,93.8,-439.6,-439.6,0,115.1,849
"2015-03-10 10:15:00",16106,14.6,-31.3,-32.08,71.11,-32.01,71.72,1.685,176,1.583,4.232,81.70002,-392.3,-392.3,0,109,827
"2015-03-10 10:30:00",16107,14.6,-31.05,-32.76,70.08,-32.93,70.7,1.684,191,1.58,4.271,77.11,-270.5,-270.5,0,109,828
"2015-03-10 10:45:00",16108,14.61,-30.72,-31.8,69.97999,-31.87,70.9,1.686,190,1.585,3.924,83.8,-307.7,-307.7,0,116.2,828
"2015-03-10 11:00:00",16109,14.6,-30.24,-31.6,68.84,-31.6,69.93,1.682,187,1.582,4.235,79.81,-382,-382,0,104.9,829
"2015-03-10 11:15:00",16110,14.61,-29.84,-31.4,69.85,-31.46,71.08,1.683,170,1.583,4.092,78.04999,-307.6,-307.6,0,105.2,829
"2015-03-10 11:30:00",16111,14.61,-29.49,-30.51,69.24,-30.51,70.95,1.68,184,1.583,3.87,89.4,-311,-311,0,100.8,827
"2015-03-10 11:45:00",16112,14.61,-29.1,-30.75,69.27,-30.78,70.74,1.682,169,1.585,4.149,98,-267.1,-267.1,0,106.6,828
"2015-03-10 12:00:00",16113,14.61,-28.8,-31.09,68.47999,-31.06,69.58,1.683,177,1.584,3.624,90.8,-233.2,-233.2,0,108.6,828
"2015-03-10 12:15:00",16114,14.6,-28.53,-30.03,69.84,-30.1,71.31,1.679,194,1.584,4.302,105.1,-334.6,-334.6,0,110.6,831
"2015-03-10 12:30:00",16115,14.61,-28.31,-29.49,68.6,-29.62,70.1,1.678,189,1.585,5.411,117.9,-240,-242.1,0,103.8,828
"2015-03-10 12:45:00",16116,14.61,-28.12,-29.49,68.11999,-29.62,70.04,1.681,176,1.588,4.767,125.9,-189.3,-189.3,0,100.3,827
"2015-03-10 13:00:00",16117,14.61,-27.98,-29.97,68.18999,-30.1,69.83,1.685,193,1.59,5.128,107.4,-280.5,-281.3,0,101,826
"2015-03-10 13:15:00",16118,14.61,-27.9,-29.08,68.4,-29.22,70.17,1.68,178,1.588,5.359,120,-165.6,-166.9,0,98.3,826
"2015-03-10 13:30:00",16119,14.61,-27.79,-29.08,67.82,-29.22,69.61999,1.681,187,1.589,5.914,119.5,-141.9,-144.7,0,99,850
"2015-03-10 13:45:00",16120,14.6,-27.69,-29.01,67.71,-29.22,69.76,1.679,189,1.587,6.075,118.3,-212.9,-217.8,0,105.5,825
"2015-03-10 14:00:00",16121,14.6,-27.61,-28.94,67.92,-29.15,69.9,1.671,191,1.58,6.068,114.1,-226.4,-231.6,0,103.8,828
"2015-03-10 14:15:00",16122,14.61,-27.54,-28.74,67.92,-28.94,69.9,1.668,191,1.578,5.717,110.7,-158.8,-161.3,0,98.6,825
"2015-03-10 14:30:00",16123,14.61,-27.47,-28.67,67.24,-28.84,69.28,1.667,185,1.577,5.587,115.4,-212.9,-215.5,0,97.9,825
"2015-03-10 14:45:00",16124,14.61,-27.43,-28.87,67.71,-28.94,69.66,1.655,191,1.565,6.43,111.3,-226.4,-233.3,0,101,828
"2015-03-10 15:00:00",16125,14.61,-27.43,-28.81,67.92,-28.94,69.83,1.658,190,1.568,6.431,118.7,-212.9,-219.4,0,104.5,830
"2015-03-10 15:15:00",16126,14.61,-27.43,-28.87,67.92,-29.01,69.97,1.673,190,1.582,6.204,109.4,-223,-228.7,0,101.7,830
"2015-03-10 15:30:00",16127,14.61,-27.4,-28.77,68.04999,-28.94,70.03,1.68,203,1.589,5.938,115.2,-266.9,-272.3,0,102.4,826
"2015-03-10 15:45:00",16128,14.61,-27.36,-28.87,67.85,-29.01,69.83,1.681,174,1.59,5.607,107.4,-256.8,-260.1,0,103.1,825
"2015-03-10 16:00:00",16129,14.61,-27.36,-28.98,67.78,-29.15,69.76,1.684,193,1.592,6.199,114.7,-297.3,-304.9,0,105.8,830
"2015-03-10 16:15:00",16130,14.61,-27.36,-29.08,67.71,-29.18,69.76,1.685,189,1.593,6.345,110.7,-233.1,-239.8,0,96.20002,827
"2015-03-10 16:30:00",16131,14.61,-27.4,-29.35,67.51,-29.42,69.49,1.689,185,1.596,6.12,119.3,-334.5,-342.5,0,97.9,827
"2015-03-10 16:45:00",16132,14.61,-27.43,-29.56,68.11999,-29.66,69.9,1.688,168,1.594,5.953,114.2,-263.6,-268.9,0,99.70002,827
"2015-03-10 17:00:00",16133,14.61,-27.5,-29.56,68.04999,-29.62,69.9,1.689,188,1.595,6.116,116.7,-368.3,-377.1,0,106.8,851
"2015-03-10 17:15:00",16134,14.61,-27.54,-29.76,68.18999,-29.8,69.83,1.689,187,1.594,6.12,109.3,-354.8,-363.3,0,106.5,848
"2015-03-10 17:30:00",16135,14.61,-27.61,-29.76,67.65,-29.83,69.28,1.691,184,1.596,6.362,109.9,-429.2,-441.6,0,110.6,824
"2015-03-10 17:45:00",16136,14.61,-27.69,-30.1,68.04999,-30.1,69.56,1.691,185,1.595,6.351,105.8,-442.7,-455.4,0,109.9,826
"2015-03-10 18:00:00",16137,14.61,-27.79,-30.03,68.43,-30.1,69.68999,1.69,188,1.594,7.436,117.9,-503.6,-529.7,0,122.9,828
"2015-03-10 18:15:00",16138,14.6,-27.9,-30.24,68.6,-30.24,69.76,1.691,189,1.595,7.81400,113.8,-554.3,-587.5,0,104.8,828
"2015-03-10 18:30:00",16139,14.6,-28.01,-30.48,68.74,-30.51,69.97,1.691,185,1.594,7.58500,110.9,-594.8,-627.5,0,104.1,826
"2015-03-10 18:45:00",16140,14.6,-28.2,-30.85,69.01,-30.78,69.93,1.692,185,1.594,7.475,110.4,-615.1,-647.5,0,102.4,824
"2015-03-10 19:00:00",16141,14.26,-28.38,-30.92,69.35,-30.85,70.31,1.692,189,1.593,7.557,115.1,-635.4,-670,0,102.7,827
"2015-03-10 19:15:00",16142,14.13,-28.61,-31.19,68.46,-31.19,69.35,1.694,189,1.594,7.78,112.1,-615.1,-651.5,0,110.6,849
"2015-03-10 19:30:00",16143,14.04,-28.84,-31.36,68.4,-31.4,69.36,1.694,188,1.594,7.93900,114.6,-625.2,-664.3,0,116.4,826
"2015-03-10 19:45:00",16144,14.01,-29.02,-31.33,68.99,-31.4,69.84,1.694,188,1.594,8.51,118.2,-628.6,-675.5,0,101.4,827
"2015-03-10 20:00:00",16145,13.97,-29.18,-31.36,68.96,-31.33,69.71,1.694,189,1.594,8.46,115.2,-615.1,-660.4,0,113,845
"2015-03-10 20:15:00",16146,13.93,-29.33,-31.43,68.9,-31.46,69.58,1.695,189,1.595,8.55,115.7,-601.6,-647.1,0,103.1,825
"2015-03-10 20:30:00",16147,13.89,-29.49,-31.6,68.9,-31.67,69.68,1.695,188,1.594,8.3,119.1,-615.1,-658.3,0,100.4,825
"2015-03-10 20:45:00",16148,13.85,-29.64,-32.08,68.18,-32.08,68.76,1.697,185,1.594,8.15,110.8,-595,-634.9,0,108,828
"2015-03-10 21:00:00",16149,13.82,-29.8,-31.81,68.42,-31.87,69.17,1.696,189,1.594,7.90200,118.8,-591.6,-628.2,0,112.7,829
"2015-03-10 21:15:00",16150,13.78,-30,-31.74,69.03,-31.81,69.72,1.693,188,1.592,7.767,113.8,-598.4,-633.6,0,113.4,830
"2015-03-10 21:30:00",16151,13.74,-30.08,-31.74,68.32,-31.74,68.83,1.696,185,1.594,7.45500,112.9,-568,-597.6,0,109.7,829
"2015-03-10 21:45:00",16152,13.72,-30.2,-31.81,68.79,-31.87,69.38,1.696,184,1.594,7.009,113.8,-584.9,-609.9,0,110.3,827
"2015-03-10 22:00:00",16153,13.68,-30.28,-31.81,68.35,-31.81,68.68999,1.696,185,1.594,6.647,107.5,-547.7,-566.9,0,116.5,833
"2015-03-10 22:15:00",16154,13.65,-30.36,-32.08,67.86999,-32.01,68.08,1.697,188,1.594,6.283,92.6,-500.4,-514,0,109.3,828
"2015-03-10 22:30:00",16155,13.62,-30.48,-31.94,67.67,-31.94,68.08,1.698,189,1.596,5.024,90.20002,-449.6,-449.9,0,115.1,828
"2015-03-10 22:45:00",16156,13.59,-30.56,-32.97,66.68,-33.03,67.06,1.701,185,1.595,4.716,81.1,-358.4,-358.4,0,109.3,834
"2015-03-10 23:00:00",16157,13.57,-30.68,-32.01,66.45,-32.01,66.38,1.699,188,1.596,4.859,89.5,-277.2,-277.2,0,114.5,828
"2015-03-10 23:15:00",16158,13.54,-30.72,-31.6,67.75,-31.63,68.02,1.696,189,1.595,5.524,88.9,-277.2,-280.3,0,105.9,850
"2015-03-10 23:30:00",16159,13.51,-30.76,-32.49,66.96,-32.56,67.06,1.698,189,1.594,6.234,92.4,-419.2,-430.2,0,111.7,827
"2015-03-10 23:45:00",16160,13.49,-30.89,-32.69,67.13,-32.76,67.34,1.7,188,1.595,5.785,87.5,-486.8,-495,0,116.2,826
"2015-03-11 00:00:00",16161,13.46,-31.05,-33.31,66.76,-33.41,66.93,1.702,188,1.595,5.84,80.1,-500.4,-509.3,0,112.7,827
