"TOA5","UM_Lab","CR1000","54800","CR1000.Std.25","CPU:Met_station_20140922.CR1","46375","Table1"
"TIMESTAMP","RECORD","BattV","PTemp_C","AirTC_1","RH_1","AirTC_2","RH_2","DT","Q","TCDT","WS_ms","WindDir","NR_Wm2","CNR_Wm2","Rain_mm_Tot","Ducer_1","Ducer_2"
"TS","RN","V","Deg C","Deg C","%","Deg C","%","m","","m","m/s","degrees","W/m^2","W/m^2","mm","V","V"
"","","Smp","Smp","Smp","Smp","Smp","Smp","Smp","Smp","Smp","Smp","Smp","Smp","Smp","Tot","Smp","Smp"
"2014-12-15 00:15:00",7906,12.96,-17.62,-14.42,85.1,-14.49,82.4,1.73,216,1.684,5.336,107.8,-101.2,-101.9,0,62.59,872
"2014-12-15 00:30:00",7907,12.96,-17.35,-14.42,84.9,-14.49,82.4,1.728,203,1.682,5.122,107.9,-148.5,-148.8,0,59.51,868
"2014-12-15 00:45:00",7908,12.96,-17.12,-14.46,85.20002,-14.53,83.3,1.73,204,1.684,4.383,106,-97.8,-97.8,0,78.66,869
"2014-12-15 01:00:00",7909,12.96,-16.91,-14.02,85.9,-14.02,84,1.728,199,1.683,4.756,109.8,-87.70002,-87.70002,0,56.77,868
"2014-12-15 01:15:00",7910,12.96,-16.7,-13.68,86,-13.74,84.1,4.176,305,4.07,5.251,103.9,-107.9,-108.5,0,52.67,871
"2014-12-15 01:30:00",7911,12.97,-16.47,-13.42,86.20002,-13.49,84.5,1.72,174,1.677,5.191,114.7,-60.72,-60.96,0,59.85,889
"2014-12-15 01:45:00",7912,12.97,-16.24,-13.17,86.6,-13.24,85.1,1.722,198,1.68,5.131,110.7,-138.3,-138.7,0,58.48,872
"2014-12-15 02:00:00",7913,12.97,-15.98,-13.1,86.5,-13.13,84.5,1.722,193,1.68,5.154,110.4,-111.3,-111.7,0,54.72,891
"2014-12-15 02:15:00",7914,12.97,-15.77,-12.66,86.70002,-12.79,83.9,1.722,196,1.682,5.237,114.2,-50.59,-50.85,0,64.3,871
"2014-12-15 02:30:00",7915,12.97,-15.55,-12.25,87,-12.39,84.6,1.72,181,1.681,4.932,116.9,-50.59,-50.59,0,58.14,873
"2014-12-15 02:45:00",7916,12.98,-15.29,-12.13,87.4,-12.27,85.5,1.715,206,1.676,5.121,115.8,-118,-118.4,0,57.46,873
"2014-12-15 03:00:00",7917,12.98,-15.04,-11.71,87.9,-11.77,86.8,1.696,210,1.659,5.153,124.4,-70.83,-71.06,0,51.98,871
"2014-12-15 03:15:00",7918,12.98,-14.79,-11.62,87.6,-11.66,85.9,1.701,307,1.664,5.177,120.9,-161.9,-162.5,0,56.07,868
"2014-12-15 03:30:00",7919,12.98,-14.55,-11.95,87.3,-12.05,85.9,1.689,195,1.652,5.769,125,-114.7,-116.5,0,48.21,893
"2014-12-15 03:45:00",7920,12.99,-14.37,-11.95,87.5,-12.05,86.6,1.689,241,1.652,5.321,123,-101.2,-101.9,0,50.94,873
"2014-12-15 04:00:00",7921,12.99,-14.22,-11.42,88.3,-11.49,87.5,1.695,264,1.659,5.264,139.1,-114.6,-115.3,0,60.51,871
"2014-12-15 04:15:00",7922,12.99,-14.03,-11.41,88.1,-11.51,87.8,1.694,207,1.658,5.382,135.5,-222.5,-224.3,0,58.11,874
"2014-12-15 04:30:00",7923,12.99,-13.86,-11.51,87.8,-11.58,87.3,1.698,199,1.662,5.284,126.7,-236,-237.4,0,55.37,873
"2014-12-15 04:45:00",7924,12.99,-13.73,-11.05,88.4,-11.12,87.5,1.689,304,1.654,5.487,122.9,-101.1,-102.2,0,51.26,893
"2014-12-15 05:00:00",7925,12.99,-13.54,-11.1,88.1,-11.17,87.1,1.694,194,1.659,5.704,117.6,-195.6,-198.5,0,54,872
"2014-12-15 05:15:00",7926,13,-13.37,-11.41,87.9,-11.44,87.1,1.693,187,1.657,5.181,111.8,-188.8,-189.5,0,54.34,869
"2014-12-15 05:30:00",7927,13,-13.3,-11.53,87.70002,-11.59,86.8,1.696,197,1.66,4.503,106.4,-168.6,-168.6,0,57.07,871
"2014-12-15 05:45:00",7928,13,-13.18,-11.07,88.5,-11.17,87.6,1.695,213,1.66,4.368,112.1,-26.97,-26.97,0,52.97,875
"2014-12-15 06:00:00",7929,13,-13.05,-10.76,88.70002,-10.9,87.8,1.699,213,1.665,4.285,109.2,-37.09,-37.09,0,48.87,875
"2014-12-15 06:15:00",7930,13.01,-12.91,-10.52,89,-10.62,88.3,1.698,205,1.665,4.345,109.5,3.371,3.371,0,57.76,874
"2014-12-15 06:30:00",7931,13.01,-12.74,-10.49,88.9,-10.56,88.20002,1.697,197,1.664,3.877,112.7,-30.34,-30.34,0,54,870
"2014-12-15 06:45:00",7932,13.01,-12.6,-10.36,89.1,-10.49,88.4,1.698,201,1.665,3.741,105.8,-50.57,-50.57,0,54.34,874
"2014-12-15 07:00:00",7933,13,-12.46,-10.22,89.20002,-10.29,88.1,1.697,205,1.665,3.788,107.5,6.74300,6.74300,0,48.87,874
"2014-12-15 07:15:00",7934,13,-12.29,-10.02,89.4,-10.12,89.1,1.697,198,1.666,3.24,110,-10.11,-10.11,0,45.45,873
"2014-12-15 07:30:00",7935,13.01,-12.15,-9.82,89.6,-9.95,89.3,1.697,193,1.666,3.422,110.7,-3.371,-3.371,0,49.21,873
"2014-12-15 07:45:00",7936,13.01,-11.98,-9.92,89.5,-10.02,89,1.697,197,1.666,3.477,110.8,-70.78,-70.78,0,44.09,870
"2014-12-15 08:00:00",7937,13.01,-11.84,-9.71,89.70002,-9.85000,89.3,1.695,198,1.665,3.558,113.6,-10.11,-10.11,0,44.77,875
"2014-12-15 08:15:00",7938,13.01,-11.7,-9.77000,89.5,-9.83,89.1,1.695,210,1.664,3.253,121.1,-60.67,-60.67,0,52.63,870
"2014-12-15 08:30:00",7939,13.01,-11.58,-9.65,89.8,-9.82,89.6,1.697,200,1.667,3.557,120.9,-3.37,-3.37,0,55.37,876
"2014-12-15 08:45:00",7940,13.02,-11.46,-9.61,89.70002,-9.68000,89.4,1.698,204,1.668,3.659,117.4,-87.6,-87.6,0,56.05,873
"2014-12-15 09:00:00",7941,13.02,-11.35,-9.73000,89.70002,-9.9,89.3,1.696,194,1.666,3.502,109.8,-94.4,-94.4,0,52.97,875
"2014-12-15 09:15:00",7942,13.02,-11.25,-9.24,90.3,-9.31000,89.70002,4.194,354,4.122,3.978,115.5,-37.07,-37.07,0,47.16,871
"2014-12-15 09:30:00",7943,13.02,-11.11,-9.27000,90,-9.34,89.4,1.676,336,1.647,3.97,114.5,-16.85,-16.85,0,50.92,873
"2014-12-15 09:45:00",7944,13.02,-11,-9.14000,90.20002,-9.28,89.6,1.683,205,1.655,3.938,113.4,-37.07,-37.07,0,52.29,869
"2014-12-15 10:00:00",7945,13.02,-10.88,-8.92,90.5,-9.06000,89.70002,1.685,197,1.657,4.142,111.4,10.11,10.11,0,45.11,875
"2014-12-15 10:15:00",7946,13.02,-10.74,-8.94000,90,-9.04,89.1,1.677,228,1.649,4.384,114,-70.78,-70.78,0,45.45,869
"2014-12-15 10:30:00",7947,13.02,-10.63,-9.01,90,-9.14000,88.9,1.688,199,1.66,4.753,117.9,-94.4,-94.4,0,43.75,874
"2014-12-15 10:45:00",7948,13.03,-10.54,-9.09,90,-9.16,89.20002,1.675,198,1.647,5.308,112,-107.8,-108.6,0,49.56,870
"2014-12-15 11:00:00",7949,13.03,-10.44,-9.11,89.70002,-9.21,88.5,1.689,208,1.661,5.294,114.3,-121.3,-122.1,0,48.19,874
"2014-12-15 11:15:00",7950,13.02,-10.35,-8.60000,90.8,-8.77000,90.20002,1.691,237,1.664,4.969,116,-37.07,-37.07,0,43.4,873
"2014-12-15 11:30:00",7951,13,-10.26,-8.63,90.4,-8.81000,89.6,1.694,198,1.667,5.028,114.3,-141.5,-141.6,0,53.65,868
"2014-12-15 11:45:00",7952,13,-10.14,-8.74,90.1,-8.81000,88.8,1.693,217,1.666,5.207,111.1,-114.6,-115.1,0,40.66,874
"2014-12-15 12:00:00",7953,12.99,-10.07,-8.46,90.4,-8.57,88.9,1.694,198,1.668,5.528,113.3,-23.59,-23.85,0,51.59,870
"2014-12-15 12:15:00",7954,12.99,-9.96,-8.33,90.70002,-8.43000,89.70002,1.695,177,1.669,5.559,113.7,-16.85,-17.05,0,48.86,876
"2014-12-15 12:30:00",7955,12.99,-9.85000,-8.02000,91,-8.23000,90.5,1.66,247,1.635,5.85,121.9,3.369,3.43,0,47.49,872
"2014-12-15 12:45:00",7956,13,-9.71,-8.02000,90.8,-8.16,90.20002,4.213,364,4.151,5.505,104.5,-50.54,-51.08,0,47.83,872
"2014-12-15 13:00:00",7957,13,-9.60000,-7.784,92,-7.886,92,1.679,249,1.655,4.543,122.1,-23.59,-23.59,0,46.46,870
"2014-12-15 13:15:00",7958,13,-9.46,-7.41,91.8,-7.51200,91.70002,1.668,203,1.645,4.982,130.7,-23.59,-23.59,0,44.07,871
"2014-12-15 13:30:00",7959,13,-9.28,-7.34200,91.9,-7.444,91.8,1.662,198,1.64,5.661,142.1,-23.59,-23.92,0,48.5,871
"2014-12-15 13:45:00",7960,13.01,-9.10000,-7.274,91.9,-7.37600,92.1,1.664,201,1.642,6.214,142.8,-6.739,-6.913,0,45.08,868
"2014-12-15 14:00:00",7961,13,-8.96,-7.34200,91.70002,-7.37600,91.70002,1.641,204,1.619,6.399,127.9,-37.06,-38.17,0,43.37,874
"2014-12-15 14:15:00",7962,13,-8.82,-7.34200,91.8,-7.37600,91.6,1.669,182,1.646,6.566,133.1,-64.02,-66.15,0,45.77,892
"2014-12-15 14:30:00",7963,13,-8.71,-7.34200,91.70002,-7.41,91.6,1.671,218,1.648,5.848,127.8,-67.38,-68.6,0,47.47,873
"2014-12-15 14:45:00",7964,13,-8.62,-7.155,91.9,-7.291,91.5,4.207,390,4.152,6.27,127.6,-80.9,-83,0,42.01,875
"2014-12-15 15:00:00",7965,13,-8.53,-7.069,91.8,-7.17200,91.5,1.694,291,1.672,6.533,134.8,-70.75,-73.06,0,44.06,873
"2014-12-15 15:15:00",7966,13,-8.42,-7.07,91.6,-7.17200,91,1.637,192,1.616,5.919,131.1,-70.75,-72.13,0,39.96,890
"2014-12-15 15:30:00",7967,13.02,-8.33,-6.936,92.5,-7.10600,92.6,1.643,182,1.622,5.438,135.2,-57.27,-57.8,0,45.42,870
"2014-12-15 15:45:00",7968,13.03,-8.22,-14.1,78.38,-14.31,78.58,1.671,191,1.627,3.501,303,23.58,23.58,0,61.48,871
"2014-12-15 16:00:00",7969,13.04,-8.8,-16.57,84.70002,-16.84,85.9,1.675,192,1.623,4.659,306.8,80.9,80.9,0,59.77,890
"2014-12-15 16:15:00",7970,13.04,-9.85000,-17.04,83,-17.21,83.3,1.677,191,1.624,4.974,321.6,87.6,87.6,0,72.4,871
"2014-12-15 16:30:00",7971,13.03,-10.79,-17.65,83.6,-17.96,84.3,1.681,192,1.626,5.428,325.8,80.9,81.6,0,62.52,875
"2014-12-15 16:45:00",7972,13.03,-11.63,-17.86,83,-18.13,83.70002,1.676,226,1.62,5.293,335.9,57.29,57.65,0,66.98,891
"2014-12-15 17:00:00",7973,13.04,-12.34,-18.04,83,-18.24,83.5,1.68,191,1.624,5.409,326.2,57.3,57.8,0,75.53,873
"2014-12-15 17:15:00",7974,13.04,-12.96,-18.21,82.4,-18.38,82.70002,1.684,173,1.627,5.947,335.9,74.15,75.65,0,72.11,872
"2014-12-15 17:30:00",7975,13.03,-13.47,-18.32,82.4,-18.56,83,1.684,192,1.627,6.273,334.4,40.46,41.55,0,77.24,870
"2014-12-15 17:45:00",7976,13.04,-13.9,-18.32,82.4,-18.53,82.9,1.686,197,1.628,6.562,333.8,16.86,17.42,0,75.18999,871
"2014-12-15 18:00:00",7977,13.03,-14.3,-18.46,82.4,-18.59,83,1.639,195,1.583,6.781,330.2,26.97,28,0,82.4,873
"2014-12-15 18:15:00",7978,13.03,-14.64,-18.39,82.5,-18.56,83.1,1.68,234,1.622,6.604,340,23.6,24.41,0,75.21,877
"2014-12-15 18:30:00",7979,13.03,-14.92,-18.25,82.8,-18.46,83.5,1.642,198,1.586,5.877,330.2,6.74400,6.87,0,75.21,873
"2014-12-15 18:45:00",7980,13.03,-15.14,-18.18,82.9,-18.32,83.5,1.638,221,1.583,5.322,337.1,-3.373,-3.396,0,77.61,871
"2014-12-15 19:00:00",7981,13.03,-15.32,-18.21,82.6,-18.32,83.1,1.644,197,1.588,5.083,338.5,-16.86,-16.89,0,72.49,872
"2014-12-15 19:15:00",7982,13.03,-15.49,-18.18,82.70002,-18.35,83.4,1.645,204,1.589,3.978,319.9,-16.86,-16.86,0,73.86999,874
"2014-12-15 19:30:00",7983,13.02,-15.65,-18.19,82.70002,-18.36,83.3,1.643,226,1.587,3.434,335.4,-50.59,-50.59,0,71.82,871
"2014-12-15 19:45:00",7984,13.02,-15.77,-18.09,82.70002,-18.33,83.20002,1.642,229,1.587,3.174,341,-33.73,-33.73,0,72.5,870
"2014-12-15 20:00:00",7985,13.02,-15.9,-18.18,82.70002,-18.31,83.3,1.646,202,1.59,2.57,340.2,-57.34,-57.34,0,74.21,878
"2014-12-15 20:15:00",7986,13.02,-16,-18.01,82.9,-18.18,83.4,1.645,196,1.59,2.718,325.7,-37.1,-37.1,0,74.56,868
"2014-12-15 20:30:00",7987,13.02,-16.08,-17.97,82.8,-18.11,83.20002,1.646,201,1.591,2.107,347,-67.45,-67.45,0,76.61,871
"2014-12-15 20:45:00",7988,13.02,-16.18,-18.06,82.8,-18.16,83.3,1.646,210,1.591,1.901,347,-53.96,-53.96,0,72.85,869
"2014-12-15 21:00:00",7989,13.01,-16.26,-17.99,82.8,-18.16,83.5,1.646,206,1.591,1.853,347,-64.08,-64.08,0,70.45,871
"2014-12-15 21:15:00",7990,13.01,-16.34,-17.97,82.8,-18.14,83.4,1.644,199,1.589,1.428,347,-67.45,-67.45,0,71.82,869
"2014-12-15 21:30:00",7991,13.01,-16.39,-17.97,82.70002,-18.11,83.1,1.643,211,1.588,1.578,347,-101.2,-101.2,0,74.21,890
"2014-12-15 21:45:00",7992,13.01,-16.49,-18.19,82.5,-18.3,82.9,1.644,202,1.588,2.029,347,-111.3,-111.3,0,71.82,875
"2014-12-15 22:00:00",7993,13.01,-16.54,-18.09,82.8,-18.3,83.20002,1.644,200,1.589,1.207,347,-84.3,-84.3,0,75.92,871
"2014-12-15 22:15:00",7994,13.01,-16.65,-18.14,82.4,-18.25,82.8,1.644,200,1.588,1.816,347,-107.9,-107.9,0,80.70002,873
"2014-12-15 22:30:00",7995,13.01,-16.73,-18.33,82.20002,-18.5,82.5,1.645,200,1.589,1.759,347,-81,-81,0,73.86999,868
"2014-12-15 22:45:00",7996,13,-16.8,-18.45,82.3,-18.52,82.6,1.645,201,1.588,1.858,347,-87.70002,-87.70002,0,72.85,892
"2014-12-15 23:00:00",7997,13,-16.88,-18.45,82.1,-18.58,82.5,1.645,202,1.588,1.541,347,-118.1,-118.1,0,75.92,869
"2014-12-15 23:15:00",7998,13,-16.99,-18.69,82.3,-18.79,82.8,1.646,201,1.589,1.239,347,-67.47,-67.47,0,71.82,869
"2014-12-15 23:30:00",7999,13,-17.06,-18.6,82.3,-18.77,82.70002,1.646,200,1.589,1.336,347.1,-60.72,-60.72,0,68.4,871
"2014-12-15 23:45:00",8000,13,-17.14,-18.39,82.5,-18.53,82.9,1.645,200,1.589,1.505,347.1,-40.48,-40.48,0,73.86999,870
"2014-12-16 00:00:00",8001,13,-17.25,-18.36,82.5,-18.53,83.1,1.644,200,1.588,1.858,347,-43.85,-43.85,0,80.4,871
