"TOA5","UM_Lab","CR1000","54800","CR1000.Std.25","CPU:Met_station_20140922.CR1","46375","Table1"
"TIMESTAMP","RECORD","BattV","PTemp_C","AirTC_1","RH_1","AirTC_2","RH_2","DT","Q","TCDT","WS_ms","WindDir","NR_Wm2","CNR_Wm2","Rain_mm_Tot","Ducer_1","Ducer_2"
"TS","RN","V","Deg C","Deg C","%","Deg C","%","m","","m","m/s","degrees","W/m^2","W/m^2","mm","V","V"
"","","Smp","Smp","Smp","Smp","Smp","Smp","Smp","Smp","Smp","Smp","Smp","Smp","Smp","Tot","Smp","Smp"
"2014-12-24 00:15:00",8770,12.94,-13.88,-12.79,87.20002,-13.02,87.9,1.721,185,1.68,9.21,134.4,-74.18,-80.8,0,61.52,866
"2014-12-24 00:30:00",8771,12.94,-13.81,-12.7,87.20002,-12.87,88,1.722,186,1.681,9.01,136.2,-64.06,-69.53,0,60.83,870
"2014-12-24 00:45:00",8772,12.94,-13.73,-12.67,87.3,-12.87,88.1,1.721,182,1.681,8.75,139.9,-50.57,-54.61,0,55.37,871
"2014-12-24 01:00:00",8773,12.94,-13.68,-12.67,87.1,-12.8,87.70002,1.724,190,1.684,8.81000,140.8,-70.79999,-76.54,0,57.76,865
"2014-12-24 01:15:00",8774,12.94,-13.61,-12.56,87.20002,-12.74,88,1.722,203,1.682,8.83,142.5,-57.32,-61.99,0,65.62,865
"2014-12-24 01:30:00",8775,12.94,-13.54,-12.48,87.5,-12.62,88.1,1.722,196,1.682,9.06000,137.9,-64.06,-69.59,0,59.81,866
"2014-12-24 01:45:00",8776,12.94,-13.47,-12.46,87.4,-12.53,88,1.721,188,1.681,9.03,140.4,-80.9,-87.9,0,55.02,869
"2014-12-24 02:00:00",8777,12.94,-13.39,-12.46,87.6,-12.6,88.1,1.724,186,1.684,8.5,138.9,-64.06,-68.84,0,55.02,886
"2014-12-24 02:15:00",8778,12.94,-13.34,-12.34,87.4,-12.55,88.1,1.724,181,1.685,8.16,147.3,-50.57,-53.97,0,58.1,865
"2014-12-24 02:30:00",8779,12.95,-13.3,-12.34,87.5,-12.48,88.1,1.725,186,1.686,8.26,142.7,-50.57,-54.09,0,56.39,887
"2014-12-24 02:45:00",8780,12.95,-13.22,-12.34,87.3,-12.55,87.9,1.724,174,1.685,8.49,136.3,-84.3,-90.5,0,56.39,869
"2014-12-24 03:00:00",8781,12.95,-13.15,-12.43,87.3,-12.53,87.9,1.725,175,1.685,8.21,140.2,-74.17,-79.24,0,55.71,870
"2014-12-24 03:15:00",8782,12.95,-13.13,-12.46,87.20002,-12.6,87.8,1.725,188,1.685,7.91300,139.1,-104.5,-111,0,54,869
"2014-12-24 03:30:00",8783,12.95,-13.1,-12.5,87.20002,-12.67,87.9,1.723,193,1.683,7.653,146.1,-134.9,-142.5,0,60.49,864
"2014-12-24 03:45:00",8784,12.95,-13.08,-12.53,87.20002,-12.7,87.9,1.722,186,1.682,8.01,144.2,-209,-222.4,0,56.73,867
"2014-12-24 04:00:00",8785,12.95,-13.08,-12.5,86.9,-12.67,87.4,1.72,189,1.68,7.84900,145.8,-236,-250.3,0,54.68,867
"2014-12-24 04:15:00",8786,12.95,-13.05,-12.67,86.70002,-12.74,87.20002,1.72,185,1.68,7.411,143.8,-225.9,-237.5,0,61.86,864
"2014-12-24 04:30:00",8787,12.95,-13.05,-12.8,86.5,-12.94,86.9,1.721,189,1.68,7.259,137.8,-276.5,-289.8,0,56.05,870
"2014-12-24 04:45:00",8788,12.95,-13.08,-12.87,86.3,-12.94,86.6,1.721,181,1.68,7.333,139.1,-259.6,-272.5,0,58.44,868
"2014-12-24 05:00:00",8789,12.95,-13.08,-12.74,85.9,-12.8,85.8,1.721,177,1.68,7.911,134.2,-242.7,-257.8,0,57.07,866
"2014-12-24 05:15:00",8790,12.95,-13.08,-12.58,86.6,-12.75,86.70002,1.719,183,1.679,8.16,135.9,-188.8,-201.5,0,60.83,864
"2014-12-24 05:30:00",8791,12.95,-13.08,-12.46,86.3,-12.6,86.4,1.719,174,1.679,8.36,142.1,-128.1,-137.3,0,60.49,869
"2014-12-24 05:45:00",8792,12.95,-13.03,-12.53,86.3,-12.7,86.6,1.72,192,1.68,8.32,137.4,-148.3,-158.8,0,57.42,870
"2014-12-24 06:00:00",8793,12.95,-13.01,-12.46,86.6,-12.67,86.70002,1.719,192,1.679,8.49,137.7,-155.1,-166.6,0,57.07,868
"2014-12-24 06:15:00",8794,12.95,-12.96,-12.43,86.70002,-12.53,87,1.665,185,1.627,8.54,132.9,-141.6,-152.3,0,55.02,866
"2014-12-24 06:30:00",8795,12.95,-12.93,-12.23,86.8,-12.46,87.1,1.612,189,1.576,8.68000,134.2,-134.9,-145.4,0,51.61,867
"2014-12-24 06:45:00",8796,12.95,-12.89,-12.19,86.9,-12.33,87.1,1.646,173,1.609,8.60000,140,-114.6,-123.4,0,53.66,887
"2014-12-24 07:00:00",8797,12.95,-12.84,-12.19,87.1,-12.33,87.4,1.658,201,1.621,8.60000,129.5,-111.3,-119.8,0,55.71,883
"2014-12-24 07:15:00",8798,12.95,-12.79,-12.09,87.20002,-12.26,87.5,1.67,188,1.633,8.56000,135.2,-121.4,-130.6,0,53.66,869
"2014-12-24 07:30:00",8799,12.95,-12.74,-11.97,87.4,-12.14,87.8,1.643,174,1.607,8.65,141.6,-74.17,-79.93,0,54.68,885
"2014-12-24 07:45:00",8800,12.96,-12.67,-11.87,87.5,-12.01,87.9,1.658,189,1.622,8.37,133.5,-64.06,-68.66,0,52.97,868
"2014-12-24 08:00:00",8801,12.95,-12.6,-11.72,87.70002,-11.86,88.1,1.664,189,1.628,8.36,135.2,-57.32,-61.42,0,49.56,866
"2014-12-24 08:15:00",8802,12.95,-12.55,-11.67,87.6,-11.87,88.1,1.671,182,1.635,8.38,135.8,-70.79999,-75.89,0,61.18,868
"2014-12-24 08:30:00",8803,12.95,-12.46,-11.62,87.9,-11.79,88.3,1.675,174,1.639,8.35000,128.7,-74.17,-79.46,0,50.58,868
"2014-12-24 08:45:00",8804,12.95,-12.41,-11.59,87.8,-11.72,88.20002,1.669,189,1.633,8.68000,132.4,-64.05,-69.07,0,51.95,871
"2014-12-24 09:00:00",8805,12.95,-12.34,-11.47,88,-11.64,88.4,1.634,174,1.599,8.94000,137.9,-67.42,-73.07,0,55.02,866
"2014-12-24 09:15:00",8806,12.95,-12.27,-11.52,88,-11.59,88.5,1.66,190,1.625,9.2,141.7,-57.3,-62.43,0,49.9,867
"2014-12-24 09:30:00",8807,12.95,-12.22,-11.47,88,-11.6,88.6,1.66,172,1.625,9.17,126.4,-43.82,-47.7,0,60.49,870
"2014-12-24 09:45:00",8808,12.95,-12.17,-11.59,88,-11.79,88.5,1.665,174,1.629,9.26,134.4,-50.56,-55.14,0,57.76,884
"2014-12-24 10:00:00",8809,12.96,-12.15,-11.59,88,-11.79,88.5,1.672,169,1.636,8.84,129.7,-37.08,-40.11,0,57.07,867
"2014-12-24 10:15:00",8810,12.96,-12.12,-11.65,88.20002,-11.79,88.6,1.676,187,1.64,8.26,119.6,-26.96,-28.84,0,59.13,864
"2014-12-24 10:30:00",8811,12.95,-12.08,-11.72,87.8,-11.79,88.1,1.68,171,1.644,8.72,122.1,-23.59,-25.46,0,57.07,869
"2014-12-24 10:45:00",8812,12.96,-12.08,-11.89,87.70002,-12.06,88.1,1.682,170,1.645,8.82,126.1,-30.33,-32.8,0,52.63,865
"2014-12-24 11:00:00",8813,12.96,-12.08,-11.86,87.9,-12.06,88.3,1.687,180,1.65,8.60000,127.8,-43.82,-47.17,0,47.85,887
"2014-12-24 11:15:00",8814,12.96,-12.08,-11.72,87.9,-11.93,88.3,1.688,190,1.651,8.51,126.4,-43.82,-47.08,0,59.81,868
"2014-12-24 11:30:00",8815,12.96,-12.1,-12,87.8,-12.2,88.1,1.684,181,1.647,8.17,116.1,-64.04,-68.36,0,46.48,865
"2014-12-24 11:45:00",8816,12.96,-12.1,-11.96,87.8,-12.2,88.3,1.677,174,1.64,8.12,120.3,-80.9,-86.3,0,51.26,865
"2014-12-24 12:00:00",8817,12.94,-12.12,-11.98,87.6,-12.15,87.8,1.675,169,1.638,8.83,124,-114.6,-123.9,0,54.68,863
"2014-12-24 12:15:00",8818,12.93,-12.12,-11.98,87.6,-12.15,87.70002,1.686,186,1.649,9.19000,125.9,-94.4,-102.8,0,49.56,870
"2014-12-24 12:30:00",8819,12.92,-12.12,-11.93,87.70002,-12.06,87.70002,1.651,181,1.615,9.22,121.2,-94.4,-102.9,0,48.87,867
"2014-12-24 12:45:00",8820,12.92,-12.12,-12.06,87.4,-12.27,87.70002,1.624,169,1.588,9.14000,121.4,-148.3,-161.4,0,51.95,867
"2014-12-24 13:00:00",8821,12.92,-12.12,-11.96,87.5,-12.1,87.20002,1.619,185,1.583,9.25,115.6,-87.6,-95.6,0,55.02,867
"2014-12-24 13:15:00",8822,12.92,-12.12,-11.96,87.9,-12.06,88.20002,1.635,190,1.599,9.33,124.7,-23.59,-25.77,0,50.92,866
"2014-12-24 13:30:00",8823,12.92,-12.1,-11.93,87.70002,-12.06,87.9,1.643,190,1.607,9.42,118.3,-37.07,-40.56,0,46.82,868
"2014-12-24 13:45:00",8824,12.91,-12.1,-11.82,88,-12.06,88.3,1.651,189,1.615,9.23000,125.3,-30.33,-33.07,0,54.68,869
"2014-12-24 14:00:00",8825,12.91,-12.08,-11.76,88,-11.93,88.20002,1.656,169,1.62,9,121.2,-16.85,-18.29,0,57.07,884
"2014-12-24 14:15:00",8826,12.91,-12.05,-11.81,87.8,-11.94,87.4,1.664,211,1.628,8.73000,118.1,-10.11,-10.91,0,54,865
"2014-12-24 14:30:00",8827,12.91,-12.03,-11.93,87.6,-12.06,87.20002,1.669,180,1.632,8.64000,118.1,-64.04,-69,0,47.85,867
"2014-12-24 14:45:00",8828,12.91,-12.03,-12.01,87.6,-12.15,86.9,1.671,192,1.634,8.82,116.7,-50.56,-54.67,0,52.63,868
"2014-12-24 15:00:00",8829,12.93,-12.03,-11.93,87.5,-12.13,86.8,1.674,189,1.637,8.81000,121.3,-16.85,-18.22,0,52.63,868
"2014-12-24 15:15:00",8830,12.94,-12.03,-11.98,87.70002,-12.08,87.5,1.665,188,1.628,8.65,125.1,-30.33,-32.69,0,50.92,887
"2014-12-24 15:30:00",8831,12.94,-12.03,-12,87.5,-12.1,87,1.663,181,1.626,9,115,-43.82,-47.54,0,70.06,868
"2014-12-24 15:45:00",8832,12.95,-12.03,-12,87.6,-12.2,87.20002,1.663,174,1.626,8.87,121.4,-43.82,-47.43,0,53.66,887
"2014-12-24 16:00:00",8833,12.95,-12.03,-12.06,87.6,-12.27,87.5,1.661,189,1.624,8.36,115.4,-37.07,-39.73,0,54.34,865
"2014-12-24 16:15:00",8834,12.95,-12.05,-12.06,87.6,-12.27,87.70002,1.669,189,1.632,8.37,116.5,-50.56,-54.18,0,54.34,885
"2014-12-24 16:30:00",8835,12.95,-12.05,-12.18,87.6,-12.28,87.70002,1.673,186,1.635,8.61,117.2,-57.3,-61.7,0,47.51,866
"2014-12-24 16:45:00",8836,12.95,-12.08,-12.15,87.4,-12.28,87.3,1.675,190,1.637,8.14000,113.4,-74.15,-79.1,0,52.29,866
"2014-12-24 17:00:00",8837,12.95,-12.08,-12.13,87.5,-12.27,87.1,1.677,189,1.639,8.26,116.6,-57.3,-61.27,0,52.97,886
"2014-12-24 17:15:00",8838,12.95,-12.08,-12,87.4,-12.1,87,1.676,169,1.639,8.58,112.4,-43.82,-47.15,0,52.63,865
"2014-12-24 17:30:00",8839,12.95,-12.08,-12,87.5,-12.2,87.20002,1.678,182,1.641,8.61,117,-16.85,-18.15,0,52.29,886
"2014-12-24 17:45:00",8840,12.95,-12.08,-11.62,87.6,-11.79,87.20002,1.678,187,1.642,8.42,135.4,-23.59,-25.31,0,45.45,864
"2014-12-24 18:00:00",8841,12.95,-12.03,-11.62,87.70002,-11.79,87.4,1.677,192,1.641,9.41,134.7,-30.33,-33.18,0,59.47,867
"2014-12-24 18:15:00",8842,12.95,-11.98,-11.42,87.6,-11.59,87.4,1.661,181,1.626,9.16,126.4,-40.45,-44.03,0,59.81,870
"2014-12-24 18:30:00",8843,12.96,-11.91,-11.45,87,-11.59,85.9,1.67,169,1.635,9,133.3,-50.56,-54.86,0,56.39,868
"2014-12-24 18:45:00",8844,12.96,-11.86,-11.45,86.8,-11.59,85.5,1.681,181,1.645,9.35000,126.5,-64.04,-69.97,0,57.07,865
"2014-12-24 19:00:00",8845,12.96,-11.82,-11.42,86.4,-11.59,85.20002,1.68,169,1.645,9.41,130.5,-50.56,-55.3,0,56.73,866
"2014-12-24 19:15:00",8846,12.96,-11.79,-11.43,86.3,-11.57,85.3,1.677,188,1.642,9.23000,132.9,-64.04,-69.81,0,51.95,866
"2014-12-24 19:30:00",8847,12.96,-11.77,-11.45,86.4,-11.59,85.3,1.682,185,1.646,9.38,125.8,-40.45,-44.22,0,54,867
"2014-12-24 19:45:00",8848,12.96,-11.75,-11.48,86.20002,-11.59,85.1,1.682,185,1.646,8.83,137.3,-107.9,-116.6,0,53.66,864
"2014-12-24 20:00:00",8849,12.96,-11.72,-11.59,86,-11.72,85.20002,1.672,169,1.636,8.93000,134.4,-107.9,-116.9,0,48.87,864
"2014-12-24 20:15:00",8850,12.96,-11.72,-11.65,85.70002,-11.79,85,1.674,180,1.638,8.96,130.8,-121.3,-131.6,0,60.49,869
"2014-12-24 20:30:00",8851,12.95,-11.75,-11.82,86.1,-11.93,85.4,1.677,186,1.64,9.52000,135.9,-134.8,-147.8,0,64.94,866
"2014-12-24 20:45:00",8852,12.96,-11.77,-11.76,86.1,-11.93,85.70002,1.689,191,1.652,9.18000,139.5,-94.4,-102.8,0,52.63,865
"2014-12-24 21:00:00",8853,12.96,-11.79,-11.74,87,-11.94,86.9,1.672,170,1.636,9.23000,141.1,-74.15,-80.8,0,47.85,866
"2014-12-24 21:15:00",8854,12.96,-11.79,-11.62,86.8,-11.79,86.70002,1.663,189,1.627,9.34,132.5,-70.78,-77.32,0,61.18,867
"2014-12-24 21:30:00",8855,12.96,-11.77,-11.59,87.1,-11.72,87.1,1.68,181,1.644,8.92,135,-64.04,-69.38,0,57.07,865
"2014-12-24 21:45:00",8856,12.96,-11.77,-11.65,87.4,-11.79,87.5,1.683,189,1.647,8.94000,135.4,-57.3,-62.11,0,59.13,868
"2014-12-24 22:00:00",8857,12.96,-11.75,-11.48,87,-11.59,86.9,1.685,171,1.649,8.73000,129.5,-50.56,-54.57,0,56.39,864
"2014-12-24 22:15:00",8858,12.96,-11.75,-11.42,86.8,-11.59,86.70002,1.685,173,1.649,8.41,138.3,-87.6,-94,0,51.26,867
"2014-12-24 22:30:00",8859,12.96,-11.72,-11.5,87.5,-11.6,87.70002,1.686,182,1.65,8.5,133.9,-50.56,-54.32,0,59.47,865
"2014-12-24 22:45:00",8860,12.95,-11.7,-11.47,87.5,-11.6,87.6,1.686,192,1.65,8.47,136.9,-43.82,-47.05,0,54,865
"2014-12-24 23:00:00",8861,12.96,-11.68,-11.38,87.4,-11.59,87.5,1.684,189,1.649,8.29,137.7,-77.52,-82.9,0,57.07,867
"2014-12-24 23:15:00",8862,12.96,-11.65,-11.42,87.1,-11.52,87.1,1.685,186,1.649,7.85,131.3,-64.04,-67.92,0,57.76,867
"2014-12-24 23:30:00",8863,12.96,-11.63,-11.38,87.4,-11.52,87.5,1.687,189,1.651,8.32,136.2,-70.78,-75.78,0,56.73,867
"2014-12-24 23:45:00",8864,12.96,-11.61,-11.26,87.5,-11.43,87.70002,1.686,190,1.651,8.45,138.4,-57.3,-61.51,0,55.02,887
"2014-12-25 00:00:00",8865,12.96,-11.58,-11.25,87.9,-11.45,88.20002,1.686,189,1.651,8.3,147.4,-67.41,-72.15,0,52.29,866
