"TOA5","UM_Lab","CR1000","54800","CR1000.Std.25","CPU:Met_station_20140922.CR1","46375","Table1"
"TIMESTAMP","RECORD","BattV","PTemp_C","AirTC_1","RH_1","AirTC_2","RH_2","DT","Q","TCDT","WS_ms","WindDir","NR_Wm2","CNR_Wm2","Rain_mm_Tot","Ducer_1","Ducer_2"
"TS","RN","V","Deg C","Deg C","%","Deg C","%","m","","m","m/s","degrees","W/m^2","W/m^2","mm","V","V"
"","","Smp","Smp","Smp","Smp","Smp","Smp","Smp","Smp","Smp","Smp","Smp","Smp","Smp","Tot","Smp","Smp"
"2017-06-16 00:15:00",95632,13.97,4.665,0.574,79.74,0.506,79.18999,2.332,191,2.334,5.46,119.6,-776.8,-784.4,0,42.63,383
"2017-06-16 00:30:00",95633,13.93,4.408,0.37,80.70002,0.336,80.20002,2.336,186,2.338,5.522,111.2,-797.1,-806,0,40.59,385.7
"2017-06-16 00:45:00",95634,13.9,4.127,0.217,80.70002,0.115,80.4,2.333,189,2.334,5.445,110.9,-787.1,-794.5,0,44.68,386.4
"2017-06-16 01:00:00",95635,13.87,3.85,-0.035,81.1,-0.103,80.5,2.334,186,2.334,4.828,96.8,-811,-811,0,34.45,385.1
"2017-06-16 01:15:00",95636,13.84,3.569,-0.032,81,-0.168,80.6,2.333,185,2.333,5.434,107.6,-770.3,-777.4,0,40.59,387.1
"2017-06-16 01:30:00",95637,13.82,3.334,-0.181,80.6,-0.215,79.88,2.335,191,2.334,5.23,112.4,-790.5,-794.3,0,37.18,385.7
"2017-06-16 01:45:00",95638,13.8,3.122,-0.586,83.4,-0.688,83,2.339,187,2.336,4.384,90.5,-770.3,-770.3,0,40.59,406.2
"2017-06-16 02:00:00",95639,13.78,2.865,-0.5,81.8,-0.636,81.1,2.335,180,2.333,4.09,79.88,-854,-854,0,37.86,383.7
"2017-06-16 02:15:00",95640,13.77,2.672,-0.517,82,-0.618,81.4,2.339,188,2.337,4.381,87.20002,-770.3,-770.3,0,41.27,389.2
"2017-06-16 02:30:00",95641,13.76,2.48,-0.754,83.4,-0.89000,82.9,2.339,192,2.336,4.083,90.1,-743.4,-743.4,0,38.54,388.5
"2017-06-16 02:45:00",95642,13.76,2.311,-0.652,82.20002,-0.754,81.70002,2.335,191,2.332,4.26,103.6,-740,-740,0,35.81,383
"2017-06-16 03:00:00",95643,13.78,2.182,-0.635,81.9,-0.771,81.5,2.336,188,2.333,4.618,92.5,-723.2,-723.2,0,34.45,383.7
"2017-06-16 03:15:00",95644,13.82,2.096,-0.73700,82.70002,-0.873,82.3,2.338,188,2.335,4.073,74.21,-669.4,-669.4,0,35.13,385.1
"2017-06-16 03:30:00",95645,13.87,2.053,-0.72,82.6,-0.754,81.6,2.337,190,2.334,4.136,90,-434,-434,0,34.45,406.2
"2017-06-16 03:45:00",95646,13.97,2.076,-0.177,82.20002,-0.279,81.70002,2.335,188,2.334,3.861,87.8,134.6,134.6,0,19.44,389.2
"2017-06-16 04:00:00",95647,14.09,2.203,0.316,81,0.18,80.20002,2.332,189,2.333,3.95,96.20002,151.4,151.4,0,30.35,385.7
"2017-06-16 04:15:00",95648,14.12,2.331,0.214,82.4,0.044,82,2.33,195,2.331,4.888,113,37,37,0,40.59,383
"2017-06-16 04:30:00",95649,14.16,2.331,0.316,80.6,0.248,80.3,2.331,188,2.332,4.985,105.4,70.64,70.64,0,37.86,389.2
"2017-06-16 04:45:00",95650,14.22,2.311,0.503,80.20002,0.265,79.82,2.329,184,2.331,4.914,102.1,67.28,67.28,0,35.13,385.7
"2017-06-16 05:00:00",95651,14.28,2.331,0.486,82.20002,0.316,81.6,2.329,190,2.331,4.821,109.1,168.2,168.2,0,33.77,385.7
"2017-06-16 05:15:00",95652,14.36,2.352,0.588,81.20002,0.418,81,2.328,189,2.331,5.04,105.3,168.2,168.3,0,22.17,384.4
"2017-06-16 05:30:00",95653,14.42,2.395,0.52,82,0.384,81.5,2.332,187,2.334,5.098,107.2,248.9,249.5,0,26.26,383
"2017-06-16 05:45:00",95654,14.48,2.438,0.74100,81.20002,0.605,81,2.329,193,2.332,5.323,108.1,343.1,345.5,0,35.13,384.4
"2017-06-16 06:00:00",95655,14.49,2.503,0.775,82.3,0.673,81.70002,2.327,188,2.33,5.554,101.5,339.7,343.7,0,31.72,407.6
"2017-06-16 06:15:00",95656,14.51,2.544,0.775,83.20002,0.673,82.5,2.329,183,2.332,5.23,103.2,390.2,392.1,0,33.08,406.9
"2017-06-16 06:30:00",95657,14.55,2.609,0.758,81.4,0.656,80.9,2.324,194,2.327,5.385,110,521.4,525.6,0,32.4,386.4
"2017-06-16 06:45:00",95658,14.6,2.672,0.91100,82.20002,0.775,82.1,2.326,194,2.33,5.646,113.5,645.8,654.7,0,28.31,385.1
"2017-06-16 07:00:00",95659,14.61,2.758,0.979,81.20002,0.809,81.1,2.328,185,2.332,5.755,109.2,689.6,700.6,0,27.63,386.4
"2017-06-16 07:15:00",95660,14.63,2.844,0.96200,82.20002,0.79200,81.6,2.324,190,2.328,6.285,112.5,736.6,756.8,0,37.18,388.5
"2017-06-16 07:30:00",95661,14.63,2.93,0.979,82.4,0.775,81.8,2.324,194,2.328,6.403,105.6,756.8,779.4,0,40.59,389.2
"2017-06-16 07:45:00",95662,14.63,3.036,1.047,82.9,0.877,82.6,2.328,187,2.332,6.101,116.8,817,837,0,35.13,383
"2017-06-16 08:00:00",95663,14.63,3.142,1.081,82.70002,0.91100,82.5,2.325,193,2.33,5.985,108.3,804,821,0,39.9,385.1
"2017-06-16 08:15:00",95664,14.63,3.206,1.03,83.3,0.86,83,2.327,194,2.331,5.837,119.2,807,822,0,32.4,385.7
"2017-06-16 08:30:00",95665,14.62,3.334,1.181,82.70002,1.079,82.3,2.325,195,2.33,5.827,112.9,1023,1041,0,32.4,408.9
"2017-06-16 08:45:00",95666,14.61,3.443,1.282,82.70002,1.113,82.6,2.325,197,2.33,5.797,107.6,1107,1125,0,31.04,385.7
"2017-06-16 09:00:00",95667,14.62,3.592,1.401,81.70002,1.265,81.6,2.327,185,2.333,5.796,123.2,1335,1358,0,26.94,385.7
"2017-06-16 09:15:00",95668,14.42,3.764,1.486,82.9,1.282,82.70002,2.326,187,2.332,5.621,113.3,1295,1312,0,28.31,383.7
"2017-06-16 09:30:00",95669,14.26,3.935,1.449,83.70002,1.279,83.5,2.323,185,2.329,5.529,116.3,1261,1276,0,27.63,381
"2017-06-16 09:45:00",95670,14.19,4.084,1.532,82.70002,1.328,82.8,2.331,180,2.338,5.386,121.8,1349,1360,0,28.65,385.4
"2017-06-16 10:00:00",95671,14.18,4.256,1.56,83.20002,1.357,83.1,2.333,186,2.34,5.441,118.3,1635,1650,0,31.04,387.8
"2017-06-16 10:15:00",95672,14.18,4.428,1.577,83.5,1.373,83.6,2.336,175,2.343,4.744,112.9,1729,1729,0,31.04,389.2
"2017-06-16 10:30:00",95673,14.18,4.622,1.508,84.1,1.304,84.3,2.336,169,2.342,4.286,109.7,1749,1749,0,26.26,384.4
"2017-06-16 10:45:00",95674,14.18,4.859,1.644,83.70002,1.44,83.9,2.337,184,2.344,4.167,104.1,2068,2068,0,26.26,405.5
"2017-06-16 11:00:00",95675,14.18,5.117,1.746,83.6,1.406,83.9,2.34,184,2.347,4.298,99.70002,2176,2176,0,34.44,404.8
"2017-06-16 11:15:00",95676,14.16,5.377,1.848,82,1.61,82.20002,2.336,192,2.344,4.35,103.5,2653,2653,0,31.71,406.8
"2017-06-16 11:30:00",95677,14.13,5.657,1.848,82.5,1.61,82.70002,2.341,179,2.349,4.501,107.9,2670,2670,0,33.07,383.5
"2017-06-16 11:45:00",95678,14.12,5.896,1.814,82.8,1.61,82.70002,2.341,184,2.349,4.504,110,2498,2498,0,31.02,402.6
"2017-06-16 12:00:00",95679,14.12,6.091,1.95,82.20002,1.712,82.3,2.342,185,2.35,4.577,113,2209,2209,0,33.74,386.2
"2017-06-16 12:15:00",95680,14.12,6.222,1.965,81.6,1.761,81.6,2.345,184,2.353,4.836,109.3,2411,2411,0,29.65,385.5
"2017-06-16 12:30:00",95681,14.12,6.351,1.911,82,1.707,82.1,2.347,173,2.355,4.663,113.1,2639,2639,0,32.38,384.1
"2017-06-16 12:45:00",95682,14.12,6.482,2.057,81.3,1.854,81.6,2.343,179,2.352,4.652,108.1,2774,2774,0,31.7,387.5
"2017-06-16 13:00:00",95683,14.12,6.613,2.004,81.70002,1.766,81.6,2.341,190,2.35,4.388,108,3076,3076,0,28.29,384.1
"2017-06-16 13:15:00",95684,14.12,6.766,2.037,81.9,1.8,81.9,2.343,187,2.352,4.306,111.6,2666,2666,0,26.93,382.8
"2017-06-16 13:30:00",95685,14.12,6.918,2.139,81.1,1.868,81.20002,2.345,181,2.354,4.221,112.9,3292,3292,0,20.79,386.2
"2017-06-16 13:45:00",95686,14.12,7.114,2.445,79.75999,2.139,80.4,2.349,187,2.359,4.168,113.2,5551,5551,0,33.74,378.7
"2017-06-16 14:00:00",95687,14.12,7.35600,2.105,81.5,1.868,81.6,2.349,184,2.358,4.216,105.2,2888,2888,0,35.79,384.1
"2017-06-16 14:15:00",95688,14.12,7.42100,2.275,80.3,2.071,80.6,2.35,182,2.36,4.151,111.2,4213,4213,0,35.79,385.5
"2017-06-16 14:30:00",95689,14.09,7.53200,2.241,80.20002,2.003,80.5,2.353,185,2.363,3.909,104.9,2619,2619,0,34.42,382.8
"2017-06-16 14:45:00",95690,14.08,7.51,2.054,81.4,1.885,81.3,2.349,187,2.358,3.8,108.5,2424,2424,0,43.29,386.2
"2017-06-16 15:00:00",95691,14.08,7.48700,2.156,81.1,1.952,80.9,2.346,198,2.355,3.675,103.1,2357,2357,0,35.79,382.8
"2017-06-16 15:15:00",95692,14.06,7.51,2.122,81.5,1.919,81.1,2.345,189,2.354,3.442,110.4,1785,1785,0,28.97,382.8
"2017-06-16 15:30:00",95693,14.06,7.51,2.054,81.8,2.054,81,2.347,196,2.356,2.899,82,1842,1842,0,34.42,385.5
"2017-06-16 15:45:00",95694,14.06,7.51,2.037,82.1,2.071,81.1,2.347,183,2.356,2.348,84.70002,1523,1523,0,27.61,384.1
"2017-06-16 16:00:00",95695,14.06,7.53200,1.715,84.1,1.579,83.9,2.347,184,2.354,2.206,74.79,1456,1456,0,41.24,384.8
"2017-06-16 16:15:00",95696,14.06,7.51,1.919,82.6,1.851,82,2.347,188,2.355,2.485,69.17,1052,1052,0,41.24,380
"2017-06-16 16:30:00",95697,14.06,7.42100,2.105,81.6,2.071,80.8,2.35,180,2.359,2.301,76.81,1476,1476,0,36.47,383.4
"2017-06-16 16:45:00",95698,14.06,7.378,2.037,81.3,1.935,80.9,2.348,193,2.357,2.779,108.6,1409,1409,0,37.15,387.5
"2017-06-16 17:00:00",95699,14.06,7.268,2.037,81.8,1.902,81.5,2.349,185,2.358,3.228,92.6,1476,1476,0,34.42,405.9
"2017-06-16 17:15:00",95700,14.06,7.159,1.935,82.5,1.834,82.1,2.349,195,2.357,3.114,95.4,1523,1523,0,30.33,384.8
"2017-06-16 17:30:00",95701,14.06,7.094,2.19,80.4,2.088,79.97999,2.352,185,2.361,3.165,103.2,1973,1973,0,31.7,404.6
"2017-06-16 17:45:00",95702,14.06,7.094,2.105,81.3,2.003,81.1,2.354,181,2.363,2.935,109.5,1718,1718,0,25.56,384.8
"2017-06-16 18:00:00",95703,14.06,7.094,1.986,82.6,1.851,82.5,2.359,184,2.368,3.053,124.3,1301,1301,0,37.15,380
"2017-06-16 18:15:00",95704,14.07,7.028,1.986,82.8,1.817,82.70002,2.359,181,2.368,2.633,116.6,1200,1200,0,41.24,385.5
"2017-06-16 18:30:00",95705,14.11,6.94000,2.258,81.8,1.919,82.1,2.361,173,2.371,2.33,263.7,1120,1120,0,41.24,384.8
"2017-06-16 18:45:00",95706,14.12,6.94000,2.309,80.5,2.275,79.49,2.357,184,2.367,1.423,204.4,739.7,739.7,0,31.7,384.1
"2017-06-16 19:00:00",95707,14.12,7.00600,2.801,76.45,2.7,76.08,2.354,170,2.366,0.476,0,689.2,689.2,0,27.61,402.5
"2017-06-16 19:15:00",95708,14.12,7.094,1.104,88.1,1.138,87.5,2.362,171,2.367,1.968,331.3,521.1,521.1,0,43.97,385.5
"2017-06-16 19:30:00",95709,14.12,6.852,0.543,92.3,0.509,92.4,2.361,185,2.363,2.533,331.6,413.5,413.5,0,54.87,384.1
"2017-06-16 19:45:00",95710,14.12,6.416,0.679,92.3,0.577,92.5,2.362,181,2.365,3.595,333.3,221.9,221.9,0,62.37,384.8
"2017-06-16 20:00:00",95711,14.12,5.939,0.177,95.3,0.041,95.6,2.363,182,2.364,3.723,322.5,137.9,137.9,0,61.01,382.8
"2017-06-16 20:15:00",95712,14.12,5.44,0.149,95.4,0.013,95.70002,2.367,181,2.368,4.472,334.1,97.5,97.5,0,69.88,385.5
"2017-06-16 20:30:00",95713,14.14,4.988,0.166,96.70002,-0.037,97.20002,2.364,172,2.365,4.688,340.2,178.2,178.2,0,65.12,391.7
"2017-06-16 20:45:00",95714,14.18,4.622,0.065,97.70002,-0.139,98.3,2.366,192,2.366,4.369,334,211.8,211.8,0,67.18,382.3
"2017-06-16 21:00:00",95715,14.18,4.256,-0.003,98.70002,-0.207,99.20002,2.368,176,2.368,3.976,352,218.6,218.6,0,65.82,381.6
"2017-06-16 21:15:00",95716,14.18,3.978,-0.053,98.9,-0.223,99.5,2.366,189,2.366,3.536,347.5,168.2,168.2,0,65.83,385.7
"2017-06-16 21:30:00",95717,14.19,3.721,-0.05,99,-0.22,99.6,2.366,191,2.366,3.156,340.7,211.9,211.9,0,51.5,385.7
"2017-06-16 21:45:00",95718,14.18,3.526,-0.061,99,-0.231,99.70002,2.365,194,2.365,3.216,0,151.4,151.4,0,54.23,408.9
"2017-06-16 22:00:00",95719,14.16,3.334,-0.07700,99.1,-0.315,99.8,2.365,196,2.365,3.367,352.1,131.2,131.2,0,50.82,382.3
"2017-06-16 22:15:00",95720,14.13,3.142,-0.075,99.20002,-0.279,99.8,2.364,200,2.364,3.4,9.75,107.6,107.6,0,56.28,380.3
"2017-06-16 22:30:00",95721,14.09,2.95,-0.194,99.20002,-0.364,99.70002,2.366,194,2.365,3.136,354.5,60.55,60.55,0,53.55,388.5
"2017-06-16 22:45:00",95722,14.06,2.822,-0.126,99.20002,-0.33,99.70002,2.365,196,2.364,2.762,2.992,20.18,20.18,0,56.28,378.9
"2017-06-16 23:00:00",95723,14.02,2.652,-0.09200,99.20002,-0.262,99.9,2.365,196,2.365,2.563,0.145,10.09,10.09,0,48.77,383
"2017-06-16 23:15:00",95724,13.97,2.523,0.01,97.9,-0.16,99.3,2.365,196,2.365,2.18,354.5,16.82,16.82,0,49.45,386.4
"2017-06-16 23:30:00",95725,13.93,2.417,0.027,96.9,-0.143,97.3,2.365,196,2.365,2.049,351.5,-3.364,-3.364,0,52.86,385.7
"2017-06-16 23:45:00",95726,13.87,2.311,0.01,96.9,-0.194,97.1,2.366,189,2.366,1.59,354.3,-77.36999,-77.36999,0,50.14,382.3
"2017-06-17 00:00:00",95727,13.83,2.225,-0.09200,97.70002,-0.296,98,2.365,173,2.365,1.523,344,-50.46,-50.46,0,46.04,383.7
