"TOA5","UM_Lab","CR1000","54800","CR1000.Std.25","CPU:Met_station_20140922.CR1","46375","Table1"
"TIMESTAMP","RECORD","BattV","PTemp_C","AirTC_1","RH_1","AirTC_2","RH_2","DT","Q","TCDT","WS_ms","WindDir","NR_Wm2","CNR_Wm2","Rain_mm_Tot","Ducer_1","Ducer_2"
"TS","RN","V","Deg C","Deg C","%","Deg C","%","m","","m","m/s","degrees","W/m^2","W/m^2","mm","V","V"
"","","Smp","Smp","Smp","Smp","Smp","Smp","Smp","Smp","Smp","Smp","Smp","Smp","Smp","Tot","Smp","Smp"
"2017-07-03 00:15:00",97264,14.21,-2.912,-5.641,86.5,-5.675,86.3,2.532,176,2.506,3.053,155.1,-336.6,-336.6,0,29.35,348.1
"2017-07-03 00:30:00",97265,14.15,-3.041,-6.083,89.20002,-6.151,89.3,2.534,176,2.506,3.285,154.3,-296.2,-296.2,0,39.25,347.1
"2017-07-03 00:45:00",97266,14.09,-3.213,-6.865,88.8,-6.899,89.3,2.538,178,2.506,3.367,108.2,-292.9,-292.9,0,41.3,347.8
"2017-07-03 01:00:00",97267,14.05,-3.45,-6.693,91.3,-6.79500,91.9,2.536,181,2.505,3.473,124.8,-363.6,-363.6,0,41.98,349.8
"2017-07-03 01:15:00",97268,14.01,-3.665,-6.619,91.70002,-6.721,92.3,2.537,183,2.506,3.673,130.4,-451.1,-451.1,0,37.88,345.7
"2017-07-03 01:30:00",97269,13.99,-3.836,-5.885,92.20002,-5.987,92.6,2.531,188,2.504,3.577,133.9,-181.8,-181.8,0,43.34,366.9
"2017-07-03 01:45:00",97270,13.96,-3.879,-5.697,91.4,-5.867,92.1,2.533,179,2.506,3.491,132.8,-424.2,-424.2,0,32.42,368.9
"2017-07-03 02:00:00",97271,13.93,-3.902,-6.65,90.6,-6.786,90.8,2.537,178,2.506,2.872,122.8,-101,-101,0,37.2,358
"2017-07-03 02:15:00",97272,13.9,-4.031,-5.561,89.5,-5.765,89.9,2.531,178,2.505,3.495,127.9,-319.9,-319.9,0,34.47,356
"2017-07-03 02:30:00",97273,13.88,-4.031,-5.391,88.4,-5.561,88.70002,2.532,181,2.507,3.644,122.7,-585.9,-585.9,0,34.47,359.4
"2017-07-03 02:45:00",97274,13.88,-4.051,-6.905,86.9,-6.939,87.3,2.541,173,2.509,3.112,116.2,-276.1,-276.1,0,50.85,356
"2017-07-03 03:00:00",97275,13.97,-4.202,-5.918,88.4,-6.054,88.5,2.533,181,2.505,2.923,113.1,-87.5,-87.5,0,34.47,343.7
"2017-07-03 03:15:00",97276,14.11,-4.16,-5.187,88,-5.391,88.20002,2.53,176,2.506,3.498,119.7,-74.08,-74.08,0,17.41,348.5
"2017-07-03 03:30:00",97277,14.18,-4.008,-4.983,89.70002,-5.255,90.1,2.529,185,2.506,3.547,119.4,-198.7,-198.7,0,22.18,347.8
"2017-07-03 03:45:00",97278,14.2,-3.902,-5.221,89.3,-5.357,89.5,2.529,181,2.505,3.962,111.4,-222.2,-222.2,0,32.42,347.1
"2017-07-03 04:00:00",97279,14.24,-3.879,-5.204,89.3,-5.442,89.6,2.531,185,2.507,3.954,116.1,-161.6,-161.6,0,34.47,349.1
"2017-07-03 04:15:00",97280,14.27,-3.879,-5.102,88.70002,-5.34,88.9,2.53,189,2.506,3.74,111.1,-148.1,-148.1,0,36.52,347.1
"2017-07-03 04:30:00",97281,14.32,-3.836,-4.932,87.4,-5.136,87.5,2.529,189,2.506,4.173,105.1,-87.5,-87.5,0,29.01,343.7
"2017-07-03 04:45:00",97282,14.42,-3.794,-4.796,87.9,-5.068,88.20002,2.529,177,2.507,4.231,107.9,-47.14,-47.14,0,25.6,345.7
"2017-07-03 05:00:00",97283,14.55,-3.708,-4.728,86.8,-4.932,86.9,2.529,180,2.507,4.35,118.6,-124.6,-124.6,0,31.06,358
"2017-07-03 05:15:00",97284,14.62,-3.622,-4.915,88,-5.12,88.4,2.531,172,2.508,4.643,114.7,-181.8,-181.8,0,31.06,346.4
"2017-07-03 05:30:00",97285,14.62,-3.536,-4.949,89,-5.153,89.5,2.532,168,2.509,4.38,125.6,-158.2,-158.2,0,34.13,345.4
"2017-07-03 05:45:00",97286,14.62,-3.47,-4.492,90.5,-4.832,91.20002,2.529,172,2.508,3.612,131.2,6.733,6.733,0,17.75,353.6
"2017-07-03 06:00:00",97287,14.62,-3.278,-4.188,89.6,-4.426,90.20002,2.529,173,2.51,2.852,123.6,-94.3,-94.3,0,20.14,351.9
"2017-07-03 06:15:00",97288,14.62,-3.064,-4.261,88.9,-4.533,89.4,2.53,185,2.51,2.868,115,20.2,20.2,0,17.75,346.8
"2017-07-03 06:30:00",97289,14.62,-2.869,-4.229,89.20002,-4.433,89.8,2.529,177,2.509,3.196,130.1,-10.1,-10.1,0,16.72,367.6
"2017-07-03 06:45:00",97290,14.62,-2.677,-3.788,88.1,-4.094,88.5,2.528,169,2.51,3.377,133.6,-37.03,-37.03,0,17.41,358
"2017-07-03 07:00:00",97291,14.62,-2.4,-3.482,87.9,-3.754,88.20002,2.528,173,2.512,3.412,154.9,33.66,33.66,0,23.89,344.7
"2017-07-03 07:15:00",97292,14.47,-1.993,-3.363,88.5,-3.635,88.9,2.527,181,2.511,3.202,148.1,47.12,47.12,0,25.94,354.9
"2017-07-03 07:30:00",97293,14.37,-1.566,-3.278,89.4,-3.55,90.1,2.527,174,2.512,3.441,149.9,74.04999,74.04999,0,33.11,344.4
"2017-07-03 07:45:00",97294,14.37,-1.182,-3.113,90.8,-3.453,91.5,2.533,181,2.519,3.58,165.7,-10.1,-10.1,0,34.13,369.3
"2017-07-03 08:00:00",97295,14.37,-0.841,-2.91,90,-3.216,90.70002,2.528,190,2.514,3.23,142,-37.03,-37.03,0,25.6,345
"2017-07-03 08:15:00",97296,14.37,-0.479,-2.865,89.5,-3.171,90.1,2.524,192,2.511,3.043,137.5,114.4,114.4,0,28.66,352.8
"2017-07-03 08:30:00",97297,14.36,-0.224,-2.763,89.4,-3.171,89.9,2.522,188,2.509,3.246,134,74.04,74.04,0,31.38,346.5
"2017-07-03 08:45:00",97298,14.32,0.054,-2.559,88.9,-2.865,89.5,2.522,192,2.51,2.929,120.3,208.6,208.6,0,30.35,367.3
"2017-07-03 09:00:00",97299,14.31,0.393,-2.474,87.9,-2.848,88.9,2.521,182,2.51,2.872,125,154.8,154.8,0,24.22,356.4
"2017-07-03 09:15:00",97300,14.31,0.69100,-2.356,85.70002,-2.729,86.8,2.518,173,2.507,3.426,130.9,242.3,242.3,0,26.6,351.3
"2017-07-03 09:30:00",97301,14.31,1.096,-2.39,85.5,-2.763,86.4,2.516,187,2.505,3.777,118.4,292.7,292.7,0,30.35,345.5
"2017-07-03 09:45:00",97302,14.31,1.5,-2.203,84.70002,-2.543,85.6,2.514,175,2.504,4.134,123.7,205.2,205.2,0,31.04,359.8
"2017-07-03 10:00:00",97303,14.31,1.904,-1.512,76.72,-1.885,77.61,2.513,171,2.506,3.51,118.7,63.92,63.92,0,20.12,359.1
"2017-07-03 10:15:00",97304,14.27,2.503,-1.195,74.08,-1.603,75.06,2.512,171,2.506,3.06,114.8,316.2,316.2,0,20.8,348.2
"2017-07-03 10:30:00",97305,14.25,3.122,-0.99200,78.04999,-1.366,78.39,2.511,188,2.506,3.481,100,444,444,0.254,26.94,355
"2017-07-03 10:45:00",97306,14.25,3.655,-1.486,81.20002,-1.656,80.9,2.514,179,2.507,3.931,94.70002,131.2,131.2,0,44,358.5
"2017-07-03 11:00:00",97307,14.25,3.935,-0.99500,77.97999,-1.198,77.93999,2.513,174,2.508,3.851,92,148,148,0,35.81,347.5
"2017-07-03 11:15:00",97308,14.25,4.236,-0.79600,74.36999,-1.136,74.77,2.513,179,2.509,3.854,96.70002,514.6,514.6,0,36.49,352.3
"2017-07-03 11:30:00",97309,14.21,4.514,-1.378,75.92,-1.65,76.39,2.516,176,2.51,4.173,105.4,-104.3,-104.3,0,39.22,346.9
"2017-07-03 11:45:00",97310,14.19,4.6,-0.97100,73.88,-1.311,74.29,2.516,170,2.512,4.744,123.6,131.2,131.2,0,38.54,345.5
"2017-07-03 12:00:00",97311,14.19,4.665,-1.022,73.18,-1.396,73.72999,2.516,189,2.511,5.404,113.5,400.2,403.7,0,39.22,355
"2017-07-03 12:15:00",97312,14.19,4.665,-1.158,73.28,-1.464,73.45,2.514,181,2.509,5.704,107.7,467.5,474.5,0,31.04,347.5
"2017-07-03 12:30:00",97313,14.18,4.665,-0.75100,72.84,-1.124,73.04999,2.515,178,2.512,6.079,112,551.6,564.2,0,31.72,368
"2017-07-03 12:45:00",97314,14.19,4.728,-0.649,70.33,-0.92100,69.92,2.516,176,2.513,5.867,105,198.4,202.1,0,30.35,345.5
"2017-07-03 13:00:00",97315,14.18,4.794,-0.326,67.97,-0.632,67.9,2.517,181,2.515,5.925,109.4,400.2,408.1,0,30.35,346.9
"2017-07-03 13:15:00",97316,14.18,4.902,-0.70000,69.86999,-0.90400,69.6,2.517,176,2.514,5.932,110.6,332.9,339.5,0,39.9,348.2
"2017-07-03 13:30:00",97317,14.18,4.88,-0.479,69.51,-0.683,69.11,2.519,180,2.517,5.718,106.4,97.5,99,0,31.03,354.3
"2017-07-03 13:45:00",97318,14.19,4.966,-0.139,62.92,-0.445,62.69,2.518,183,2.517,5.803,102.7,871,886,0,31.71,350.2
"2017-07-03 14:00:00",97319,14.18,5.16,-0.02,63.01,-0.36,62.67,2.52,179,2.52,5.88,114.3,682.6,695.4,0,27.62,353.6
"2017-07-03 14:15:00",97320,14.18,5.334,-0.462,67.97,-0.666,67.76,2.534,182,2.532,6.105,104.5,171.5,175.5,0,39.21,343.4
"2017-07-03 14:30:00",97321,14.18,5.334,-0.462,68.04,-0.598,67.39,2.539,188,2.537,6.06,92.3,161.4,165,0,37.85,350.8
"2017-07-03 14:45:00",97322,14.18,5.291,0.149,70.86,-0.156,70.58,2.537,189,2.538,6.136,94.20002,881,902,0,31.03,346.1
"2017-07-03 15:00:00",97323,14.18,5.311,-0.224,71.22999,-0.496,70.89,2.537,202,2.536,6.155,100,265.6,272.2,0,41.94,344.7
"2017-07-03 15:15:00",97324,14.18,5.291,0.149,68.38,-0.122,68.47999,2.535,206,2.536,6.164,106,662.4,678.8,0,36.48,348.1
"2017-07-03 15:30:00",97325,14.18,5.354,0.014,69.11999,-0.224,68.92,2.538,187,2.538,6.058,89.70002,369.9,378.2,0,32.39,354.2
"2017-07-03 15:45:00",97326,14.18,5.397,0.014,70.89,-0.122,70.14,2.538,183,2.538,5.72,94.8,265.6,269.7,0,37.16,346.7
"2017-07-03 16:00:00",97327,14.18,5.42,0.2,70.18999,0.031,69.47999,2.539,192,2.54,5.368,89.3,158,159.3,0,33.07,356.3
"2017-07-03 16:15:00",97328,14.12,5.528,0.285,72.11,0.319,70.75,2.539,183,2.54,4.845,90.20002,386.7,386.7,0,32.39,348.1
"2017-07-03 16:30:00",97329,14.12,5.657,0.353,74.08,0.251,73.13,2.54,179,2.542,4.485,93.1,124.4,124.4,0,32.39,357
"2017-07-03 16:45:00",97330,14.12,5.788,0.421,74.22,0.116,74.35,2.54,186,2.542,4.554,111.1,299.3,299.3,0,28.29,348.1
"2017-07-03 17:00:00",97331,14.12,5.831,0.421,71.16,0.116,71.09,2.539,182,2.541,5.098,100,124.4,124.7,0,37.84,356.2
"2017-07-03 17:15:00",97332,14.12,5.874,0.234,76.68,-0.071,76.54999,2.542,186,2.543,5.288,120.5,235.4,236.8,0,35.11,346.6
"2017-07-03 17:30:00",97333,14.12,5.765,0.014,65.86,-0.19,65.79,2.542,185,2.542,6.119,121.9,191.7,196.2,0,43.29,355.5
"2017-07-03 17:45:00",97334,14.12,5.614,0.455,58.19,0.183,56.52,2.545,173,2.547,5.877,123.3,319.4,325.4,0,41.24,376
"2017-07-03 18:00:00",97335,14.12,5.548,0.251,67.76,0.048,66.47,2.554,194,2.555,3.939,103.5,137.9,137.9,0,34.43,344.7
"2017-07-03 18:15:00",97336,14.13,5.571,0.149,71.29999,0.048,69.93999,2.554,208,2.555,2.989,82,40.35,40.35,0,35.8,356.3
"2017-07-03 18:30:00",97337,14.13,5.614,-0.037,73.45,-0.105,72.5,2.557,201,2.557,2.845,78.04,67.25,67.25,0,38.52,348.1
"2017-07-03 18:45:00",97338,14.13,5.614,0.031,67.71,-0.139,66.42,2.557,187,2.557,2.634,66.1,20.18,20.18,0,37.16,354.2
"2017-07-03 19:00:00",97339,14.12,5.548,0.048,69.26,-0.08800,68.99,2.557,202,2.557,2.726,77.42,20.18,20.18,0,40.57,355.6
"2017-07-03 19:15:00",97340,14.13,5.42,-0.02,75.03,-0.224,74.83,2.55,186,2.55,3.976,121,-47.08,-47.08,0,39.89,352.9
"2017-07-03 19:30:00",97341,14.14,5.117,0.082,73.47,-0.122,73.27,2.554,187,2.554,5.21,129.8,-53.8,-54.04,0,34.44,353.6
"2017-07-03 19:45:00",97342,14.18,4.816,-0.207,78.92,-0.343,78.79,2.55,188,2.549,5.625,135.5,-63.89,-64.74,0,33.08,352.9
"2017-07-03 20:00:00",97343,14.18,4.536,-0.224,79.52,-0.36,79.18,2.556,178,2.555,5.488,147.2,-10.09,-10.19,0,33.08,355
"2017-07-03 20:15:00",97344,14.18,4.365,-1.209,91.5,-1.379,91.70002,2.551,182,2.545,6.714,138.6,0,0,0,45.36,346.9
"2017-07-03 20:30:00",97345,14.18,4.021,-1.48,95.3,-1.65,95.8,2.555,193,2.548,8.53,155.4,20.18,21.7,0,51.5,354.4
"2017-07-03 20:45:00",97346,14.18,3.612,-1.526,95.6,-1.798,96.20002,2.555,196,2.548,7.799,142.5,-77.36,-82,0,57.64,343.5
"2017-07-03 21:00:00",97347,14.18,3.271,-1.574,95,-1.845,95.5,2.555,186,2.548,7.53300,143.4,-6.727,-7.09,0,53.55,345.5
"2017-07-03 21:15:00",97348,14.16,2.887,-1.621,94.5,-1.859,95,2.56,192,2.552,7.05800,145.3,-77.36,-80.8,0,56.28,350.3
"2017-07-03 21:30:00",97349,14.14,2.609,-1.604,93.6,-1.842,94,2.558,193,2.55,6.37,150.3,-158.1,-162.7,0,61.05,355.7
"2017-07-03 21:45:00",97350,14.12,2.352,-1.689,93.70002,-1.859,94.1,2.56,197,2.552,6.135,148.2,-151.4,-155,0,53.55,355
"2017-07-03 22:00:00",97351,14.1,2.119,-1.621,93.6,-1.825,94.1,2.56,192,2.552,5.312,147.9,-262.4,-264.1,0,53.55,353.7
"2017-07-03 22:15:00",97352,14.08,1.947,-1.774,93.3,-1.978,93.8,2.56,180,2.552,4.531,135.6,-400.3,-400.3,0,52.86,354.4
"2017-07-03 22:30:00",97353,14.06,1.735,-2.026,93,-2.162,93.6,2.563,180,2.553,3.907,154,-494.5,-494.5,0,55.59,357.1
"2017-07-03 22:45:00",97354,14.02,1.523,-2.363,93,-2.431,93.6,2.563,180,2.552,3.708,140.5,-484.5,-484.5,0,55.59,372.1
"2017-07-03 23:00:00",97355,13.98,1.224,-2.361,93.70002,-2.531,94.1,2.563,185,2.552,3.292,128.5,-232.1,-232.1,0,61.73,352.3
"2017-07-03 23:15:00",97356,13.93,0.946,-2.475,94.5,-2.577,94.9,2.562,191,2.55,2.626,103.4,-185,-185,0,67.18999,346.2
"2017-07-03 23:30:00",97357,13.89,0.71400,-2.39,94.1,-2.628,94.5,2.562,187,2.551,1.947,78.77,-148,-148,0,61.05,345.5
"2017-07-03 23:45:00",97358,13.84,0.522,-2.186,93.1,-2.39,93.1,2.562,187,2.552,1.962,84.8,-114.4,-114.4,0,56.28,344.8
"2017-07-04 00:00:00",97359,13.8,0.393,-2.101,92.6,-2.305,92.8,2.561,191,2.551,1.911,89.5,-117.8,-117.8,0,52.18,352.3
