"TOA5","UM_Lab","CR1000","54800","CR1000.Std.25","CPU:Met_station_20140922.CR1","46375","Table1"
"TIMESTAMP","RECORD","BattV","PTemp_C","AirTC_1","RH_1","AirTC_2","RH_2","DT","Q","TCDT","WS_ms","WindDir","NR_Wm2","CNR_Wm2","Rain_mm_Tot","Ducer_1","Ducer_2"
"TS","RN","V","Deg C","Deg C","%","Deg C","%","m","","m","m/s","degrees","W/m^2","W/m^2","mm","V","V"
"","","Smp","Smp","Smp","Smp","Smp","Smp","Smp","Smp","Smp","Smp","Smp","Smp","Smp","Tot","Smp","Smp"
"2014-09-28 00:15:00",418,13.27,-19.55,-18.93,73.18,-19,73.42,1.972,191,1.902,5.403,85.9,-492.8,-497,0,71.17,914
"2014-09-28 00:30:00",419,13.26,-19.38,-18.66,71.58,-18.6,71.51,1.975,182,1.906,5.409,81.5,-448.9,-452.8,0,69.79,911
"2014-09-28 00:45:00",420,13.26,-19.19,-18.34,71.72999,-18.31,71.63,1.974,186,1.907,5.245,76.66,-448.9,-451.2,0,73.54999,917
"2014-09-28 01:00:00",421,13.24,-19.05,-18.72,74.49,-18.54,74.49,1.969,174,1.9,4.298,86.1,-442.1,-442.1,0,74.56,913
"2014-09-28 01:15:00",422,13.24,-18.97,-18.99,75.14,-19.02,75.2,1.974,178,1.904,4.079,77.63,-408.3,-408.3,0,61.22,914
"2014-09-28 01:30:00",423,13.23,-18.86,-17.93,72.1,-17.86,72,1.97,185,1.904,5.041,92.6,-469,-469.4,0,68.4,915
"2014-09-28 01:45:00",424,13.22,-18.72,-19.33,73.26,-19.26,73.67,1.977,189,1.906,4.483,87.5,-394.8,-394.8,0,64.3,910
"2014-09-28 02:00:00",425,13.22,-18.75,-17.98,72.93999,-17.91,72.93999,1.968,174,1.902,4.759,93,-523,-523,0,69.08,915
"2014-09-28 02:15:00",426,13.21,-18.61,-17.9,72.07,-17.83,71.86,1.97,182,1.904,5.248,82.1,-469,-471.4,0,73.86999,933
"2014-09-28 02:30:00",427,13.21,-18.5,-17.57,72.04999,-17.57,71.68,1.967,193,1.903,5.457,89,-435.2,-439.5,0,69.77,915
"2014-09-28 02:45:00",428,13.2,-18.42,-17.57,73.11,-17.61,72.93999,1.968,178,1.904,4.839,98.6,-442,-442,0,72.85,916
"2014-09-28 03:00:00",429,13.19,-18.34,-17.52,71.86,-17.56,71.79999,1.969,190,1.905,5.157,94,-489.2,-490.8,0,69.08,934
"2014-09-28 03:15:00",430,13.19,-18.23,-17.93,72.78,-17.86,72.82,1.97,181,1.904,4.934,90.9,-479.1,-479.1,0,69.77,911
"2014-09-28 03:30:00",431,13.18,-18.21,-17.78,71.78,-17.74,71.57,1.97,182,1.905,5.205,100.5,-502.7,-504.9,0,69.08,911
"2014-09-28 03:45:00",432,13.18,-18.18,-18.2,73.16,-18.14,73.09,1.97,182,1.903,5.192,92.1,-570.2,-572.5,0,77.29,915
"2014-09-28 04:00:00",433,13.18,-18.18,-18.05,71.78,-17.98,71.57,1.971,190,1.905,5.445,98.20002,-563.4,-568.8,0,75.58,913
"2014-09-28 04:15:00",434,13.17,-18.18,-18.24,71.86,-18.24,71.79999,1.971,178,1.904,5.506,99,-556.7,-562.7,0,63.61,913
"2014-09-28 04:30:00",435,13.17,-18.21,-18.2,72.14,-18.14,71.93,1.971,181,1.904,5.418,94.5,-563.4,-568.4,0,67.03,915
"2014-09-28 04:45:00",436,13.17,-18.21,-18,72.14,-18,72.07,1.97,190,1.904,5.72,93.20002,-590.4,-599.5,0,70.11,911
"2014-09-28 05:00:00",437,13.16,-18.21,-18.03,72.17,-18.07,71.93,1.973,190,1.907,5.562,95.5,-563.4,-570.2,0,74.9,913
"2014-09-28 05:15:00",438,13.16,-18.21,-18.41,72.82,-18.31,72.96,1.972,189,1.904,5.02,101.5,-549.9,-550.2,0,67.03,915
"2014-09-28 05:30:00",439,13.16,-18.23,-18,72.96,-17.93,73.02,1.972,177,1.906,4.999,96.5,-556.7,-556.7,0,63.27,913
"2014-09-28 05:45:00",440,13.16,-18.23,-17.76,73.36,-17.66,73.36,1.969,189,1.904,5.379,92.4,-506.1,-510.2,0,73.86999,918
"2014-09-28 06:00:00",441,13.15,-18.21,-17.9,74.59,-17.83,74.86,1.969,193,1.903,5.222,79.54,-502.7,-505.1,0,69.77,914
"2014-09-28 06:15:00",442,13.15,-18.21,-16.81,75.36999,-16.84,75.41,1.965,189,1.904,4.79,109.1,-415,-415,0,68.4,914
"2014-09-28 06:30:00",443,13.15,-18.04,-16.23,74.52,-16.26,74.79999,1.961,185,1.902,5.69,106.9,-469,-475.9,0,58.14,914
"2014-09-28 06:45:00",444,13.15,-17.86,-16.33,74.79999,-16.4,74.93,1.963,189,1.903,5.747,102.9,-435.2,-442.2,0,64.64,911
"2014-09-28 07:00:00",445,13.14,-17.7,-16.19,75.2,-16.33,75.41,1.963,185,1.904,5.571,103,-435.2,-440.5,0,61.56,913
"2014-09-28 07:15:00",446,13.11,-17.57,-16.04,75.93999,-16.07,76.11,1.961,181,1.903,5.363,100.4,-472.3,-476,0,60.19,915
"2014-09-28 07:30:00",447,13.09,-17.43,-15.8,75.39,-15.87,75.75999,1.961,190,1.903,5.853,106.3,-472.3,-480.9,0,69.77,915
"2014-09-28 07:45:00",448,13.09,-17.25,-15.72,75.5,-15.75,75.74,1.961,177,1.904,5.975,111.8,-516.2,-526.9,0,65.32,915
"2014-09-28 08:00:00",449,13.1,-17.12,-15.72,74.89,-15.79,75.33,1.96,176,1.903,6.303,112.9,-536.4,-551.3,0,63.61,912
"2014-09-28 08:15:00",450,13.14,-16.99,-15.62,75.29,-15.72,75.77,1.959,177,1.902,6.758,112.5,-529.6,-549.4,0,64.98,915
"2014-09-28 08:30:00",451,13.19,-16.8,-15.11,74.1,-15.17,74.54,1.958,185,1.903,6.858,109.5,-519.5,-540,0,55.4,912
"2014-09-28 08:45:00",452,13.29,-16.57,-14.8,73.96,-14.97,74.67,1.957,177,1.903,6.977,108.5,-495.9,-516.7,0,64.64,910
"2014-09-28 09:00:00",453,13.46,-16.26,-14.55,74.04,-14.68,74.72,1.955,172,1.902,6.85,105.9,-509.3,-529.4,0,60.88,919
"2014-09-28 09:15:00",454,13.68,-15.9,-14.53,73.71,-14.63,74.09,1.956,181,1.903,7.102,109,-634.1,-662.5,0,59.85,916
"2014-09-28 09:30:00",455,14.62,-15.6,-14.5,73.95,-14.57,74.43,1.956,176,1.903,7.13100,109,-681.3,-712.2,0,55.75,913
"2014-09-28 09:45:00",456,14.62,-15.29,-13.76,72.16,-13.83,72.43999,1.954,173,1.904,7.122,115.7,-644.2,-673.3,0,54.72,915
"2014-09-28 10:00:00",457,14.62,-14.92,-13.26,72.22,-13.36,72.84,1.952,180,1.904,6.98100,112.4,-620.6,-646.8,0,60.87,913
"2014-09-28 10:15:00",458,14.62,-14.5,-13.04,71.76,-13.21,72.1,1.95,177,1.903,7.057,116.1,-613.8,-640.7,0,57.44,910
"2014-09-28 10:30:00",459,14.62,-14.1,-12.99,71.72999,-13.23,72.28,1.953,181,1.906,6.705,109.4,-583.3,-604.5,0,54.7,913
"2014-09-28 10:45:00",460,14.62,-13.73,-13.43,72,-13.64,72.47999,1.952,181,1.903,6.196,109.1,-657.5,-674.2,0,50.58,917
"2014-09-28 11:00:00",461,14.62,-13.47,-13.23,71.08,-13.5,71.49,1.953,177,1.905,6.233,106.7,-633.9,-650.5,0,54.68,938
"2014-09-28 11:15:00",462,14.62,-13.2,-12.89,68.79999,-13.09,69.14,1.951,177,1.904,6.388,104,-644,-663,0,51.26,936
"2014-09-28 11:30:00",463,14.62,-12.91,-12.96,68.43,-13.2,68.86999,1.952,181,1.905,5.796,100.2,-637.2,-648,0,47.85,912
"2014-09-28 11:45:00",464,14.63,-12.65,-12.89,68.31,-13.16,68.72,1.953,177,1.906,5.09,101.8,-637.2,-638.4,0,52.63,913
"2014-09-28 12:00:00",465,14.62,-12.39,-13.7,70.57,-13.76,70.77,1.955,177,1.905,4.369,93.1,-320.3,-320.3,0,53.32,913
"2014-09-28 12:15:00",466,14.62,-12.17,-12.49,68.51,-12.76,68.97999,1.951,177,1.906,4.613,98.9,-519.1,-519.1,0,53.32,911
"2014-09-28 12:30:00",467,14.62,-11.91,-13.14,70.54999,-13.24,70.61999,1.953,177,1.905,4.286,91.4,-424.7,-424.7,0,43.4,914
"2014-09-28 12:45:00",468,14.62,-11.7,-12.22,69.53,-12.35,70.07,1.949,169,1.905,4.674,103,-492.1,-492.1,0,45.11,915
"2014-09-28 13:00:00",469,14.62,-11.44,-11.54,67.82,-11.81,68.4,1.948,176,1.906,4.142,103.6,-498.8,-498.8,0,47.85,915
"2014-09-28 13:15:00",470,14.62,-11.18,-11.54,69.32,-11.71,69.66,1.946,181,1.904,4.511,108.8,-552.8,-552.8,0,51.26,915
"2014-09-28 13:30:00",471,14.62,-11.02,-11.34,70.06,-11.54,70.33,1.945,185,1.904,4.888,109.1,-485.3,-485.3,0,48.53,935
"2014-09-28 13:45:00",472,14.62,-10.86,-11.17,70.33,-11.34,70.74,1.944,189,1.904,5.27,114.2,-485.3,-488.1,0,51.26,916
"2014-09-28 14:00:00",473,14.62,-10.7,-11.27,71,-11.34,71.21,1.944,185,1.903,5.488,123.6,-498.8,-504,0,52.29,914
"2014-09-28 14:15:00",474,14.62,-10.63,-11.09,71.29,-11.29,71.7,1.943,188,1.903,5.105,111.2,-377.5,-378.3,0,49.9,915
"2014-09-28 14:30:00",475,14.62,-10.49,-10.78,72.07,-10.98,72.59,1.943,189,1.904,4.34,115.6,-377.5,-377.5,0,43.4,915
"2014-09-28 14:45:00",476,14.57,-10.3,-10.78,72.65,-10.85,72.99,1.942,189,1.903,4.224,116.3,-384.2,-384.2,0,50.58,916
"2014-09-28 15:00:00",477,14.56,-10.19,-10.93,73.11,-11,73.54999,1.944,185,1.905,4.894,120.5,-552.7,-552.7,0,46.48,916
"2014-09-28 15:15:00",478,14.56,-10.1,-10.92,73.16,-10.85,73.03,1.942,190,1.903,4.614,115.6,-458.3,-458.3,0,50.92,919
"2014-09-28 15:30:00",479,14.56,-10.01,-10.52,72.5,-10.56,72.46,1.942,189,1.904,4.52,123.7,-566.1,-566.1,0,48.52,912
"2014-09-28 15:45:00",480,14.56,-9.89000,-10.18,72.16,-10.32,72.6,1.941,189,1.904,5.189,112.5,-384.1,-385.7,0,51.25,935
"2014-09-28 16:00:00",481,14.56,-9.75,-10.23,71.97,-10.34,72.17,1.94,180,1.903,5.346,111.7,-434.6,-437.8,0,46.8,913
"2014-09-28 16:15:00",482,14.56,-9.69000,-10.25,71.68,-10.29,71.65,1.941,173,1.904,5.768,111.6,-505.4,-513.7,0,43.73,934
"2014-09-28 16:30:00",483,14.56,-9.64000,-10.05,71.2,-10.08,71.17,1.94,177,1.904,5.983,112.1,-478.4,-488.5,0,45.77,913
"2014-09-28 16:45:00",484,14.56,-9.62,-10.71,72.52,-10.78,72.52,1.942,181,1.904,5.246,108.8,-465,-467.4,0,45.78,912
"2014-09-28 17:00:00",485,14.56,-9.64000,-10.85,72.92,-10.85,72.75,1.942,185,1.903,4.567,108.1,-424.5,-424.5,0,48.51,937
"2014-09-28 17:15:00",486,14.56,-9.71,-10.98,73.43,-11.09,73.5,1.943,181,1.904,4.663,103.2,-397.6,-397.6,0,50.21,911
"2014-09-28 17:30:00",487,14.47,-9.78,-10.93,76.31,-11.07,76.21,1.942,176,1.903,4.46,98.9,-222.4,-222.4,0,49.54,914
"2014-09-28 17:45:00",488,14,-9.8,-9.32,72.14,-9.42,71.93999,1.937,173,1.904,4.866,102,-357.1,-357.1,0,50.9,915
"2014-09-28 18:00:00",489,13.89,-9.71,-10.68,72.99,-10.61,72.52,1.943,181,1.905,5.043,102,-458.2,-458.6,0,50.9,913
"2014-09-28 18:15:00",490,13.81,-9.82,-10.92,74.42,-10.95,74.49,1.941,185,1.902,4.974,87.4,-431.3,-431.3,0,50.9,913
"2014-09-28 18:30:00",491,13.73,-9.94000,-10.95,78.64,-10.92,78.88,1.942,173,1.903,4.444,90.8,-397.6,-397.6,0,52.95,916
"2014-09-28 18:45:00",492,13.68,-10.03,-10.22,83.3,-10.08,83.6,1.94,181,1.903,4.242,84.5,-431.3,-431.3,0,51.59,913
"2014-09-28 19:00:00",493,13.62,-10.03,-9.74,84.6,-9.78,85.1,1.938,186,1.903,4.198,76.99,-404.3,-404.3,0,45.44,913
"2014-09-28 19:15:00",494,13.55,-9.96,-7.852,84,-7.852,84.4,1.932,177,1.904,4.6,85.4,-424.5,-424.5,0,41.34,936
"2014-09-28 19:30:00",495,13.52,-9.69000,-6.559,80.8,-6.559,81,1.927,176,1.904,6.354,91.3,-670.5,-689.8,0,39.97,913
"2014-09-28 19:45:00",496,13.49,-9.3,-6.576,75.9,-6.508,75.32,1.925,190,1.902,7.85500,92.5,-741.2,-786.3,0,33.13,913
"2014-09-28 20:00:00",497,13.47,-8.96,-6.457,72.99,-6.491,72.24,1.928,182,1.905,8.77000,93.5,-721,-778.9,0,37.91,918
"2014-09-28 20:15:00",498,13.45,-8.67,-6.474,73.35,-6.508,72.4,1.927,186,1.904,9.29,94.9,-646.9,-705.9,0,39.28,911
"2014-09-28 20:30:00",499,13.43,-8.44000,-6.627,72.58,-6.593,72.04,1.93,182,1.906,9.18000,98.4,-613.2,-667.8,0,35.18,913
"2014-09-28 20:45:00",500,13.41,-8.26,-6.68,73.14,-6.68,72.29,1.929,186,1.905,9.16,95.5,-606.4,-660.1,0,40.64,918
"2014-09-28 21:00:00",501,13.4,-8.15,-7.159,73.61,-7.227,72.86,1.931,202,1.906,8.93000,93.4,-613.1,-664.4,0,42.01,915
"2014-09-28 21:15:00",502,13.38,-8.13,-7.449,73.39,-7.483,72.88,1.937,186,1.91,8.41,89.9,-680.5,-729.9,0,47.47,914
"2014-09-28 21:30:00",503,13.37,-8.15,-7.79000,73.93,-7.892,73.46,1.934,187,1.906,8.4,91.6,-592.9,-635.8,0,46.11,936
"2014-09-28 21:45:00",504,13.36,-8.17,-7.517,73.18,-7.55100,72.67,1.938,181,1.911,8.63,91.20002,-505.3,-544.4,0,65.92,914
"2014-09-28 22:00:00",505,13.35,-8.15,-7.26200,72.35,-7.26200,71.57,1.935,223,1.909,7.74200,95.8,-505.3,-534.8,0,46.11,913
"2014-09-28 22:15:00",506,13.34,-8.11,-7.602,71.77,-7.636,71.43,1.939,190,1.912,6.465,94.8,-464.9,-479.4,0,54.3,910
"2014-09-28 22:30:00",507,13.33,-8.13,-8.59,74.43,-8.52000,74.09,1.944,192,1.913,5.044,88.70002,-559.2,-559.7,0,48.16,914
"2014-09-28 22:45:00",508,13.32,-8.28,-10.02,76.74,-9.81000,76.25999,1.95,190,1.914,3.742,95.6,-458.1,-458.1,0,53.62,914
"2014-09-28 23:00:00",509,13.32,-8.55,-8.45,73.54999,-8.38,73.04,1.943,192,1.913,4.211,99.3,-269.5,-269.5,0,56.69,911
"2014-09-28 23:15:00",510,13.31,-8.64000,-9.5,76.34,-9.27000,75.72999,1.948,186,1.914,3.576,119,-488.5,-488.5,0,47.47,931
"2014-09-28 23:30:00",511,13.31,-8.8,-9.49,76.74,-9.21,75.95,1.946,194,1.912,3.281,115,-256,-256,0,45.42,914
"2014-09-28 23:45:00",512,13.3,-8.92,-8.7,77.35,-8.57,77.04,1.944,190,1.913,3.77,121.4,-377.3,-377.3,0,52.25,910
"2014-09-29 00:00:00",513,13.29,-8.94000,-8.04,74.2,-7.971,73.76,1.942,190,1.913,4.241,104.9,-417.8,-417.8,0,41.33,914
