"TOA5","UM_Lab","CR1000","54800","CR1000.Std.25","CPU:Met_station_20140922.CR1","46375","Table1"
"TIMESTAMP","RECORD","BattV","PTemp_C","AirTC_1","RH_1","AirTC_2","RH_2","DT","Q","TCDT","WS_ms","WindDir","NR_Wm2","CNR_Wm2","Rain_mm_Tot","Ducer_1","Ducer_2"
"TS","RN","V","Deg C","Deg C","%","Deg C","%","m","","m","m/s","degrees","W/m^2","W/m^2","mm","V","V"
"","","Smp","Smp","Smp","Smp","Smp","Smp","Smp","Smp","Smp","Smp","Smp","Smp","Smp","Tot","Smp","Smp"
"2015-03-29 00:15:00",17890,13.7,-22.95,-24.99,71.83,-25.06,72.07,1.687,185,1.608,6.258,108.2,-374.8,-384.8,0,80.4,822
"2015-03-29 00:30:00",17891,13.68,-23.1,-25.04,71.91,-25.11,72.08,1.688,184,1.609,6.401,110.6,-523.3,-538.9,0,91.4,822
"2015-03-29 00:45:00",17892,13.65,-23.26,-25.27,72.36999,-25.3,72.51,1.688,188,1.608,6.125,113.6,-482.9,-494.4,0,92.4,826
"2015-03-29 01:00:00",17893,13.63,-23.35,-25.18,72.79999,-25.18,72.9,1.687,184,1.607,6.174,118.3,-327.6,-335.7,0,84.20002,821
"2015-03-29 01:15:00",17894,13.61,-23.48,-25.2,72.71,-25.27,72.78,1.688,185,1.608,6.407,117.4,-455.9,-469.6,0,91.4,823
"2015-03-29 01:30:00",17895,13.59,-23.6,-25.4,72.65,-25.47,72.71,1.688,185,1.608,6.613,106.1,-516.7,-534.5,0,91.4,823
"2015-03-29 01:45:00",17896,13.57,-23.7,-25.54,72.03,-25.61,72.14,1.69,185,1.609,6.437,120,-537,-553.4,0,91.4,824
"2015-03-29 02:00:00",17897,13.55,-23.86,-25.68,72.58,-25.74,72.78,1.69,184,1.609,6.149,106.5,-618,-633.2,0,91.4,824
"2015-03-29 02:15:00",17898,13.53,-23.98,-25.95,72.92,-25.95,72.99,1.689,180,1.607,6.412,114.3,-638.3,-657.5,0,96.9,845
"2015-03-29 02:30:00",17899,13.51,-24.11,-26.08,72.1,-26.02,72.24,1.691,188,1.608,6.559,115.8,-597.8,-617.6,0,91.4,845
"2015-03-29 02:45:00",17900,13.49,-24.27,-26.05,71.43,-26.08,71.5,1.691,189,1.608,6.709,118.4,-604.5,-626.5,0,90,823
"2015-03-29 03:00:00",17901,13.48,-24.4,-26.22,71.43999,-26.25,71.43999,1.692,180,1.609,6.49,110.4,-564,-581.9,0,92.8,845
"2015-03-29 03:15:00",17902,13.46,-24.53,-26.63,71.72,-26.69,72.09,1.692,184,1.607,5.927,99.6,-550.5,-561.4,0,96.9,827
"2015-03-29 03:30:00",17903,13.45,-24.69,-26.68,71.32,-26.68,71.63,1.694,184,1.609,6.007,103.7,-597.8,-610.6,0,96.20002,829
"2015-03-29 03:45:00",17904,13.43,-24.86,-26.83,71.31,-26.9,71.43999,1.694,180,1.609,6.531,112.5,-618,-638.2,0,96.6,823
"2015-03-29 04:00:00",17905,13.41,-25.02,-27.04,71.51,-27.07,71.54999,1.693,189,1.607,6.551,103.9,-611.3,-631.5,0,92.8,824
"2015-03-29 04:15:00",17906,13.4,-25.19,-27.31,70.97,-27.38,71.31,1.695,185,1.608,6.439,106,-614.7,-633.5,0,93.8,824
"2015-03-29 04:30:00",17907,13.39,-25.35,-27.24,71.03,-27.24,71.03,1.695,189,1.608,6.937,104.7,-618,-643.5,0,94.20002,827
"2015-03-29 04:45:00",17908,13.37,-25.46,-27.1,70.49,-27.1,70.42,1.693,187,1.607,6.976,114,-611.3,-637.1,0,99,822
"2015-03-29 05:00:00",17909,13.36,-25.59,-26.9,69.53,-26.93,69.4,1.695,188,1.609,7.378,113,-621.5,-653,0,90.8,846
"2015-03-29 05:15:00",17910,13.34,-25.66,-27.24,70.22,-27.27,70.15,1.694,185,1.607,7.163,114.5,-628.3,-657.2,0,94.5,825
"2015-03-29 05:30:00",17911,13.33,-25.76,-27.36,70.78,-27.36,70.78,1.695,188,1.608,7.42700,109.2,-621.5,-653.7,0,96.20002,822
"2015-03-29 05:45:00",17912,13.32,-25.86,-27.51,70.49,-27.51,70.49,1.696,189,1.608,7.745,112.5,-614.8,-650.7,0,94.9,824
"2015-03-29 06:00:00",17913,13.31,-25.96,-27.58,70.43,-27.61,70.36,1.695,188,1.607,7.702,110.8,-618.2,-653.7,0,96.6,823
"2015-03-29 06:15:00",17914,13.27,-26.06,-27.58,69.75,-27.61,69.61,1.696,184,1.608,7.75700,109.2,-624.9,-661.6,0,94.20002,820
"2015-03-29 06:30:00",17915,13.24,-26.17,-27.72,69.54,-27.65,69.34,1.696,187,1.608,7.654,98.5,-618.2,-653.1,0,99,847
"2015-03-29 06:45:00",17916,13.22,-26.27,-28.19,69.34,-28.19,69.2,1.699,188,1.609,6.917,87.20002,-618.2,-643.4,0,105.5,825
"2015-03-29 07:00:00",17917,13.23,-26.44,-29.01,69.2,-28.98,69.27,1.701,185,1.608,5.594,89.3,-584.5,-591.9,0,95.5,822
"2015-03-29 07:15:00",17918,13.28,-26.58,-28.26,69.07,-28.33,68.93,1.699,189,1.609,6.256,98,-516.9,-530.7,0,97.9,823
"2015-03-29 07:30:00",17919,13.38,-26.65,-28.19,68.26,-28.26,68.18999,1.697,184,1.607,6.507,93.8,-473,-488.2,0,100.3,822
"2015-03-29 07:45:00",17920,13.57,-26.65,-28.19,66.96,-28.19,66.76,1.698,193,1.608,6.738,89.1,-469.6,-487,0,101.4,826
"2015-03-29 08:00:00",17921,14.52,-26.62,-27.92,67.97999,-28.02,68.04999,1.696,189,1.607,6.562,98,-483.1,-499.2,0,96.9,824
"2015-03-29 08:15:00",17922,14.61,-26.51,-27.71,66.35,-27.78,66.21,1.697,185,1.609,6.574,101,-442.6,-457.4,0,90.8,820
"2015-03-29 08:30:00",17923,14.61,-26.3,-27.3,65.8,-27.41,65.39,1.695,176,1.608,7.235,106.1,-432.4,-453,0,91.4,822
"2015-03-29 08:45:00",17924,14.6,-26.1,-27.1,65.04,-27.2,64.6,1.696,179,1.61,7.90700,108.5,-385.1,-409,0,90.8,823
"2015-03-29 09:00:00",17925,14.61,-25.86,-27.03,65.52,-27.17,65.25,1.694,181,1.608,7.82,103.4,-361.5,-383.2,0,90.1,825
"2015-03-29 09:15:00",17926,14.61,-25.59,-26.86,65.44,-27.17,65.72,1.694,179,1.609,7.353,99.8,-307.4,-322.8,0,94.5,825
"2015-03-29 09:30:00",17927,14.61,-25.32,-26.63,65.3,-26.86,65.44,1.693,180,1.608,7.63900,102.7,-266.9,-281.9,0,88,826
"2015-03-29 09:45:00",17928,14.61,-25.06,-26.63,64.65,-26.73,64.35,1.693,181,1.608,7.148,89.9,-165.5,-173.1,0,82.5,828
"2015-03-29 10:00:00",17929,14.61,-24.79,-26.63,65.17,-26.76,64.65,1.693,189,1.608,6.533,99.9,-131.7,-136,0,89,827
"2015-03-29 10:15:00",17930,14.61,-24.56,-26.42,63.73,-26.49,63.22,1.693,189,1.609,6.871,95.5,-70.92,-73.75,0,89.4,825
"2015-03-29 10:30:00",17931,14.61,-24.31,-26.22,63.05,-26.28,62.5,1.694,176,1.611,6.153,84.20002,27.02,27.68,0,89.4,827
"2015-03-29 10:45:00",17932,14.61,-24.05,-25.54,63.93,-25.6,63.45,1.689,184,1.608,5.966,87.5,-60.79,-62.04,0,86.6,825
"2015-03-29 11:00:00",17933,14.6,-23.76,-25.88,64.6,-26.02,64.16,1.691,181,1.609,6.656,86.3,158.7,164.3,0,80.8,826
"2015-03-29 11:15:00",17934,14.61,-23.6,-25.74,64.22,-25.88,63.68,1.69,177,1.608,6.99300,94.9,138.5,144.3,0,79.06,824
"2015-03-29 11:30:00",17935,14.61,-23.42,-25.37,63.95,-25.54,63.85,1.689,181,1.609,6.558,93.1,199.3,205.9,0,85.9,824
"2015-03-29 11:45:00",17936,14.61,-23.26,-24.79,63.23,-24.92,62.59,1.687,176,1.609,7.38700,92.3,280.3,294.6,0,85.6,828
"2015-03-29 12:00:00",17937,14.61,-23.04,-24.38,63.57,-24.58,63.3,1.686,185,1.609,6.926,91.20002,354.6,369.1,0,90,824
"2015-03-29 12:15:00",17938,14.61,-22.83,-24.11,63.03,-24.17,62.28,1.685,181,1.609,6.605,96,334.3,345.7,0,84.5,822
"2015-03-29 12:30:00",17939,14.61,-22.58,-23.9,62.96,-23.97,62.24,1.684,181,1.609,6.409,87.70002,354.5,365.1,0,79.4,825
"2015-03-29 12:45:00",17940,14.61,-22.37,-23.59,63.95,-23.77,63.47,1.683,172,1.609,6.599,91.4,408.5,422.4,0,78.03,823
"2015-03-29 13:00:00",17941,14.61,-22.19,-23.36,63.61,-23.49,63.2,1.682,181,1.608,6.574,93.20002,280.2,289.6,0,84.9,823
"2015-03-29 13:15:00",17942,14.61,-22.01,-23.15,62.41,-23.32,62.07,1.682,173,1.609,6.428,96.70002,388.3,400.1,0,75.29,824
"2015-03-29 13:30:00",17943,14.61,-21.83,-22.95,61.08,-23.15,60.2,1.681,181,1.609,6.197,103.8,422,432.8,0,78.03,821
"2015-03-29 13:45:00",17944,14.62,-21.65,-22.71,61.86,-22.95,61.69,1.68,173,1.609,6.784,98.5,361.2,375,0,77,828
"2015-03-29 14:00:00",17945,14.61,-21.53,-22.54,62.88,-22.78,62.74,1.679,173,1.608,6.539,96.70002,320.7,331.2,0,73.58,826
"2015-03-29 14:15:00",17946,14.61,-21.41,-22.41,63.42,-22.58,63.46,1.68,185,1.61,6.381,102.3,246.5,253.7,0,74.26,824
"2015-03-29 14:30:00",17947,14.61,-21.3,-22.27,64.24,-22.51,64,1.679,170,1.609,6.287,102.3,307.2,315.6,0,72.21,822
"2015-03-29 14:45:00",17948,14.61,-21.18,-22.2,62.94,-22.37,63.04,1.679,170,1.609,6.271,106.1,232.9,239.2,0,76.32,822
"2015-03-29 15:00:00",17949,14.62,-21.09,-22.07,64.54,-22.3,64.98,1.679,169,1.61,5.999,110.7,64.14,65.5,0,72.21,822
"2015-03-29 15:15:00",17950,14.61,-20.98,-22.03,64.06,-22.3,64.17,1.679,169,1.61,5.997,114.6,27,27.58,0,76.32,828
"2015-03-29 15:30:00",17951,14.61,-20.86,-21.96,62.84,-22.17,63.11,1.678,170,1.609,5.321,112.1,124.9,125.7,0,74.61,821
"2015-03-29 15:45:00",17952,14.61,-20.74,-21.79,63.55,-22.1,63.89,1.678,170,1.61,4.927,111.8,67.5,67.5,0,71.18,824
"2015-03-29 16:00:00",17953,14.61,-20.6,-21.86,64.03,-22.07,63.89,1.678,169,1.609,4.579,112.2,-16.88,-16.88,0,74.95,847
"2015-03-29 16:15:00",17954,14.62,-20.46,-21.86,64.06,-22.03,64.1,1.678,173,1.609,4.468,109.9,-97.9,-97.9,0,71.53,824
"2015-03-29 16:30:00",17955,14.61,-20.37,-21.96,64.98,-22.1,65.12,1.678,174,1.609,4.942,109.5,-185.6,-185.6,0,77.68999,824
"2015-03-29 16:45:00",17956,14.61,-20.28,-22.1,64.47,-22.34,65.09,1.679,169,1.61,4.409,113.6,-293.6,-293.6,0,85.9,824
"2015-03-29 17:00:00",17957,14.61,-20.23,-22.48,65.43,-22.58,65.7,1.68,170,1.609,4.36,113.6,-307.1,-307.1,0,72.21,828
"2015-03-29 17:15:00",17958,14.61,-20.2,-22.65,65.56,-22.78,65.8,1.681,169,1.61,4.412,113.4,-374.6,-374.6,0,78.36999,823
"2015-03-29 17:30:00",17959,14.62,-20.17,-22.94,66.5,-23,66.77,1.682,169,1.61,4.194,110,-435.4,-435.4,0,73.58,822
"2015-03-29 17:45:00",17960,14.61,-20.2,-23.23,66.38,-23.4,66.66,1.683,169,1.61,3.898,112.3,-523.1,-523.1,0,78.71,824
"2015-03-29 18:00:00",17961,14.61,-20.25,-23.7,66.55,-23.77,66.69,1.685,170,1.61,3,97.6,-550.1,-550.1,0,72.89,821
"2015-03-29 18:15:00",17962,14.61,-20.31,-23.91,66.14,-23.98,66.01,1.685,169,1.61,3.581,99.20002,-536.6,-536.6,0,73.58,826
"2015-03-29 18:30:00",17963,14.62,-20.43,-24.66,66.08,-24.59,65.39,1.687,168,1.609,4.042,96.5,-523.1,-523.1,0,70.84,845
"2015-03-29 18:45:00",17964,14.61,-20.63,-25.48,66.86,-25.34,65.97,1.689,181,1.608,3.83,90.70002,-529.9,-529.9,0,70.84,824
"2015-03-29 19:00:00",17965,14.61,-20.92,-26.09,66.76,-25.92,65.67,1.692,180,1.609,3.896,88.5,-550.1,-550.1,0,81.8,825
"2015-03-29 19:15:00",17966,14.61,-21.21,-26.57,67.03,-26.43,66.08,1.693,173,1.609,3.358,83.5,-597.4,-597.4,0,80.1,843
"2015-03-29 19:30:00",17967,14.61,-21.59,-26.91,66.01,-26.84,65.33,1.694,188,1.608,3.862,81,-611,-611,0,85.6,823
"2015-03-29 19:45:00",17968,14.43,-21.95,-27.18,64.86,-27.11,64.21,1.695,180,1.608,3.945,83.70002,-617.8,-617.8,0,88.3,827
"2015-03-29 20:00:00",17969,14.26,-22.34,-27.86,65.35,-27.79,65.11,1.697,189,1.608,4.617,80.5,-638.1,-638.1,0,98.20002,823
"2015-03-29 20:15:00",17970,14.18,-22.76,-28.13,64.6,-28.06,64.46,1.698,189,1.608,4.864,89.5,-638.1,-638.1,0,99.6,820
"2015-03-29 20:30:00",17971,14.12,-23.23,-28.47,65.62,-28.37,65.59,1.699,188,1.608,4.494,93.8,-611.1,-611.1,0,99.20002,825
"2015-03-29 20:45:00",17972,14.06,-23.67,-28.4,63.85,-28.4,63.85,1.699,184,1.608,4.823,93,-604.4,-604.4,0,99.9,825
"2015-03-29 21:00:00",17973,14.04,-24.05,-28.74,63.92,-28.68,63.71,1.701,189,1.609,5.11,92.5,-618,-619.5,0,102.3,824
"2015-03-29 21:15:00",17974,14.02,-24.4,-28.88,63.38,-28.81,63.31,1.7,189,1.608,5.124,81.4,-611.3,-612.9,0,105.1,823
"2015-03-29 21:30:00",17975,13.99,-24.76,-29.66,63.8,-29.63,63.66,1.703,189,1.608,5.899,85,-594.4,-605.8,0,111.3,823
"2015-03-29 21:45:00",17976,13.96,-25.15,-29.87,64.55,-29.9,64.48,1.704,189,1.608,5.631,88.3,-597.8,-605.8,0,103.8,822
"2015-03-29 22:00:00",17977,13.94,-25.52,-29.87,64.55,-29.87,64.55,1.704,189,1.608,5.416,90.4,-577.5,-582.6,0,106.5,824
"2015-03-29 22:15:00",17978,13.91,-25.83,-29.8,63.87,-29.73,63.8,1.704,189,1.608,4.873,86.4,-597.9,-597.9,0,103.8,826
"2015-03-29 22:30:00",17979,13.89,-26.06,-30.04,63.81,-30.07,63.67,1.705,189,1.609,4.883,79.17,-597.9,-597.9,0,104.8,829
"2015-03-29 22:45:00",17980,13.86,-26.3,-29.83,61.93,-29.83,61.73,1.704,189,1.608,6.033,91.4,-577.7,-590.4,0,100.3,824
"2015-03-29 23:00:00",17981,13.84,-26.58,-30.38,63.2,-30.38,63.1,1.706,189,1.608,5.667,88.4,-584.5,-592.8,0,101,824
"2015-03-29 23:15:00",17982,13.82,-26.83,-30.31,63.34,-30.31,63.34,1.705,189,1.608,5.764,90.6,-581.1,-590.5,0,104.5,823
"2015-03-29 23:30:00",17983,13.8,-27.04,-30.51,62.35,-30.51,62.32,1.707,186,1.609,5.861,98.6,-557.4,-567.7,0,108.9,823
"2015-03-29 23:45:00",17984,13.77,-27.25,-30.72,62.46,-30.72,62.46,1.706,184,1.607,6.065,89.3,-564.2,-577,0,107.5,824
"2015-03-30 00:00:00",17985,13.75,-27.47,-30.72,62.32,-30.72,62.25,1.707,185,1.608,6.149,87.9,-574.3,-588.4,0,105.1,826
