"TOA5","UM_Lab","CR1000","54800","CR1000.Std.25","CPU:Met_station_20140708.CR1","47275","Table1"
"TIMESTAMP","RECORD","BattV","PTemp_C","AirTC_1","RH_1","AirTC_2","RH_2","DT","Q","TCDT","WS_ms","WindDir","NR_Wm2","CNR_Wm2","Rain_mm_Tot","Ducer_1","Ducer_2"
"TS","RN","V","Deg C","Deg C","%","Deg C","%","m","","m","m/s","degrees","W/m^2","W/m^2","mm","V","V"
"","","Smp","Smp","Smp","Smp","Smp","Smp","Smp","Smp","Smp","Smp","Smp","Smp","Smp","Tot","Smp","Smp"
"2014-08-09 00:10:00",1027,13.26,2.374,1.573,87.8,1.573,87.4,1.226,261,1.23,7.154,125.2,-319.5,-334.2,0,30.35,961
"2014-08-09 00:20:00",1028,13.26,2.331,1.556,87.6,1.624,87.20002,1.229,229,1.232,7.239,117.7,-299.4,-313.6,0,24.9,958
"2014-08-09 00:30:00",1029,13.26,2.311,1.624,87.6,1.624,87.4,1.227,227,1.231,7.254,130.6,-299.4,-313.7,0,29.67,957
"2014-08-09 00:40:00",1030,13.26,2.288,1.709,87.1,1.743,86.6,1.231,210,1.235,7.273,127.4,-329.6,-345.6,0,25.58,957
"2014-08-09 00:50:00",1031,13.26,2.268,1.624,87,1.692,86.6,1.23,204,1.234,7.45900,112.3,-316.2,-332.7,0,24.9,957
"2014-08-09 01:00:00",1032,13.26,2.245,1.845,85.8,1.913,85.3,1.227,219,1.231,7.988,108.4,-265.7,-282.6,0,24.22,959
"2014-08-09 01:10:00",1033,13.26,2.245,1.692,86.20002,1.692,85.9,1.228,205,1.232,7.805,125.9,-248.9,-263.8,0,24.9,960
"2014-08-09 01:20:00",1034,13.26,2.225,1.573,87.6,1.573,87.20002,1.231,212,1.235,7.426,121.2,-205.2,-215.8,0,31.04,959
"2014-08-09 01:30:00",1035,13.26,2.182,1.556,87.4,1.59,87,1.231,203,1.235,6.905,127.4,-154.7,-161,0,27.63,959
"2014-08-09 01:40:00",1036,13.26,2.162,1.505,87.8,1.539,87.6,1.233,212,1.236,6.732,111.7,-178.3,-184.8,0,26.94,956
"2014-08-09 01:50:00",1037,13.26,2.139,1.59,87.20002,1.624,86.70002,1.23,228,1.234,6.382,123.4,-154.7,-159.3,0,30.35,959
"2014-08-09 02:00:00",1038,13.26,2.119,1.624,86.4,1.692,86,1.228,236,1.232,6.73100,116.6,-134.5,-139.5,0,26.26,955
"2014-08-09 02:10:00",1039,13.25,2.119,1.692,85.8,1.76,85.3,1.228,201,1.232,7.29500,118.6,-144.6,-151.7,0,28.31,959
"2014-08-09 02:20:00",1040,13.25,2.096,1.624,85.5,1.692,84.9,1.226,213,1.23,7.31600,122.5,-208.5,-218.8,0,27.63,959
"2014-08-09 02:30:00",1041,13.26,2.076,1.573,86.1,1.573,85.6,1.227,210,1.231,6.669,117.4,-174.9,-181.1,0,27.63,958
"2014-08-09 02:40:00",1042,13.26,2.076,1.76,84.8,1.76,84.5,1.226,190,1.23,7.163,134.4,-195.1,-204.1,0,30.35,959
"2014-08-09 02:50:00",1043,13.25,2.053,1.845,83.3,1.981,82.70002,1.226,204,1.23,7.61800,123,-127.8,-134.9,0,31.72,959
"2014-08-09 03:00:00",1044,13.26,2.076,1.76,83.3,1.828,82.70002,1.228,218,1.232,7.48700,116,-70.64,-74.38,0,23.53,957
"2014-08-09 03:10:00",1045,13.26,2.076,1.913,82.3,1.981,81.6,1.224,223,1.228,7.47400,116.6,0,0,0,22.85,958
"2014-08-09 03:20:00",1046,13.26,2.076,1.964,83.3,2.032,82.5,1.229,217,1.233,7.74200,132.5,30.27,32.04,0,32.4,959
"2014-08-09 03:30:00",1047,13.26,2.076,1.828,84.5,1.828,84.20002,1.228,210,1.232,7.65800,129.4,26.91,28.43,0,32.4,962
"2014-08-09 03:40:00",1048,13.25,2.076,1.692,86,1.726,85.3,1.232,206,1.236,7.73600,114.6,0,0,0,36.49,953
"2014-08-09 03:50:00",1049,13.25,2.076,1.641,86.70002,1.709,86.20002,1.228,228,1.232,7.76900,112.6,-104.3,-110.4,0,25.58,959
"2014-08-09 04:00:00",1050,13.26,2.053,1.709,86.8,1.743,86.5,1.231,206,1.235,7.34,111.7,-198.5,-208.3,0,22.85,958
"2014-08-09 04:10:00",1051,13.25,2.033,1.845,86.8,1.777,86.5,1.228,235,1.232,7.357,112.9,-201.8,-212,0,28.31,957
"2014-08-09 04:20:00",1052,13.25,2.033,1.777,87.4,1.777,87,1.232,223,1.236,7.22900,112.6,-134.6,-140.9,0,28.99,957
"2014-08-09 04:30:00",1053,13.25,2.011,1.794,87.6,1.828,87,1.233,218,1.237,7.44800,122.9,-90.8,-95.6,0,28.31,957
"2014-08-09 04:40:00",1054,13.25,2.011,1.777,87.5,1.845,87.1,1.231,256,1.235,7.521,125,-26.91,-28.36,0,33.08,961
"2014-08-09 04:50:00",1055,13.25,2.011,1.845,87,1.981,86.6,1.231,202,1.235,7.708,129.2,26.91,28.46,0,32.4,959
"2014-08-09 05:00:00",1056,13.25,2.011,1.828,87.5,1.896,87.1,1.228,222,1.232,7.67600,129.5,13.46,14.22,0,37.86,981
"2014-08-09 05:10:00",1057,13.25,2.011,1.896,86.9,1.964,86.70002,1.229,205,1.233,8.15,123.3,33.64,35.9,0,34.45,959
"2014-08-09 05:20:00",1058,13.25,2.033,1.981,86.9,2.049,86.4,1.229,197,1.233,9.22,118.7,13.46,14.66,0,31.04,957
"2014-08-09 05:30:00",1059,13.25,2.033,1.862,87.4,1.964,87.1,1.228,238,1.232,8.61,126.9,23.55,25.36,0,33.77,959
"2014-08-09 05:40:00",1060,13.25,2.053,1.896,87.4,1.998,87.1,1.228,250,1.232,8.32,123.6,40.37,43.22,0,34.45,957
"2014-08-09 05:50:00",1061,13.25,2.053,1.828,88.4,1.896,87.9,1.223,277,1.227,8.41,119.6,20.18,21.65,0,26.94,954
"2014-08-09 06:00:00",1062,13.25,2.076,1.828,88.4,1.964,88.1,1.231,222,1.235,8.47,151.4,74,79.46,0,36.49,959
"2014-08-09 06:10:00",1063,13.25,2.076,1.845,89,1.913,88.9,1.24,221,1.244,8.16,121.8,114.4,122.1,0,32.4,962
"2014-08-09 06:20:00",1064,13.25,2.076,1.828,89.20002,1.828,89.1,1.232,203,1.236,8.19000,120.3,222,237.1,0,36.49,963
"2014-08-09 06:30:00",1065,13.25,2.076,1.913,88.3,1.913,88,1.236,192,1.24,8.09,125.9,168.2,179.3,0,35.13,959
"2014-08-09 06:40:00",1066,13.25,2.096,1.828,88.5,1.896,88.3,1.237,196,1.241,7.707,117.9,228.7,241.9,0,30.35,963
"2014-08-09 06:50:00",1067,13.25,2.096,2.049,87.70002,2.049,87.3,1.239,225,1.244,8.68000,135.2,598.7,645.6,0,34.45,958
"2014-08-09 07:00:00",1068,13.25,2.119,2.049,87.70002,2.049,87.5,1.249,217,1.254,8.79,135.2,339.7,367.1,0,31.04,959
"2014-08-09 07:10:00",1069,13.25,2.162,2.049,87.6,2.117,87.4,1.241,189,1.246,8.91,132.1,127.8,138.5,0,32.4,978
"2014-08-09 07:20:00",1070,13.25,2.162,2.015,88.1,2.083,88,1.235,192,1.24,8.65,128.9,339.7,366.1,0,30.35,955
"2014-08-09 07:30:00",1071,13.25,2.182,2.015,88.1,2.117,87.6,1.238,194,1.243,8.63,123.7,366.6,394.9,0,29.67,955
"2014-08-09 07:40:00",1072,13.25,2.203,2.117,87.70002,2.253,87.5,1.233,222,1.238,8.43000,126.6,285.9,306.8,0,29.67,955
"2014-08-09 07:50:00",1073,13.25,2.203,2.1,88.20002,2.202,87.8,1.235,205,1.24,8.82,125.6,588.6,636.4,0,24.9,959
"2014-08-09 08:00:00",1074,13.25,2.245,2.168,87.6,2.236,87.20002,1.229,202,1.234,9.02000,127.9,814,884,0,22.85,959
"2014-08-09 08:10:00",1075,13.25,2.288,2.1,87.5,2.236,87.4,1.23,189,1.235,8.64000,128.8,938,1011,0,22.17,957
"2014-08-09 08:20:00",1076,13.25,2.311,2.066,88.3,2.1,88.20002,1.229,194,1.234,8.42,128.1,632.4,678.5,0,28.31,959
"2014-08-09 08:30:00",1077,13.25,2.352,1.981,88.70002,2.049,88.4,1.233,194,1.237,8.35000,134.3,514.6,551.3,0,26.94,959
"2014-08-09 08:40:00",1078,13.25,2.352,2.168,88.70002,2.202,88.5,1.239,198,1.244,9.11,128.1,373.4,406,0,28.99,959
"2014-08-09 08:50:00",1079,13.25,2.374,2.168,89.20002,2.236,89,1.234,243,1.239,9.87,130.1,26.91,29.7,0,28.99,959
"2014-08-09 09:00:00",1080,13.25,2.395,2.1,88.9,2.168,88.9,1.243,192,1.248,9.08,141.3,292.6,318,0,25.58,957
"2014-08-09 09:10:00",1081,13.25,2.395,2.117,89.4,2.185,89.1,1.244,196,1.249,9.26,133.4,322.9,352.2,0,22.85,960
"2014-08-09 09:20:00",1082,13.25,2.395,2.032,89.1,2.202,88.8,1.235,222,1.24,9.18000,130.7,60.55,65.93,0,28.99,959
"2014-08-09 09:30:00",1083,13.25,2.417,1.964,91,1.964,91,1.241,241,1.245,8.9,129,-144.6,-156.6,0,24.22,959
"2014-08-09 09:40:00",1084,13.25,2.395,1.828,92.1,1.93,92,1.248,196,1.252,8.85000,127.2,-10.09,-10.92,0.254,31.72,959
"2014-08-09 09:50:00",1085,13.25,2.374,1.828,91.9,1.964,91.6,1.249,200,1.253,9.24,126.8,131.2,143,0,31.04,956
"2014-08-09 10:00:00",1086,13.25,2.352,1.828,92.8,1.896,93,1.243,196,1.247,9.45,133.3,235.5,257.8,0.254,30.35,959
"2014-08-09 10:10:00",1087,13.25,2.331,1.828,93.6,1.964,94.1,1.238,217,1.242,9.05,133.2,134.5,146.1,0,33.08,955
"2014-08-09 10:20:00",1088,13.25,2.311,2.032,92.6,2.032,92.9,1.242,197,1.247,9.24,136.2,-30.27,-33.01,0,26.26,959
"2014-08-09 10:30:00",1089,13.25,2.288,2.049,93.3,1.981,94.5,1.248,226,1.253,10.24,125.2,-63.91,-71.04,0.508,35.13,957
"2014-08-09 10:40:00",1090,13.25,2.268,2.032,92.20002,1.964,92.70002,1.244,195,1.249,10.78,129.5,57.18,64.22,0,35.81,957
"2014-08-09 10:50:00",1091,13.25,2.268,2.049,93.1,2.049,94,1.24,250,1.245,10.29,126,612.2,681.2,0,26.26,957
"2014-08-09 11:00:00",1092,13.25,2.268,1.964,92.8,1.964,93.9,1.247,178,1.251,9.55,135.9,487.7,534.9,0,30.35,960
"2014-08-09 11:10:00",1093,13.25,2.268,2.066,92.9,2.1,93.6,1.246,226,1.251,9.63,132.7,511.3,561.7,0,31.72,977
"2014-08-09 11:20:00",1094,13.25,2.288,2.117,94,2.083,94.9,1.247,202,1.252,9.32,140.3,265.7,290.2,0,27.63,962
"2014-08-09 11:30:00",1095,13.25,2.288,2.117,92.8,2.185,93.4,1.243,272,1.248,9.9,130,885,977,0,27.63,959
"2014-08-09 11:40:00",1096,13.25,2.331,2.168,92.20002,2.236,92.5,1.261,189,1.266,10.06,135.6,1164,1289,0,28.99,957
"2014-08-09 11:50:00",1097,13.25,2.352,2.117,92.9,2.219,93.5,1.254,185,1.259,9.4,132.8,811,887,0,27.63,961
"2014-08-09 12:00:00",1098,13.25,2.374,2.117,93.4,2.151,93.9,1.26,193,1.265,9.71,133.7,706.4,777.2,0,27.63,956
"2014-08-09 12:10:00",1099,13.25,2.374,2.049,93,2.049,93.5,1.247,207,1.252,8.84,133.7,141.3,152.8,0,31.72,953
"2014-08-09 12:20:00",1100,13.25,2.374,2.083,93.4,2.117,94.20002,1.249,216,1.254,8.58,137.3,148,159.3,0,28.31,953
"2014-08-09 12:30:00",1101,13.25,2.352,1.862,95.1,1.964,95.6,1.25,212,1.254,8.88,124.8,154.7,167.5,0,33.08,958
"2014-08-09 12:40:00",1102,13.25,2.352,1.828,94.9,1.964,95.4,1.248,229,1.252,8.47,116.9,279.2,299.8,0.254,31.04,959
"2014-08-09 12:50:00",1103,13.25,2.331,1.896,94.4,1.964,94.9,1.258,198,1.262,8.94000,125.9,440.6,477.5,0,31.04,956
"2014-08-09 13:00:00",1104,13.25,2.331,1.964,94.70002,1.964,95.20002,1.262,211,1.267,9.36,131,625.6,683.7,0.254,30.35,957
"2014-08-09 13:10:00",1105,13.25,2.331,1.828,96,1.828,96.6,1.254,226,1.258,8.93000,130.8,618.9,670.7,0,25.58,957
"2014-08-09 13:20:00",1106,13.25,2.352,1.828,95,1.862,95.8,1.253,197,1.257,8.9,140.1,578.5,626.6,0,33.08,957
"2014-08-09 13:30:00",1107,13.25,2.352,2.032,95.9,1.964,96.5,1.251,188,1.256,8.52000,133,393.5,423.1,0,34.45,977
"2014-08-09 13:40:00",1108,13.25,2.352,1.964,96.20002,1.964,96.6,1.258,193,1.263,9.38,140.9,390.2,426.5,0.254,26.94,959
"2014-08-09 13:50:00",1109,13.25,2.352,2.049,96.4,2.049,96.9,1.253,188,1.258,9.81000,132.8,185,204,0.508,30.35,976
"2014-08-09 14:00:00",1110,13.25,2.331,2.032,96.5,1.964,96.9,1.25,192,1.255,9.58,143.3,477.6,524.2,0.508,35.81,957
"2014-08-09 14:10:00",1111,13.25,2.331,1.896,96,1.964,96.3,1.249,193,1.253,8.87,133.3,272.5,294.9,0,33.08,960
"2014-08-09 14:20:00",1112,13.25,2.311,1.896,96.6,1.964,97.1,1.252,195,1.256,8.63,141.5,208.5,224.7,0,32.4,960
"2014-08-09 14:30:00",1113,13.25,2.311,1.896,96.3,1.964,96.4,1.253,191,1.257,9.15,129.5,195.1,212.3,0,32.4,978
"2014-08-09 14:40:00",1114,13.25,2.288,1.981,96.9,1.981,97.3,1.253,207,1.258,8.99,131.2,137.9,149.6,0.254,32.4,955
"2014-08-09 14:50:00",1115,13.25,2.288,1.896,96.5,1.896,97,1.25,235,1.254,8.8,119.8,652.5,705.4,0,24.9,979
"2014-08-09 15:00:00",1116,13.25,2.288,2.032,96.1,2.032,96.5,1.262,218,1.267,9.25,131,787.1,858,0,29.67,957
"2014-08-09 15:10:00",1117,13.25,2.311,1.964,96.5,1.998,97,1.264,230,1.269,8.59,135.4,1456,1568,0,28.31,953
"2014-08-09 15:20:00",1118,13.25,2.331,1.964,96.20002,1.998,96.8,1.258,251,1.263,9.04,129.4,1137,1235,0,26.94,961
"2014-08-09 15:30:00",1119,13.25,2.374,2.253,95.4,2.253,95.8,1.261,216,1.266,9.39000,125.9,1319,1442,0,23.53,957
"2014-08-09 15:40:00",1120,13.25,2.395,2.304,95,2.236,95.8,1.259,204,1.264,9.27000,136.4,1409,1538,0,22.85,957
"2014-08-09 15:50:00",1121,13.25,2.438,2.304,95,2.304,95.6,1.259,197,1.264,8.84,132.9,1382,1495,0,26.26,957
"2014-08-09 16:00:00",1122,13.25,2.48,2.1,96.1,2.1,96.70002,1.263,186,1.268,8.38,128.3,1157,1240,0,22.17,953
"2014-08-09 16:10:00",1123,13.25,2.503,2.185,94.3,2.185,94.9,1.267,181,1.272,8.41,133.4,746.7,801,0,27.63,955
"2014-08-09 16:20:00",1124,13.25,2.523,2.168,94.9,2.202,95.3,1.262,197,1.267,7.94100,121.8,615.5,654.1,0,29.67,958
"2014-08-09 16:30:00",1125,13.25,2.523,2.202,95,2.236,95.5,1.265,201,1.27,7.674,106.5,949,1003,0,25.58,958
"2014-08-09 16:40:00",1126,13.25,2.544,2.321,94,2.253,94.4,1.264,203,1.269,8.31000,125.1,824,882,0,21.49,959
"2014-08-09 16:50:00",1127,13.25,2.544,2.117,95.1,2.117,95.5,1.262,200,1.267,8.72,128.7,632.4,682.4,0,32.4,955
"2014-08-09 17:00:00",1128,13.25,2.544,2.389,93.70002,2.457,93.8,1.26,199,1.265,8.64000,120.6,676.1,728.5,0,23.53,977
"2014-08-09 17:10:00",1129,13.25,2.566,2.304,93.4,2.304,93.5,1.26,188,1.265,9.10000,118,541.5,588.8,0,23.53,962
"2014-08-09 17:20:00",1130,13.25,2.566,2.253,93.9,2.253,94.1,1.261,195,1.266,8.04,134.3,655.9,698.4,0,27.63,959
"2014-08-09 17:30:00",1131,13.25,2.566,2.576,93.4,2.644,93.6,1.261,187,1.267,8.99,130.4,487.7,529.1,0,23.53,964
"2014-08-09 17:40:00",1132,13.25,2.609,2.508,92.3,2.508,92.70002,1.274,231,1.28,9.43000,123,544.9,596.3,0,23.53,976
"2014-08-09 17:50:00",1133,13.25,2.63,2.321,93.9,2.321,94.1,1.268,202,1.273,8.64000,133.6,618.9,666.8,0,24.9,956
"2014-08-09 18:00:00",1134,13.25,2.63,2.372,93.20002,2.508,93.6,1.272,190,1.278,9.3,140.1,766.9,837,0,22.17,955
"2014-08-09 18:10:00",1135,13.25,2.63,2.1,92.9,2.168,93.3,1.275,174,1.28,8.58,119.6,518,557.5,0,24.22,955
"2014-08-09 18:20:00",1136,13.25,2.63,2.066,93.9,2.1,94.4,1.277,188,1.282,7.84100,125.6,383.5,406.6,0,26.26,959
"2014-08-09 18:30:00",1137,13.25,2.609,2.185,95.3,2.253,95.4,1.269,189,1.274,8.62,123.7,33.64,36.23,0.254,32.4,955
"2014-08-09 18:40:00",1138,13.25,2.587,2.253,95.5,2.253,95.9,1.271,189,1.276,8.68000,127.2,94.20002,101.6,0,28.31,955
"2014-08-09 18:50:00",1139,13.25,2.566,2.185,95.4,2.253,95.8,1.27,193,1.275,8.53,125.4,161.5,173.6,0.254,29.67,957
"2014-08-09 19:00:00",1140,13.25,2.544,2.185,95.8,2.219,96.1,1.271,202,1.276,8.18000,134.8,74,79.02,0,33.08,957
"2014-08-09 19:10:00",1141,13.25,2.544,2.066,96.4,2.1,96.6,1.273,195,1.278,8.37,129.6,151.4,162.2,0.254,30.35,959
"2014-08-09 19:20:00",1142,13.25,2.503,2.049,96.70002,2.117,97,1.266,190,1.271,7.43500,128.5,134.5,141.5,0.254,35.13,960
"2014-08-09 19:30:00",1143,13.25,2.48,2.015,96.6,2.049,97.20002,1.268,207,1.273,7.423,116.9,114.4,120.3,0.254,32.4,957
"2014-08-09 19:40:00",1144,13.25,2.46,1.981,96.8,1.981,97.3,1.262,252,1.267,6.84300,119.8,80.70002,83.9,0,36.49,957
"2014-08-09 19:50:00",1145,13.25,2.438,2.236,97.20002,2.236,98,1.26,225,1.265,7.94700,129.8,90.8,96.5,0,33.08,980
"2014-08-09 20:00:00",1146,13.25,2.417,2.168,97.4,2.236,97.6,1.262,235,1.267,9.14000,124.2,134.5,146.4,0.508,28.99,959
"2014-08-09 20:10:00",1147,13.25,2.417,2.117,96.8,2.117,97.4,1.263,230,1.268,9.85000,133.5,87.5,96.5,0.254,31.04,977
"2014-08-09 20:20:00",1148,13.25,2.417,1.93,96.4,1.964,96.9,1.266,200,1.27,9.73000,123.6,-23.55,-25.91,0,33.08,977
"2014-08-09 20:30:00",1149,13.25,2.395,2.117,96,2.185,96,1.266,200,1.271,9.7,129.6,3.364,3.7,0,33.77,979
"2014-08-09 20:40:00",1150,13.25,2.374,2.253,95.70002,2.253,96,1.267,194,1.272,9.59,128.1,-20.18,-22.15,0,30.35,958
"2014-08-09 20:50:00",1151,13.25,2.374,2.321,96.20002,2.287,96.6,1.265,192,1.27,8.78,120.4,0,0,0.254,32.4,957
"2014-08-09 21:00:00",1152,13.25,2.395,2.576,96.1,2.576,96.3,1.268,192,1.274,9.77000,124.9,-37,-40.76,0,16.71,957
"2014-08-09 21:10:00",1153,13.25,2.417,2.508,94.70002,2.542,94.9,1.268,190,1.274,9.7,124,-63.91,-70.29999,0,21.49,959
"2014-08-09 21:20:00",1154,13.25,2.438,2.372,94.5,2.508,94.20002,1.268,180,1.273,9.46,113.9,30.27,33.15,0,21.49,958
"2014-08-09 21:30:00",1155,13.25,2.438,2.321,95.70002,2.389,96.1,1.268,181,1.273,7.524,116,111,117,0,31.72,960
"2014-08-09 21:40:00",1156,13.25,2.438,2.661,94.70002,2.762,95.3,1.267,196,1.273,8.26,133.1,90.8,97.1,0,22.17,979
"2014-08-09 21:50:00",1157,13.25,2.46,2.796,94.70002,2.796,95.1,1.27,185,1.276,9.68000,122.4,-174.9,-192.3,0,15.35,957
"2014-08-09 22:00:00",1158,13.25,2.503,2.576,94.6,2.678,94.70002,1.267,235,1.273,9.17,119.9,-97.5,-106.2,0,26.26,960
"2014-08-09 22:10:00",1159,13.25,2.523,2.185,95.9,2.253,96.3,1.268,223,1.273,9.03,125,-124.5,-135.1,0,25.58,957
"2014-08-09 22:20:00",1160,13.25,2.503,1.896,95.9,1.964,96.1,1.274,204,1.278,7.615,116.3,-67.27,-71.02,0,31.72,956
"2014-08-09 22:30:00",1161,13.25,2.46,2.117,95.70002,2.117,96.1,1.274,230,1.279,8.87,121.1,-97.5,-105.6,0,35.81,960
"2014-08-09 22:40:00",1162,13.25,2.417,2.355,94.5,2.321,94.4,1.274,229,1.279,9.07,117,-161.5,-175.5,0,32.4,961
"2014-08-09 22:50:00",1163,13.25,2.417,1.981,95.20002,1.981,95.3,1.278,216,1.283,8.58,114.8,-117.7,-126.7,0,31.72,958
"2014-08-09 23:00:00",1164,13.25,2.374,2.1,95.1,2.202,95.20002,1.276,222,1.281,8.24,116.2,-77.36,-82.70002,0.254,33.77,957
"2014-08-09 23:10:00",1165,13.25,2.352,2.321,94.4,2.389,94.4,1.284,229,1.289,8.68000,125.7,-141.3,-152.3,0,31.04,959
"2014-08-09 23:20:00",1166,13.25,2.352,2.644,95.4,2.745,95.5,1.271,247,1.277,7.55800,125.5,-80.70002,-85.1,0,30.35,959
"2014-08-09 23:30:00",1167,13.25,2.374,2.661,93.9,2.762,93.8,1.279,203,1.285,8.47,129.2,-121.1,-130,0.254,24.9,959
"2014-08-09 23:40:00",1168,13.25,2.417,2.627,95.1,2.728,95.20002,1.275,198,1.281,8.43000,123.5,-70.64,-75.79,0,26.26,957
"2014-08-09 23:50:00",1169,13.25,2.438,2.508,94.4,2.576,94.6,1.276,198,1.282,7.989,141.1,-90.8,-96.6,0.254,25.58,954
"2014-08-10 00:00:00",1170,13.25,2.438,2.593,94.5,2.695,94.1,1.276,189,1.282,8.27000,130.3,-94.20002,-100.7,0.254,26.94,961
