Datetime,optimized_PDD
2011-07-20,0.0375144121042
2011-07-21,0.0363948195417
2011-07-22,0.0488953224167
2011-07-23,0.0561293346458
2011-07-24,0.0472818393542
2011-07-25,0.0334941965833
2011-07-26,0.0333412580833
2011-07-27,0.0239669712708
2011-07-28,0.0235519937708
2011-07-29,0.0290432825833
2011-07-30,0.0464337292083
2011-07-31,0.0467845726458
2011-08-01,0.0399945691875
2011-08-02,0.0326349391042
2011-08-03,0.0342998908958
2011-08-04,0.0355086041458
2011-08-05,0.0347815909167
2011-08-06,0.0357612490833
2011-08-07,0.0363970606042
2011-08-08,0.0387745136842
2011-08-09,0.0262227834792
2011-08-10,0.0276717288542
2011-08-11,0.0233588881667
2011-08-12,0.0234548700417
2011-08-13,0.0066100877381
2011-08-14,0.00996915785417
2011-08-15,0.0163038370208
2011-08-16,0.0181097452708
2011-08-17,0.0251267673542
2011-08-18,0.0291700537917
2011-08-19,0.0206628847083
2011-08-20,0.00308460235417
2011-08-23,0.0101358599375
2011-08-24,0.02079115475
2011-08-25,0.0264140960417
2011-08-26,0.0316957671667
2011-08-27,0.0407012413125
2011-08-28,0.0454632696042
2011-08-29,0.0285419027083
2011-08-30,0.0100915648125
2011-08-31,0.00765731141667
2011-09-01,0.000488661833333
2011-09-04,0.0168267544792
2011-09-09,0.0257956155
2011-09-10,0.0238451805208
2011-09-11,0.002443873625
2011-09-12,0.00169500752083
2011-11-13,0.015767075
2012-06-11,0.0214841236667
2012-06-12,0.00884469810833
2012-06-13,0.0168956537583
2012-06-14,0.0336113873333
2012-06-15,0.0285527654167
2012-06-16,0.0263514181667
2012-06-17,0.0272654151667
2012-06-18,0.0299533561667
2012-06-19,0.033208849
2012-06-20,0.0429443771667
2012-06-21,0.0384727765833
2012-06-22,0.03045545
2012-06-23,0.0313071534167
2012-06-24,0.0409766485833
2012-06-25,0.0386722364167
2012-06-26,0.041882103
2012-06-27,0.0377086955
2012-06-28,0.0373263933333
2012-06-29,0.0359923665
2012-06-30,0.0358719308333
2012-07-01,0.0314764295833
2012-07-02,0.0260275494167
2012-07-03,0.02929924
2012-07-04,0.03096965525
2012-07-05,0.0334863919167
2012-07-06,0.0361402929167
2012-07-07,0.0292401031667
2012-07-08,0.04128916875
2012-07-09,0.0512003498333
2012-07-10,0.0638880909167
2012-07-11,0.05756545225
2012-07-12,0.0412567655833
2012-07-13,0.0383208730833
2012-07-14,0.030990361
2012-07-15,0.027985802
2012-07-16,0.0344857304167
2012-07-17,0.03531473475
2012-07-18,0.0365567539167
2012-07-19,0.0375653901667
2012-07-20,0.02715632425
2012-07-21,0.0245095613
2012-07-22,0.0226713338333
2012-07-23,0.02368798175
2012-07-24,0.0208204126667
2012-07-25,0.0329173815
2012-07-26,0.0483441274167
2012-07-27,0.0679184211667
2012-07-28,0.0504683230833
2012-07-29,0.03388261675
2012-07-30,0.0377620995833
2012-07-31,0.03643415625
2012-08-01,0.0408646328333
2012-08-02,0.0453518504167
2012-08-03,0.0482221105
2012-08-04,0.0606340010833
2012-08-05,0.0531001709167
2012-08-06,0.0300918640833
2012-08-07,0.0295852085833
2012-08-08,0.0218151281667
2012-08-09,0.020841703
2012-08-10,0.00946126035417
2012-08-11,0.0067626131225
2012-08-12,0.00664334855833
2012-08-13,0.0136994167833
2012-08-14,0.02896022
2012-08-15,0.0445805741667
2012-08-16,0.0475865361667
2012-08-17,0.0434429635
2012-08-18,0.04560307175
2012-08-19,0.03453632275
2012-08-20,0.03261877825
2012-08-21,0.0281467138333
2012-08-22,0.0223311408333
2012-08-23,0.0273457215833
2012-08-24,0.0167484888333
2012-08-25,0.016477026925
2012-08-26,0.00733641963333
2012-08-30,0.0160971792417
2012-08-31,0.02823152825
2012-09-01,0.0141220814583
2012-09-02,0.00387369342667
2012-09-03,0.01279296685
2012-09-10,0.00429904461667
2012-09-11,0.0344527963333
2012-09-12,0.00252896193333
2012-09-14,0.00895501109167
